 ;clllllllllllllllllooooooooooooooooooooooooooooooooooooooooo...clllllllccccc::::::::::::;;. 
 cxxxxxxkkkkkkkkkkkkkkkkkkkkkOOOOOOOOOOOOOOOOOOOOOOOOOOxo:'';...,::ldxxxxxdddddddoooooollll' 
 :ddddddxxxxxxxxxxxxxxxxxkkkkkkkkkkkkkkkkkkkkkkkkkkOOkk:..... ......':ddddddddoooooooooooll, 
 cddddddddddddddxxxxxxxxxxxkkkkkkkkkkkkkkkkkkkkkxl:;,,::............',:xxxddddddddddddddood, 
 cddddddxxxxxxxxxxxxxxxxkkkkkkkkkkkkkkkkkkkkkko,.... ...............'':xxxxxxxxxxdddddddddd; 
 cdxxxxxxxxxxxxxxxxxxxxkkkkkkkkkkkkOOOOOOOOOd,......................',oxxxxxxxxdddddddddddd, 
 cxxxxxxxxxxxxxxxxxxxxxkkkkkkkkkkkkOOOOOOOOl........        .........:xxxxxdddddddddddddddd, 
 cdxxxxxxxxxxxxxxxxxxxxkkkkkkkkkkkkkOkkxc;'';;,......     .     .....,ddddddddddooooooooooo, 
 cdddxddddddddddddxxxxxxxxxxxxxxxxxc:ll'...;,.........................lddoooooollllllllllll' 
 ;llllllllcccccclccccllllllloooooo;,.'.....'............'...''........,ccccccccccccccccc:::. 
 ,::::::ccccccccccccclllllllllllllcl.'l... ........    ...'.,;,'......';::::::::::::::::::;. 
 ,::::ccccccc:ccccccclllllllllllll:c':lc'............   ....'''........,;;,,,,,,,,,,,,;;;;;. 
 ,:ccc:::;;;;;,,;;;;;::::::::::::;,''.cllllcc:ccc:;,'..   ............':c,'''''''''''''''''. 
 ';;:::;;;;;,,,,,,;,;;::;:,;;::::,'''.:dooollllllllll;.      ..........';''''''......''''''. 
 .',;;;;:;,,,,'''.'''',,,,,,,:c:c;....oddoooollccccc:;.. .   . .........;'''.''''........... 
 .';';;,,'';;c:,,,,,'..'',;,'''.......llcooooodddddool.       ....     .';',,',,,''',''''''. 
 .'',,:,''',;:;,;;'..,...'','''......,l:;c;,;::clcllllc.        ..     .'c.'''''''.';;;;,,,. 
 ,,,'''.',,'','....',,'..,;.    ........',lkk:,,,;;:ccd,            ....;o;,;:;:::,,::::::;. 
 .;;..''...'',',',;col:,.'.  ..........',,;oOx;;,,lccco:.              ..c:,;lc:cl;;oooddoo, 
 .',',,;cc'.'..'.colococ.   .'........',,,''dOo;;:;,:cdc..              .lo,',::c;:::::;:::. 
 ,'':occ;;,cd,'''oxxxll:. ............',,,,''oxd;:;::;;'              ..'xd,',;:c;codolc:;;. 
 ,;;cc:,,;;ol:,;:oxxxl.....''.........'',,''..';:,:c::,,           ....:lkxl;:,,,'llll:c;'c' 
 ,l:;;,,;,,:c;'':oxkx;....''.........'...'......  .,:,;,      .......'.,okkx'',,'.,;'c:;;:c' 
 .;,;;;,,:oolc,.:oxd,...'''...''''...............   .',;.    ...........dkkx,',...;c,c:..;:. 
 ..'...';cxxxx:,cdo'...,''.....'.'.......... .....   .... ..........,.::oxxx;,;;.'',:,'..';. 
 ,;',,;::lxxxlloxl'..';,'','.....''......... .,'...   '',.........cd:...,cloc..;;,,',,...';. 
 ;,..,::c;;:ccldl,'',;;,,:::;,'',,',''''';;;;,,;'..   .;c.........:dc....;cc::cccl:,,c'..,,. 
 ':;,;,.';;:::;c;;;;::,,:::::::;;,,,,;,,',;;;;;;;'.;clc,cl........'dl....,cl,'lccc,..,;''..  
 ';:cc;'';:c,'::;;:cl:,:cccccc:;;,',,,,,'';::;;;;;..:cox;::.......'oo'...,cc'.::;;.  .',,'.. 
 .:lc::;:;l,;cc:::clc;,:clc::::cc;,;;::,,,;:ccccc:;.'::oOo;.......'dc....,cc: ...:,  ..,.... 
 .',','.':;:c::::ccc:,;:::::::ccccdoocc;,;::clllllc,..'..     ....lc.....,cll;.  ;c.  ..  .  
 ...','....',,;;:cc;',:::::clxOOkkxdooo;,;c:coooool;    .      ..:l,.....,cldo. .'c'.......  
 .....',..':lodxxddodooddodddxdddollllc:;;;;::::::;;;;;,' ....,,'.;:;'...,lldo.....'''.....  
 '....',..';coxkOOOO0000Okkxolc;,,,,,'.,,;:::loooodoollc:::::::;'.;:,';:;;lldxl....'.. .';:. 
 ...;''...'',:loxxxxkkkxxdolc;,'..........',,;::clooooollc;,,,;:'.,:,..cc:llooc,:::......;d. 
