 ;lllllllllllllllllloooooooooooooooooooooooooooooooooooooooollllllllllccccccccc::c::::::::;. 
 cxkkkkkkkkkkkkkkkkkkkkOOOOOOOOOOOOO000000OOOOOOOOOOOOOOOOOkkkkkkkkxxxxxxxxdddddddoooooooll, 
 cdddxxxxxxxxxxxxxxxxxkkkkkkkkkOOOOOOOOOOOOOOOOOOOOOOOkkkkkkkkkkkkkxxxxxxxdddddddddoooooooo, 
 cdddddddddxxxxxxxxxxxxxkkkkkkkkOOOOOOOOOOOOOOOOOOOOOOkkkOOOOOkkkkkkkkxxxxxxxxxdddddddddddd, 
 cdddddxxxxxxxxxxxxxxkkkkkkkkkkOOOOOOOOOOOOOOOOOOOOOOOOOOOOkkxxkkkkkkkkkkkxxxxxxxxxxxxxdddd; 
 cdxxxxxxxxxxxxxxxxxkkkkkkkkkOOOOOOOOOOOO0000OOOOOOOOOOOOOOOkxxddkkkkkkkkxxxxxxxxxxxxxxdddd; 
 cdxxxxxxxxxxxxxxddddddxxxxxxkkkkkkkOOOOOOOOOOOOOOOOOOOOOOkkkxxookkkkkkxxxxxxxddddddddddddd; 
 cdxxxxxxxxxxxxxdool:,'......'''',,,,,,,,,,,,,,,,,,,,,,,,,,,,;;,;;;;:ccc:;,''''''''''''''''. 
 cddxxddxdddddddddddddolcc:::::';,.....................,,;,'..',;'.........................  
 ;lllllllllllllllllllllllooooolc,,.......................,cc:'c;,,'...;:;..':ccc:::cccccc::. 
 ,:::cccccccccccccccllllooooool:,;..................... ...,;',,,......'...,::cccc:::::::::. 
 ,:::ccccccccccccccccllllloollcc:,''........   ....      ..,c::;:::;;,,....,;;;;;;;;,,;::;,. 
 ,:ccc:;;;;;;;;,;;;;;:::::::c::c:,;........'..............':llc;:loolc:::,,,,,,,,,,,'.....'. 
 ';;:::;:;;;,,,,,,,;;:::::;;:;::,,...... ..................','.............................. 
 .',,;;;:;,,,,'''''''',,,,,;;:c:,;........     ......   ..'::'..   ..,,;;'.'''.............. 
 .,;,;;,,'';;::,,',,'''',,;;;,;:',  ...            .. ....'c:'..  ..:cc:,. ...''''.','','''. 
 .',,,:,''',::;,::,,;;;;;:ccc:c:,;.......''..............';lc;.. ..,:::;'  .....''.,;;:;;,;. 
 ,,'''.'',,'','....',,'..;,.............''',;,,,,,;;;;:::::;;'.    ......   ................ 
 .;,.......'';''';,col:'.'.       .....''.......      .... ....        ...''';,'''..,;;;;,,. 
 .',',,;cc'.'.'''lolococ.  ...........''........          ........''',,::l:'',:cc;:c:::;:::' 
 '',:occ;;,cd,'',oxxkco;. ...................            ........,,;;,,;cd:',;:cc;cdddlc;;:. 
 ,,;cc;,;;;ol:,;:okkkl'...............   ...                   .,:;,;,.c:ll;;:,'',llll:c;'c' 
 ,l;;;,,;,':c;''cokkx,................   ....       .          .:,,,...,oxo;..  ..;;'c:;::c' 
 .;,,;;,,:ooll,.:dkd'...'........'....   ....     ..          .,,;:,'...xOOd'.  .':c,l:..::. 
 ......';cxxxx:,cdo'...,'......'.'....    . ..  ...         ...,,co:,.;;odxx;.. ..',:;'..';. 
 ;;',,;::lxxxlloxl'..';,'','  ...'....  ....... ..      .    .':cddd:...,llo:....,,',,...':. 
 ;,..,::c;;:cllxl,,';;;',:::;,''',......';;..   .  .,;.....  ..'oddd:....;cl::ccll:;;c'..,,. 
 ,:;,;'.,;;;::;c;;;;::,,:cc:::;;,''.....'....    ..;cl;..   ....,cddc....,cl,,llcc,..,;',..  
 ';:cc;'';cc,,:::::cl;'ccccccc:,,''..........   ',..;coc.     ...'odl....,cl'.c:;;.  .'','.. 
 .;cc:;;;;c,;cc:::ll:,.:cc:;:::cc,;::::;;,,'.,:ccc;'.::ox;.    ...ld:....,cl:....:'  .',.... 
 .''','.':;::::::clc:,;::::::::clcloool:;::coddoool;.':,,.      .,d:.....,llo;.  :c. ... ..  
 ...','...',,,;::cc;',:c:::cldxkkxdoddo;;:l:oddddooc.           .,:'.....,lldo. .'c'.......  
 .....,,..':lodxxxdoxdoddddxdxddolooollc::::ccc::::;;;;,,.  ..',..,;,....,lldo.....'''.....  
 '....',.'';coxkO0OO0000OOkxdlc:,,;;;,.;;;:ccodddddoollc:;;;;;;,'.,:,.,:;:oodxl....'.. .,:c. 
 ...,''...'',:loxxkkkkkkxxdoc:,'.......'''',,;:cclloodolc:;',',:'.';'..cc:cloo:;cc:......:d. 
