 ;clllllllllllllllllllooooooooooooooooooooooooooooooooooooooo;.;lllllllcccccc::::::::::::;,. 
 cxxxxxxxkkkkkkkkkkkkkkkkkkkkOOOOOOOOOOOOOOOOOOOOOOOOOOOOkool...codxkxxxxddddddooooooolllll' 
 cddddddddxxxxxxxxxxxxxxxkkkkkkkkkkkkkkkkkkkkkkkkkkkkkkl;'... ......;cdxddddddooooooooooooo, 
 cddddddddddddddxxxxxxxxxxkkkkkkkkkkkkkkkkkkkkkkxl:;,;;'..... .......':dxxddddddddddddddddo, 
 cdddddddxxxxxxxxxxxxxxxkkkkkkkkkkkkkkkkkkkkkko;...  ................',xxxxxxxxxxdddddddddd; 
 cdxxxxxxxxxxxxxxxxxxxxkkkkkkkkkkkkOOOOOOOOOx;...... .... ...........'cxxxxxxxxxxdddddddddd; 
 cdxxxxxxxxxxxxxxxxxxxxkkkkkkkkkkkkOOOOOOOOo........       ..........;dxxxxdddddddddddddddd, 
 cdxxxxxxxxxxxxxxxxxxxxkkkkkkkkkkkkkOkkxc;..,;,.....         .. .....,dxdddddddddoooooooooo, 
 cddddddddddddddddxxxxxxxxxxxxxxxxxc:ll'...,,'............. ..........lddoooooollllllllllll' 
 ;llllllllccccccllcclllllllllooooo;'.......,..........................,cccccccccccccccc::::. 
 ,::::::c:cc:::ccccccllllllllllllccl.'c... .......     .....','........:::::::::::::::::::;. 
 ,::::ccc:::::::::ccclllllllllllll:c':l:'...........    .....'.........;:;,,,,,,,,,,,,,;;;;. 
 ,:::::::;;;;;,,;,,;;::::::::::::;,''.:lcccc:::::;,'...   ...... .....':c,'''''''''''''''''. 
 ';;;::;;;;;,,,,,,;,;:::;:,;;;:::,....:oooolllllllllc,.      ..........';'''''''.....''''''. 
 .',,;;;;;,,,,'''.''.',,,,,,,:ccc,....oddooolllccccc:;....     .........;''..'''..'......... 
 .',';;,,'',,::,,','...',,;,''........lc:loooooooooool.        ....    ..:','',,'''','''''.. 
 .'',,:,''.,::;,;;'..'....','''.......l:,c;,;::llcllll:.               .'c.'''''''.';;;;,,,. 
 ',''''.',,'','....',,'..,;.   .........',lkx:'',,;:::o,             ...;o;,;:;;;:,,:::;;;;. 
 .;,.......'',''.,,col:'.'.  ...........'';oOo,;,,c:cco;.              ..c:,;lcccl;;looddol, 
 .'''',;c:'.'.''.loloco:.   ..........'',,''dOl;;:;,:cdc..              .cl,',;::;:::::::cc' 
 ''':lcc;;,:d,'''oxxxco:. ............'',,,.'oxd;:;::;;'  .           ...dd'',;:c;:odolc:;;. 
 ,,;cc;,,,;ol:,,;oxxxc'....'...........'''''..';c;:c::,'  .        ....;lkxc;:,,,'clll:c;'c' 
 ,c;;;,,;,':c;'':okkx;.....'....................  .,:,,,      .......'.;okxx'',,'.,;'::;;;c' 
 .;,;:,',:locc,.:dkd,...'''....'''...............   .',;.    ...........dkkx,',...;c,c:..::. 
 ......';cxxxx:,cdd'...,''.....'.'.........  .....   .... ..........,.;;oxxx;,;,.'',:,,..',. 
 ,,.,,,::lxxxllodl'..';,'','  ...''......... .,'..    '''.........cd:...,llo:..,,,,.,'....;. 
 ,,..,::c;;ccclxl,'',;;'':::;,''',''''''',;;,,,;'..   .;c.........cdc....;cc::c:cl:;,c'..';. 
 ':;';'.';;;::;c;;,;::,,::::::;;;,',,,,,',;;;,,;;..;:cc'cc........'dl....,cc;'cccc,..,;.,..  
 ';:cc;.';:c,'::;;:cc;':ccccc::;,'',,,,''';;:;;;;,..:cod,c;.......'lo'...,cc'.::;;.  .'',... 
 .:lc::;;;l,,cc:::clc;,:ccc::::::;,,;:;,,,,:cccc::,.'::dOd;.......'dc....,cc: ...:'  ..''... 
 .',','.':;;c::::ccc:';::::::::cccollc:;,;;;cllllcc,..'...    ....cc'....,cll,.  ;c.  ..  .  
 ...''''...',,;;:c:;',::::::ldkkxkxdool;,;c:clllool;    .      ..:l,.....,cldo.  'c'.......  
 .....''..';lodxxddodooododddxdxdollllc:;;;;::::::;;,,,,' ....'''.;:;....,lloo.....'''.....  
 '....',..';coxkOOOO0000Okkdol:;'',,,'.,,,;;:loooodoollc:;:::::;'.;:,',:;;lodxl....'.. .';:  
 ...,''...'',codxkkxkkkxxddlc;,'..........',';::cclooooolc;,,,;:,.,:,..cc:lcodl,::;.....';d. 
