 ;clllllllllllllllllllooooooooooooooooooodddoooooooooooolo' ..,;::lllllcccccccc::::::::::;,. 
 cxxxxxxxkkkkkkkkkkkkkkkkkkkkOOOOOOOOOOOOOOOOOOOOOOOOOko,,.......':lxxxxxxdddddoooooooollll' 
 cddddddddxxxxxxxxxxxxxxxkkkkkkkkkkkkkOOkkOOkkkkkkkxkl'........'..,;cxxxxddddddoooooooooooo, 
 cddddddddddddddxxxxxxxxxxkkkkkkkkkkkkkkkkkkkdl,................''';cxxxxxxxddddddddddddddd, 
 cddddddxxxxxxxxxxxxxxxxkkkkkkkkkkkkkkkkkkxc'......  .............';lxkkxxxxxxxxxxddddddddd; 
 cdxxxxxxxxxxxxxxxxxxxxkkkkkkkkkkkOOOOOOOd,'','....... .  ........',dkkxxxxxxxxxxdddddddddd, 
 cdxxxxxxxxxxxxxxxxxxxxkkkkkkkkkkkkOOOOOk;;:;,,'....................;xxxxxxxxdddddddddddddd, 
 cdxxxxxxxxxxxxxxxxxxxxkkkkkkkkkkkkkkkkkxc::;,'............'''.......oxxxdddddddddooooooooo, 
 cddddddxddddddddddxxxxxxxxxxxxxxxxc:lo,...;;'.............,,'.......,oddoooooollllllllllll' 
 ;lllllllccccccccccclllllllllloooo;'.......................''.........;cccccccccccccccc::::. 
 ,::::::cccc::::cccccllllllllllllccl... ..  ..........................';::::::::::::::::::;. 
 ,::::cccc:c::c:::cccccllllllllcll:c';:'......',;:lc,... .............,:;;,,,,,,,,,,,,;;;;;. 
 ,:::::::;;;;;,,,,;;;;::::;;:::::;,''.clc::cccc:clllc.  ..............,c;,'''''''''''''''''. 
 ';;:::;:;;;,,,',,,,;;::;:,;;;:::,..'.cdooollllllllcl. ...... .........;''''''''....'''''''. 
 .',,;;;:;,,,,'''.''.',,,,,,,:ccc,....oddooollllccc::.  .  ............;;'''''','.'......... 
 .',';;,,'';,::,,'',...',,;,'''....'',dlcooddoooodooo;.      ......   ..:;',,',,,,'',''''''. 
 .'',,:,''.,;c;,;;'..'...'','''....'';o:;c;,;:cllcllll'        ... ....'l;.'''''''.';;;;,',. 
 ',''''.',,'','....',,...,;.   ..........,lkx:,',,;:ccl.           ....'cl;,;:;;::,,:::;;:;. 
 .;,.......'',',',,col:'.'.  ...........',;oko,,,,ccccd'.             ..;l;,;lcccl;;oooddol, 
 .'''',;c:'...''.lolococ.   ..........'',,''okl;;:;,:cd;..             .'do'',;:c;:::::;::c' 
 ,'';lcc;;,:d,'''oxxxco:. ............'',,,.'oxd;:;::;;.              ..;kd,',;:c;cddolc;;;. 
 ,,;cc;,,,;ol:,,;oxxxc'....'...........'''''..',;,cc::,'  .        ...'cokxc;;,,,'llll:c,'c' 
 ,c;;;',;,,cl;'':okkx,....'.....................  .,:,;'      .......'.;okkd'',,'.,;'c;;;:c' 
 .;,,:,,,:locc,.:dkd,...'''....'''...............   .',;     ...........dkkx,''...;c,c:..:;. 
 ......';cxxxd:,cdo'...,'......'.'.........  .....   '..............,.;;oxxx;';,.'',:,'..';. 
 ,,.,,,;:lxxxlcoxl'..';,'','  ...''......... .,'..    ,'.........'ld:...,llo:..;,,,',,...';. 
 ;,..,;:c;;ccclxl,'',;;',:::;,''''''''''',;,,,,;'..   .;:.........ldc....;cc::cccl:;,c'..,;. 
 ';;,;'.';;;::;c;;;;::,,::::::;;,,',,,,,',;;;,,,;..;:cc,lc........,dl....,cl,,cccc,..,;.,..  
 ';:cc;.';:c,'::;;:cl;,:ccccc::;,''',,,''';;;;;;;,..:cdd,c;.......'do....,cc'.:::;.  .'',... 
 .;lc::;;;c;,cc:::clc;,cccc::::::;,,;;;,,,,:cccc::,..::dOo;.......,d:....,cc;....:'  ..,.... 
 .',','.':;;c::::ccc;';::::::::cc:lllc:,,;;;cllllcc'..'...    ....oc.....,cll,.  :c. ...  .  
 ...'''....',,;;:c:;',:::;::ldkkxkddool;,;:;cllloll,    .      ..cc,.....,cldo   'c'.......  
 .....',..';codddddodooooodddxxxdolllcc:;;;;::::::;;,,,,. ....,,'.;:;....,lldl.....'''.....  
 '....',..';coxkOOOO0000Okkdoc:;,',,,'.,,,;::llooodoollc:::::::;'.;:,';:;:lldxc....'.. .';:  
 ...,''...'';:lddkkkkkkxxddl:;,'.........'''';::cloooooolc;,,,;:'.,:,..cccllooc,c::.....':d. 
