 ;clllllllllllllllllllooooooooooooooooooodooooooooooooooooooooooollllllcccccccc::::::::::;,. 
 cxxxxxxxkkkkkkkkkkkkkkkkkkkkOOOOOOOOOOOOOOOOOOOOOOOOOOOOOOOdodxkkkkkxxxxxddddddooooooollll' 
 cddddddddxxxxxxxxxxxxxxxkkkkkkkkkkkkkkkkkkkkkkkkkkkOkkkkoc,..,::clddxxxdddddddoooooooooooo, 
 cddddddddddddddxxxxxxxxxxkkkkkkkkkkkkkkkkkkkkkkxl:;;;:;'..........,:ldxxxxxddddddddddddddd, 
 cddddddxxxxxxxxxxxxxxxxkkkkkkkkkkkkkkkkkkkkkko,.    .................lxxxxxxxxxxxddddddddd; 
 cdxxxxxxxxxxxxxxxxxxxxkkkkkkkkkkkkOOOOOOOkko'.....  .................lxxxxxxxxxxxddddddddd, 
 cdxxxxxxxxxxxxxxxxxxxxkkkkkkkkkkkkOOOOOOOOc.......        ..........cxxxxxxxdddddddddddddd, 
 cdxxxxxxxxxxxxxxxxxxxxkkkkkkkkkkkkkkkkd:;'.','.....         ........;ddddddddddddooooooooo, 
 cddddddddddddddddxxxxxxxxxxxxxxxxx::lc....,,'............. ..........oddooooooolllllllllll' 
 ;llllllllccccccllcclllllllllooooo;,......',..........................,ccccccccccccccccc:::. 
 ,::::::cccc::::cccccclllllllllllccl.';............   ......''.........;::::::::::::::::::;. 
 ,::::ccc::::::::::ccllllllllllcll:c':c;...........     .....'.........,;;,,,,,,,,,,,,;;;;;. 
 ,:::::::;;;;;,,,,,;;;:::::::::::;,''.cllcc::;::;,'...    ............'::,''''''''','''''''. 
 ';;;::;;;;;,,,',';,;;::;:,;;;:::,....coooollllllllc:..     ...........,;'''''''.....''''''. 
 .',,;;;;;,,,,'''.''.',,,,,,,:ccc;....oddooolllccccc:,..     . .... ....;'''.''''.'......... 
 .';';;,,'';,::,,','...',,;,''........lcclooooooodoooc.       .....    .';','',,,,'','''''.. 
 .'',,:,''.,::;,;;'..'...'','''......'l:,c;,;::llcllll;.        .      .,c.'''''''.';;;;,,;. 
 ',''''.',,'','....',,'..,;.   ..........,lkx;'',,;:::o'             ...;l;,;:;;::,,:::;;;;. 
 .;,.......'',''.,,col:'.'.  ...........'',oOo,;,,c:ccd,.             ..'l;,;lcccl;;oooddol, 
 .'''',;c:'.'.''.loloco:.   ..........'',,''dOl;;:;,:cd:..              .lo'',;::,:::::;::c' 
 ''';lcc;;,:d''''oxxxco;. ............'',,,.'oxd;:;:;,;.  .    ..     ..'xd'',;:c;:ddolc;;;. 
 ,,;cc;,,,;ol:,,:oxxxl'....'...........'''''..';:,:c:;,'  .        ....:lkkc;;,,,'llll:c,'c' 
 ,c;;;,,;,':c;'':okkx,....'.....................  .,:,,'      .......'.;okkd'',,'.,;'c;;;::' 
 .;,,;,',:locc,.:dxd,...'''....'''...............   .',;.    ...........xkkx,''..';c,c:..:;. 
 ......';cxxxd:,cdo'...,''.....'.'.........  .....   '... ..........,.;;oxxx;';,.'',:,'..';. 
 ,,.,,,::lxxxllodl'..';,'','  ...'.......... .,'..    '''.........cd:...,clo:..;,,,',,...';. 
 ,,..,;::;;ccclxl,'',;;',:::;,''''''''''',;;,,,;'..   .;:.........cdc....;cc::cccl:;,c'..,;. 
 ';;,;'.';;;::;c;;,;::,,::c:::;;;,',,,,,',;;;,,;;..;clc,cc........'dl....,cl,,cccc,..,;.,..  
 ';::c;.';:c,'::;;:cc;':ccccc::;,''',,,''';;:;;;;,..:cod,c;.......'oo....,cc'.::;;.  .'','.. 
 .:lc:;;;;l;,cc:::clc;,cccc::::::;,,;:;,,,,:cccc::,.'::dOo;.......,d:....,cc;....:'  ..,.... 
 .',','.':;;c::::ccc;';::::::::cccolll:,,;;;cllllcc,..'...    ....lc.....,cll,.  :c.  ..  .  
 ...'''....',,;;:c:;',::::::lxkkkkxdooo;,;c;clololl,    .      ..:c,.....,cldo.  'c'.......  
 .....',..';lodxxddodooododxdxxxdollllc:;,;;:::::::;,,,,. ....','.;:;....,llol.....'''.....  
 '....',..';coxkOOOO0000Okkdol:;'',,,'.,,,;;:loooodoollc:;:::::;'.;:,.;:;:lodxl....'.. .';:  
 ...,''...'',:ldxkkxkkkxxddlc;,'..........''';::cclooooolc;,,,;:'.,:,..cc:lcooc,:::......:d. 
