 ;clllllllllllllllllloooooooooooooooooooddddolodo;...coooooooolllllllc:,;;::::,.,:::::::::;. 
 cxxxxkkkkkkkkkkkkkkkkkkkkkOOOOOOOOOOOOOxo:;,co:'....,lxOOOkxddxkkkxdoccloddoddl:;:coooolll' 
 cdddddddddxxxxxxxxxxxxxxkkkkkkkkkkOOOxl'...,o..    ...',dkOkxo::lolo::oddddl,':ool:;;:oooo, 
 cdddddddddddddddxxxxxxxxxkkkkkkkkkkOkl;;,......      ....cxOOOOdl:;''lodddl..,loddddc;;;co, 
 cdddddddxxxxxxxxxxxxxxxkkkkkkkkkkkOOOko:,.......       ...,oxOOkkkdl:'''::...'looo:;:;;ll;. 
 cdxxxxxxxxxxxxxxxxxxxxkkkkkkkkkkOOOOOOOl,'....'.            .,lkkkkkkdc'....''''''...  .;;. 
 cdxxxxxxxxxxxxxxxxxxxxkkkkkkkkkkkOOOOOOk;','...               ..cxkkxxx;.. .''',;;;;'..     
 cdxxxxxxxxxxxxxxxxxxxxkkkkkkkkkkkOOOOOOOx;;:;,'.....             .cxxxdc:,. ..,,,,,,,;,     
 cdddxdddddddddddddddxxxxxxxxxxxkkxc:oxkxd:;:::;,'...              .;odddoo:,,...'',,,'      
 ;llllcccccccccccccccllllllllooooo;.......,;:l:;,..             .. ..:ccc:' .',,,''::,.      
 ,::::::c::c::::cccccllllllllllll:.........'';::;..                .';::;,.,::::::::;;,'.';. 
 ,::::ccc:::::c:::cccccclllllllcc.........    .',.                ..':;;;,,,,,,,,,,,,,';;,.. 
 ,:::::;;;;;;;,,,,,,;::::::::::::'......    ..',,..              ....:;;,,'',,''''''''..'',. 
 ';;:::;;;;;,',',,,,;;::;:,;;;;::,....,:cllloollllc.            .....;,',''''''.......  .''. 
 .',,;;;;;,,,'''''''.'',,,,,,:c:c;....oxddddoolllcc,.          ...  ..;,,'''''''............ 
 .',';,,,'',,::,,'''...'',,,'''.......llloddxddddddo.           ..   .;;:;','',,,''','''''.. 
 .'',,:,'..,;:;,;,'..'...'','''...... :c;c;;;:cllllo,                ..;;;'',''''..';;;;,',. 
 ','''..',,'','....',,...,;.     .        :kk:,,,;:::.              ...:ll;,;:::::,,::::::;. 
 .;,.......'.,',.,,col:'.'.     ...       .:Od;;,;lcc:.               .,oc:,;lc:cl;;oodddoo, 
 .'''',;c:'.'....clloclc.         ..       .lko;::;;::.               .'oOo,',;:c;:c:::;:::' 
 ,'';lcc;,,:o,'''oxxxcl:. ..........         .;o;::c:;.               .,oOd'',;:c;cddolc:;:. 
 ,,;cc;',,,oc:,,;oxxxc..............           .'':c::'             ..'lokxc;;,,,'llll:c;'c' 
 ,c;;,,,;,':c;'':okkx,..............              .':,,             ...,lkkx'',,'.,;'c:;;:c' 
 .,',;,',:oocc'.:dxd'...'...........                .,,.           .....dkkx,''..':c,c:..;;. 
 ......';cxxxx;,:do'...,'........'..                 ... ..       .,,.;;odxx;';,.'',:,'..';. 
 ,,.',,:;lxxxlloxl'..';,'.,'  ........                ,'...      ;dd:...'clo:..;;;,',,...';. 
 ,,..,;;:;,:cclxl,'',;;'';::;,'.''.....        ... .. .::..      .od:....,cc::cccl:;,c'..,,. 
 ';;';'.';;;::;c;;;;::,,::c::;;,''.....    ....',..:cc;'c:...     ,dc....,cc,'cccc,..,;',..  
 ';;:c;.';:c,':::;:cc;':cccc::;,,'.....   ....',;,.'ccdx,:,..'.   .ol....,cc'.::;;.  .'','.. 
 .;cc:;;;;c,,cc:::cc:,.:cc:;;;:::,,;::;,. ....,,::,.'c:oOo,....   'd;....,cc: ...:'  ..,.... 
 .''','.':;;:::::cc:,.',;;;;;;;:c:lolc:;......',;::'..'..        .o:.....,ccl;.  :c.  .. ..  
 ...'''....',,,;:c:,..,;,,,;cdxxxxdoooo;'......',;:'            .:c,.....,cldo.. 'c'.......  
 .....',...;codxxdooolloooodddddolcccc:'.....    ......'. ..    ..,:;....,llol.....'',.....  
 '....',..';coxkOOOO0000OOxxoc:,''.......          ..';:;;,.    ..,;'.,;;:oodxl....'.. .'::  
 ...,''...'',:lodxkkkkkkxdooc;'....... .          .';:clc:'.    ..';'..:c:ccoo:;cc;.'....:d. 
