 ;clllllllllllllllloooooooooooooooooooooooooooooooooooolc,.,:...:lllllllccccc::::::::::::;;. 
 cxxxkxxkkkkkkkkkkkkkkkkkkkkOOOOOOOOOOOOOOOOOOOOOOOOOOo,........'.';oxxxxdddddddoooooooolll' 
 cdddddxxxxxxxxxxxxxxxxkkkkkkkkkkkkkOkOOOOkkkkkkOOOOOkko'............;oxdddddddoooooooooooo, 
 cdddddddxxxxxxxxxxxxxxxxxkkkkkkkkkkkkkkkkkkkkkko:,'',,'......''''''',lxxxxdddddddddddddddd, 
 cddddxxxxxxxxxxxxxxxxxkkkkkkkkkkkkkOOOOOOOOko;..... ........'''...',;oxxxxxxxxxxxddddddddd; 
 cxxxxxxxxxxxxxxxxxxxxkkkkkkkkkkkOOOOOOOOOOd,........... ........','';dxxxxxxxxxddddddddddd, 
 cxxxxxxxxxxxxxxxxxxxxxkkkkkkkkkkkOOOOOOOOo',;'........     ........,lxxxxxxxdddddddddddddd, 
 cdxxxxxxxxxxxxxxxxxxxkkkkkkkkkkkkkkOkkkl;';;,............. .........:xdddddddddddooooooooo, 
 cdxxxxxxxddddddxxxxxxxxxxxxxxxxxkxc:ll'..,;'..........'.............'oddoooooollllllllllll' 
 ;lllllllllllllllllllllllllloooooo;,.......'............''............;ccccccccccccccccc:::. 
 ,::::ccccccccccccccclllllloolllllcl..;... .........   .....'.........,;::::::::::::::::::;. 
 ,::ccccll::ccccccccllllllllllllllcc'clc'.....'',''...  ..............'c;;,,,,,,,,,,,,;;;;;. 
 ,:ccc::;:;;;;;,;;;;:::::::::::::;,''.clllllcccccllc:...  ............,l:,,'''''''','''''''. 
 ';;:::;:;;;,,,,,,;;;:::;:;;;::::,'''.cdooollllllllll,..... ..........';:'''''''.....''''''. 
 .',;::;:;;,,,'''.'''',,,,,,,:ccc;....oddooolllcclccc;...   ...........':,'''''''''......... 
 .';,:;,;'';;c:,,,,,'..',,;,'''.......llcoodooddddddol.      .......   .;;','',,,,'',''''''. 
 .'',,:,''',;c;,;;''',...'','''....'';lc;c;,;::llcllll:.       ..     ..:c'','''''.';;;;;',. 
 ','''''';,'',''...',,'..,;.   .........',lkk:,,,,::cco'            ....:o;;;c;:::,,::::::;. 
 .;;..''..''';',';,col:'.'.  ..........',,;oOd;;,,lccld;.              .'l:,;lcccl;;oooddoo, 
 .',',,;cc'.'.'''lolococ.   .'........',,,',dOo;;:;,:ldc...             .oo,',::c;::::;;:::. 
 ,'':occ:;;cd,'''oxxxll:. ............',,,,''oxd;:;::;;.  .    ..     ..'xd,',;:c;codolc;;:. 
 ,;;cl:,,;;dl:;;:oxxxl'....''.........'',,''..';:;:c::;,  .        ...'clkxl;:,,,'clll:c;'c' 
 ,l:;;,,;,,:l;'':dkkx,....''.........'..........  .,:,,,      .......'.;okkx',,,'',;'c:;;:c' 
 .;,,:;,,:oolc,.:dxd'...'''..'''''...............   .',;.    ...........dkkx,',..';c,c:..;;. 
 ..'...';cxxxx:,cdo'...,''.....'.'.........  .....   .... ..........,.;:oxxx;,;,.'',;,,..';. 
 ,;',,;::lxxxlloxl'..';,'','. ...''......... .,'...   ,''.........ld:...,cloc..;;;,',,...';. 
 ,;..,::c;;clclxl,'',;;,,:::;,''','''''',;;;,,,;'..   .:c.........cdc....;cc::cccl:;,c'..,;. 
 ':;,;,.':;:::;c;;,;::,,:cc::::;;,,,,;,;',;;;;;;;..;cll,cl........,dl....,cl,'lccc,..,;',..  
 '::cc;.';cc;':::;:cl:,:ccccc::;;,,,,,,,'';::;;;:,..:cld,c;..'....'oo....,cc'.::;;.  .'','.. 
 .:lc::;:;l,;cc:::clc;,cclc::::cc;,;;:;,,,;:cccccc,''::dOo;.......'dc....,cc: ...:,  ..,.... 
 '',','.,:;:c::::ccc:,;:::::::cclcoolc:;,;;:clolllc,......    ....lc.....,ccl;.  ;c.  ..  .  
 ...','....',,;;:cc;',:::::clxkOkkxdodo;,;c:coooool;.       .  ..:l,.....,lldo. .'c'.......  
 .....',..':lodxxddodooodddxxxxddoloolc:;;;;:::::::;;;;,' ....,,'.;:;'...,lldo.....'''.....  
 '....',.'';loxkOOOO0000OOkxocc;,,,,,'.,,,;::loooddoolol::c::::;'.;:,';:::oldxl....'.. .,;:. 
 ...;''...'',:loxxxxkkkxxdooc;,'........'.''';::cllooddolc;,,,;:'.,:,..cc:llooc,c::......:d. 
