 .''''',,,,,,;;;;;;;;;:::cccllllllllllllllllc:;,:cccccccccccccccccccc::::::::::::;;;;,,,,,,. 
 ';;;;;::ccccclllllllooooddxxxxxkkkxxxxxxxxxxxlodddxxddddddddddddddddddooooooooooolllccccc:. 
 ';::::ccccllllooooooooddddxxxkkkkkkkxxkkxxl;cloxxxxddxxdddddddddddddddddoooooooooollllcccc' 
 lxkkkkkkkxkkkkkkkkkkkkkkkkkkkkkkkkxxxxxxxdc'cdddddddddddddddddddddddodddddddo,lddddddddddd; 
 lxxxxxxxodOOOkkkkkxkkkkOkkkkkkxxxxxxddddoooc:cllllllllllcllllllllllc:clllllll:.cllllllllll' 
 coolc::c,ddolc:oooollcccooolccc::;ccc::;;;;cc::;,,''';;:::;;;;;::;;,,,'';;,''. .,,,''''',,. 
 ,::;,...'lc;,..cccc::;,'clcc::;,..;::;;;;,.:c::;;,'..::;;;,,,'';;,,''...'''... .''..... ... 
 ',,,,''.,;;;,,;;;;;;;;;;;;;;;;;,,,,,,,,,,,'','''''''.,'''''''''''''.......................  
 ......',::,.;:,':llllllooooooooooooooodo:;',cccllc:;:c:,cllllc:::clcll;..::.;:::;''''.',,'. 
 .,::ccccccl':oc,:codddddxxxxxxxxkkkkkkkkxll::lodoc:;;:c::dddll,'';;:l::c;o:'lllllllcc:;;:;. 
 '::ccccllll;,lo;ol:cddddxxxxxxxxxxkkxxxxxdooc:llc:::;;;:,loooo;,',,.'oo::c':lllllllllccc:;. 
 ;ooddddddddo.cdclddolldxxxxxxxxxxxxxdol::clooccolcccc::c;:cc:c;,'',cooo;oc.ooooolllllccc::. 
 ...'',,;;;::'.cc:ooddoloxxxxxxddxddddc;'',:cocclllccccllllllooc,,:lollc;c',;;,,,,,,''.....  
 ,:::ccccccllc.,l'lloooolclddoldddooxo:,..',clcccccccccc:cc::c::;:cclcc,c;.cccccccccc::::;,. 
 ':::cccccllll,;l;:oddddddoodxxxxxxxxo;''',,;:lollllllooodxdlcooodooooo,o',lllllcccc::::;;,. 
 ,:::cccccclll:':l;oooddddddoldxxxxxddl;;,;cl:oddooooooddxdlodxxdddoooc;:.lllllccccc::;;;;,. 
 ,::cccccccllll',l;cooodddddxdc::oolccc::;:lllooooooooooocodddxxdddooo;l',llllcccc:::;;;;;;. 
 ,:::ccccccclll;.,;;oooooddddl,..,::llc:::::cccclllllllc::coooxxdddooo;:.clllcccc:::;;;;;;;. 
 ,:::::ccccccccc'.;'llloooo:'......,cc::::;::llcllllllc:;,;ccllodoooocc..lllccccc:::;;;,,,,. 
 ':::::::ccccccc,...,llloc,.........':cccc::cocclllccll:,,''.';cooooo::.:lcccccc::::;,,,,,,. 
 ';:::::::cccccc;,.,.cclc;........,'.,;:cc:::::;::cllllc::;:l,.;loooo:.'llccccc:::::;;,,,,'. 
 ';;;:::::ccccccc';..,cc,''.... .....';;;:;;:;;;::cllcc;;::cll.'loooc;.cllcccc:::::;;;,''''. 
 ';;;;::::ccccccc,....:,.'. ..  .....''',,,;;;::cclllll:;::::l;.:cll:,,olccc:::::::;;;,''... 
 ';;;;:::::ccccccc.:..;;.  ...',,;;;::::cclloodddxxdddddolc:;;,.;lol,.:llccc::::::;;;;,,'... 
 ';;;;:::::ccccccc,:,.';.....';::ccccccclloodddxxxxkkxxxxxxdocc:;coc,,olccc::::::;;;;,,''... 
 ':;::::::::ccc::c:.;..';'';:;,''.'',;;:clodddxxxxxkkkkkkkkkxxxdl:c,,;lccc::::;;;;;;,,'''... 
 '::::::cc:;;;,,,,,..,.;:c;......;cllcc:::::cllooddddxxxxxkkkkkkxdo;'cc::;;;;;;;;;;;,,'..... 
 ';;;;:cc;.        ..:c;.. .';;;,;,. ..  ...,,;;:c::::::cloxxxxkkkxxd:''.....,;;;;;,,''....  
 ',;;;:c,.        'cc,. .;ccc'  ..    .   ....'',,'''''..',,;coxxkkkkxo:,''''',;,,;,''''...  
 .,,,;;.        'll,..'c:... .        '.........,'......''.... .;ldxkkkxl;,,,,,,,,,'.......  
 .''''        .lo,..;:,       ..      ,l,  .   .l. ....,;'...     .:dxkkxd:;,,;;;,;,.......  
 ....,,'.    .dl..,c.          ;:      ..      ..     ...           'cdxkkxolooooool.......  
 .........  .o;.'l;..           .       ..'',,,'...                   'ldkkx:'''''''.......  
  ......   .c..;l.    .        .,;:;...',,,,;::::ccc:::::;'.      '    .:dxko.               
   ......  .' ,c.             .',;:;''.',,,,,;',;;;'',;;;:cl,     ,.     ;odd,.              
