 ;lllllllllllllllllloooooooooooooooooooooooooooooooooooooooollllllllllccccccccc::c:::::::;;. 
 cxkkkkkkkkkkkkkkkkkkkkkOOOOOOOOOOOOOO000000OOOOOOOOOOOOOOOOkkkkkkkxxxxxxxxdddddddoooooolll, 
 cddxxxxxxxxxxxxxxxxxxkkkkkkkkkOOOOOOOOOOOOOOOOOOkdxkkkkkkkkkkkkkkkxxxxxxxddddddddooooooooo, 
 cdddddddddxxxxxxxxxxxxxkkkkkkkkkOOOOOOOOOOOOOOOOkddxkddkOOOOOkkkkkkkkxxxxxxxxxdddddddddddd, 
 cdddxxxxxxxxxxxxxxkxkkkkkkkkkkOOOOOOOOOOOOOOOOOOkddxxodkOOOOOkkkkkkkkkkkkxxxxxxxxxxxxxdddd; 
 cdxxxxxxxxxxxxxxxxxkkkkkkkkkOOOOOOOOOOOOOOOOOOOOkdddxodxOOOOOkkkkkxxxxxdddddoooooooollolll' 
 ;cccc:;;;;;;;;;;;;;;;;;;;;;;;;;;;;:::::::;;;;;;;;;::,',;::::::c::;,'......................  
 ;lc::,...         ...................................','................................... 
 cdxdddddoollllc:,,c;,',c:cloooodc'................',';:;::,'..,col:;,::oooolcllollllllllll' 
 ;lllllllllllllc:,;c;:,;;:lllllo,......................''.......':;'..,clllllc::cclllccccc:. 
 ,:::cccccccccc::,;;;:;c;llllll:......................'''.............;::c::::cc::::c::::;,. 
 ,:cccccccccccc:;;::::;ccloollc:... ........    ....',,;:::::;;,,...';::;;;;;;;;;;,,,,,;;,,. 
 ,:ccc:::;;;;;;,,,;,;;;::::::::;... ........   ....,;;,:ccllc:c::c;;,,:;;,,,,,,,''''...'.''. 
 ';::::;:;;;,,,',,,,,;;,,;,,,,''........       ...........................................'. 
 .',;;;;:;,,,,'.''''.,',,,,,;:cc;.  ....       ....,....     ..';;,'.';;,''....'...........  
 .';,:;,,'';;;,',.''.'.',,;,','..    ..        ....'...   ...;::;;'....,c,.''''''''',''''''. 
 .',,,:,''';:;',;','',...',,''''.        ...   .......   ..',cc:;;.. ...;,....''''.,:;:;;,;. 
 ','''''',,,''.''..',,.'.;;.....   ........:..........  ...,;:;;,'.   ..::;;:c::::,;c::::::. 
 .,'..'............',,'.........''',,,,;;,,,;;;,,'....   ........       .................... 
 .'''',;c:......'c:loco:.  .....................                   ...',:o;...'',.''''...... 
 ''':occ;;;cl.'',dxxklo:. ............'......                 ....,'.',ldOd,,,:cl;cddolc;;;. 
 ,,;cl;,;;;ol:,,:dxkkc'................  ...          .       ..';','''loOkl::;,,,llol:c,'l' 
 ,c;;;',;,,cc;',cokkx,................   ...        ..         .;',,...'okkd,,;,'';;,c;;;:c' 
 .;,;:,,;:oolc'.:dkd,...'........'....    ...                 .,,;,'...'lod:..'..':c,l:.'::. 
 ....'.';lxxxx;,cdo'..','........'....            ..         ..,,co;'.'.'.. ..,,''';:;'..,;. 
 ;,'',;::lxxxlloxl'..';,.',.  ...'....   ...      .          .':cddd;...... ..';,;,',,...';. 
 ;,..;::c;;llloxl,,';;;',:::;''.','.... .'...   ..  .'...... ..'oxdd:....'.  .,:ll:;;c...,;. 
 ';;,;'.,;;::::c;;;;::,,ccc:::;,,''.... ......     ;lo;..   ....,lddc....,,'..;ccc,..;;',..  
 ';:cc;',;cc,,:::::cl;'ccccccc:,,''.... .',...  .'..:cd:.    ....,ddo....;c:..c::;.  .,','.. 
 .:lc::;;;l;,cc:c:clc;'cllc:::::c,;:;;;,.,:c;,;clc;.'::dd;.    ...od;....;ll:....:.  .',.'.. 
 .,,','.,c;:c::::ccc:,::::cccccllcooool::cccodddool;.,:;;.      .;dc.....;llo,. .:c. ... ..  
 ...','....,,,;::cc;';:::::cldxkkxddddo;:clcddddxddc.           .;c'.....;llxl.  ,c'.......  
 .....,,..':lodxxddodooodddxxxxxdoooool:::::clcccc:;,,,,,.  ..''..;:,....;lodl.'..''''.....  
 '....,'.'':ldkOO0OO0000OOkxdlc:;,;;;,';;:c:lodddxxdooolc,,,::;;'.;:'';:;:oodxc...''.. .'::  
 ...;',...'';cldxkkkkkkkxddoc:,'.......,,',,,:cccllooooolc;',,;:..,;'.'cccllodc,c:;.....':o. 
