 ;cllllllllllllllllllooooooooooooooooooooooooooooooolccllooooollllcccccccccccccccc::::::::;. 
 cxxxkkkkkkkkkkkkkkkkkkkkkOOOOOOOOOOOOOOOOOOOOOOOOOOOkxxxdxxkkkkkxxxxxxxxddddddddoooooollll' 
 cdddddddxxxxxxxxxxxxxxxxkkkkkkkkkOOOOOOOOOOOOOOOOOOOOOOOkkdlllooodddxxxxdddddddddooooooooo, 
 cdddddddddddddxxxxxxxxxxxkkkkkkkkkOOOxollclodkOOOOOOOOOOOdcooxxxdollllodc;dddddddddddddddd, 
 cdddddddxxxxxxxxxxxxxxxxkkkkkkkkkOOOo.........',lxOOOOOkollokkkxxxxxxdd,..:clodxxxxxxxdddd; 
 cdxxxxxxxxxxxxxxxxxxxkkkkkkkkkkkOOx;..............,;coxllcdkkkkkxxxxxxl..cd;;:;,:clodddddd; 
 cdxxxxxxxxxxxxxxxxxxxxkkkkkkkkkkkOd...................,;;xkxdolclooodd...;o'.'. ,cc;'.';:l, 
 cdxxxxxxxxxxxxxxxxxxxxkkkkkkkkkkkkko'.....................;lxkkxol:','...... .  ,;...:c;,'. 
 cdddddddddddddddddddxxxxxxxxxxxxxd,'.........'.    ..   .....:ldddoo:.     ......  ;cclccc' 
 ;ccccccccccccccccccccllllllllool,....'.......    ...        ..','',,.         ...  .::c::;. 
 ,:::::::::c::::cccccllllllllll:'.....     ..   ....         .':c:;,'...       ..   .;;;;,,. 
 ,::::ccc::::cc::::cccccllllllc;'....      ... ...            .:c::::;;,'.     ..   ..'',,'. 
 ,:::::;;;;;,,,,,,,,;:::::::;'. .        .                    .,c:,.',.'.......... ....''''. 
 ';;:::;;;;;,,,',,,,,;:;;;,,.          ...                    .':,. ...'..'''''............. 
 .',,;;;;;,,,,'''.''.'',,,,'          ,cc.             ...   ......',,,,;,,''''''''........  
 .',';,,,'';;c:,,'''...''',,.         ...              ....  .   .::;;;,c;,,,,;,,...,''''''. 
 .'',,:,''.,;:;,;,'..'...'','..     .......             ....     .;oddl.::',,',''.  ,;;;,',. 
 ,,'''..',,'','....',,...,;.   ............                     ..':c:,'cl;;;c:::. ':::::::. 
 .;,.......'',',.;,col:'.'.  .............. .,'''.                 .c:.,cc;;;lcccc;;looddoo, 
 ..''',;c:'.'.'..lolococ.   ..........',,,'..'c;;:.                .;,,coOo'',;:l;:c:::;:::. 
 ''';lcc;;,cd,'''oxxxco;. ............',,,,'.  ',:'               .',,,coOd,',;:c:cddolc;;:. 
 ,,;:c;,,,;ol:,;:oxxkc.....'.........''',,''.    .;,  .          .',,'.olkkc;;,,,,llll:c;'c' 
 ,c;;;,,,,,:c;'':okkx,...........'...''.''''.      ..           .',,...'okkx'';,'';:'c:;;:c' 
 .,,,;,',:oolc,.:dkd'...'''..''','...''.......      .          ..;;,....xkkx,,,..':c,c:..;;. 
 ......';cxxxx:,cdl'...,'......'.,'........  ..      .        ...co:,.;;odxx;,;;''',:,'..';. 
 ,,.',;::cxxxlloxl'..';,'','.....'''.........';'     ......   .;cddo;...'clo:.';;;,',,...':. 
 ,,..,;::,,:cllxl,'',;;',:::;,,',,,,,,,,,::;;;;:' .,,'.....   ..:ddo:....,cc::cccl:;,c'..,,. 
 ';;,;'.';;;::;c;;,;::,,::c::::;;,,,;;;;';:::;;;:..:clx,.........:ddc....,cl,'cccc, .,;''..  
 ';::c;.';:c,':;;;:cl;,:ccccc::;;,,,,;;,',;::::::;..;cdO:.........ldl....,cc'.::;;.  .'','.. 
 .:cc;;;;;c,,cc:::cc:,,:ccc::::cc;;:::;;,,;:lllllc;''c:oOo.   ....cd;....,cc: ...:,  ..'.... 
 .''','.':;;:::::cc:,.,;;;;::::ccclollc;;:::loooool;..;'.       .;o;.....,cco;.  ;c. ... ..  
 ...'''....',,,;::;'..,;;;;:cdxxxxdoooo;,;:;loooooo;            .,:'.....,lldo...'c'.......  
 .....',..';codxxdollllooooddddoolccc::'.....''',;;;;;;,,.....,'..,;,....,lloo.....'''.....  
 '....',.'';coxkOOOO0000OOkdoc;,''........  .....,:lllll:;:;;;;,..,;'.,:::oodxl...'... .,;:. 
 ...,''...'',:lodxkkkkkxxddl:;'...... .       ...,:lodoocc,',,,;..';'..cc:ccoo:;cc:''....:d. 
