 ;clllllllllllllllloooooooooooooooooooooooooooooooooooooooooooooolllllllccccccc::::::::::;;. 
 cxxxkxxxkkkkkkkkkkkkkkkkkkkkOOOOOOOOOOOOOOOOOOOOOOOOOOOOOOOOOOkkkkkkxxxxxddddddddoooooooll' 
 cdddddxxxxxxxxxxxxxxxxxkkkkkkkkkkkkkkkkkkkkkOOOOkkxxkOOOOOOOOkkkkkkxxxxxddddddddoooooooooo, 
 cddddddddddddddxxxxxxxxxxkkkkkkkkkkkkkkkkkkkkkxl''..'okkOOOOOOOOkkkkkxxxxxxddddddddddddddd, 
 cdddddxxxxxxxxxxxxxxxxkkkkkkkkkkkkkkkkkkkkkkx:'......'coOOOOOOOOOkkkkkkxxxxxxxxxxxxddddddd; 
 cdxxxxxxxxxxxxxxxxxxxkkkkkkkkkkkkOOOOOOOOOOOd.........':oOOOOOOOOOkkkkxxxxxxxxxxxddddddddd, 
 cxxxxxxxxxxxxxxxxxxxxxkkkkkkkkkkkOOOOOOOOOOOOk'........'lccoxkOOOkkkkxxxxxxxdddddddddddddd, 
 cdxxxxxxxxxxxxxxxxxxxxkkkkkkkkkkkkkOOkkkkkOOxl,.........,.....';lxkkxxxxdddddddddooooooooo, 
 cdxxxxxxxddddddxxxxxxxxxxxxxxxxxxxc:odxkkkxl,.......'.....       .;odddddooooooollllllllll, 
 ;lllllllllllllllllllllllloooooooo;,.'looodl,,',,;;,;;;'........    .:lllcccccccccccccccc::. 
 ,:::cccccccccccccccclllolllolllllcl.,dllll;...',;::;,.....'....    ..;::::::::cc::::::::::. 
 ,cccccccccccccccccccllllloollllllcc':llcc'   ...,:cc:'..........   ..;;;;;;;,,,,,,;,,;:;;;. 
 ,cccc::::;;;;;;;;;;;::::::::::::;,''.:cc'       ..,,............  ..,::;,,',,''''',,'','''. 
 ';;:::;:;;;,,,,,,;,;:::::;;:::::,'''.:ol.       ........  ...... ..;;,,,''''''''.'.'''''''. 
 .',;;:;:;;,,,'''''''',,,,,,;:lcc;....od;     ......    ..     ....,,,,,,''''''''''......... 
 .,;,;;,;,';;::,,',,''',,,;,'''.......lc..........                ...;;,:;',,',,,,'',''''''. 
 .'',,:,''';:c:,:;'..,...'',,''.......;:........                   ..;c.:;''''''''.';;;;;,;. 
 ,,'''''',,'',''...',,'..;;....................   .                  ;c.cc;;;:;;::,,:::::;;. 
 .:;..''..',';',',,col:'.,.  ...........,,';c;...'c..               ..c:cl:;;lccll;:oddddoo, 
 .','',;c:'.'.'''lolococ.. ..'........',,,''ldo;::;'.                .;loko,',::c;:c:::::cc' 
 ,'':lcc:;;:d,','oxxkloc...............',,,..'cl;:;:.                .;coOd,',;:c;cddolc:;;. 
 ,;;cl:,,;;ol:,;;oxxxl'....''.........''''''..'..':c.               ..;lokxc;:;;,'llll:c;'c' 
 ,l:;;,,;;,cl;',:dkkx;....''................'..'. .'.            ....'.;lkkd,,;,'';:,c:;;:c' 
 .;,;:;,,:locc,.:dkx,...'''..''','................         .    ........dkkx,',..';c,l:..::. 
 ..'...';cxxxx:,cdd'...,,'.'...'.''........ ......         .........,.;;oxxx;,;,.'',:,,..';. 
 ,;',,,::lxxxlloxl'..';,'','.....''......... .,'.'.        .........;...,lloc..,,,,',,...';. 
 ;;..;::c;;clllxo,'',;;,':::;,''','''''',,;;;;;:'.'.. ..   ........;:....;cc::ccco:;,c'..,;. 
 ':;,;,.,:;::c:c;;;;::,,:ccc:::;;,,,,;,,',;;;;;;:''llod;,..........'c....,cl,,clcc;..;:',..  
 ';:cc;'';cc;,:::;:cl:,:cccccc:;;,,,,,,,'';::::::;''oddx,:.........;o....,cc'.c::;'  .''''.. 
 .:ll::;;;l;,cc:::clc;,:llc::::c:;,,;;;,,,;:cllccc;''ldx0d:........l:....,cc: ...:,  .',''.. 
 .,,','',c;:c::::ccc:,;::::::::cccll:c:,,;::llollll;''c;:.      ..cl'....,cll,.  ;c. ... ..  
 ...,,,...',,,;::cc;,,::::::ldkxdxoolll;,;c:looooooc.       .   .'l,.....,cldd. .'c'.......  
 .....,,..':loddxddodooodooddxxxooololc:;;;;:cc::::;,,,,,......''.;:;....,lloo.....'''.....  
 '....,,.'';ldxkOOOOO000Okkxolc;,,,,,'.,,,:::looddddooolc;',';:;'.;:,.,:;:lodxl....'.. .,:c  
 ...;''...',;codxkkxkkkxxddoc:,'.......'..',,;::ccllloollc:,,,;:,.,:,..cc:llodl,:::.....';o. 
