 ;clllllllllllllllloooooooooooooooooooooooooooooooooooooooooooooollllllllcccccc::::::::::;;. 
 cxxxkxxxkkkkkkkkkkkkkkkkkkOOOOOOOOOOOOOOOOOOOOOOOOOOOOOOOdoloxkkkkkkkxxxxxdddddddoooooolll' 
 cddddxxxxxxxxxxxxxxxxkkkkkkkkkkkkkkkkkkkkkkkOOOOOOOOOOOd,......,:dkxxxxxddddddddoooooooooo, 
 cddddddddddddxxxxxxxxxxkkkkkkkkkkkkkkkkkkkkkkOOOOOOOOOl'.........okkkkxxxxxxdddddddddddddd, 
 cdddddxxxxxxxxxxxxxxxkkkkkkkkkkkkkkkkkkkkkkOOOOOOOOOOd'.........ckkkkkkkxxxxxxxxxxxddddddd; 
 cdxxxxxxxxxxxxxxxxxkkkkkkkkkkkkkOOOOOOOOOOOOOOOOOkxkO:.......'''oOkkkkkkxxxxxxxxxxdddddddd, 
 cxxxxxxxxxxxxxxxxxxxkkkkkkkkkkkkkOOOOOOOOOOOOOOo:,'.;.....',.;.,dkkkkkkxxxxxxddddddddddddd, 
 cdxxxxxxxxxxxxxxxxxxkkkkkkkkkkkkkkOOOkkkkOOOOkl;;,'''''''''.'.'..';lxxxxxdddddddddoooooooo, 
 cdxxxxxxxxddxxxxxxxxxxxxxxxxxxxxxxc:oxkkkkkkxl'''',,,;;;::;..........:ddddooooooolllllllll, 
 ;lllllllllllllllllllllloooooooooo;,.'looooo;.......,;:ccc:;....,.......:cccccccclllccccc::. 
 ,::ccccccccccccccccllllolllolllllcl.,dllll'        .';::,,'....''..    .:::::::cc:::::::::. 
 ,cccccccccccccccccclllllloollllllcc'cllcc'.     ........'.........     .,,,,,,,,,;;,,;:::;. 
 ,cccc:::;;;;;;;;;;;;::::::::::::;,''.ccc,...........    ....          ..,'',,''''',,'','''. 
 ';;:::;:;;;,,,,,,;;;:c:::;;::::c,'''.:ol'.........                  .',,''''''''...'''''''. 
 .',;::;:;;,,,'''''''',,,,,,;clcc;....odoc'......                 ..';;,;,''.'','''......... 
 .';,:;,;,';;c:,,',,''',,,;,'''.......lc:lol;''....                ..';,c;',,,,,,,'',''''''. 
 .'',,:,''';:c:,:;''.,'..',,,''.......::,c;,;:cllcl.               ...c.::'','''''.';;;;;,;. 
 ','''''';,'',''...',,'..;;. ...........''cxk:,,,;:,.                .c'll;;;:;:::,,:::::;;. 
 .;;.'''..',';',',,col:'.,.  ...........,,;oOd;;,;l'.                .:ccl:;;lccll;:oodddoo, 
 .',',,;cc'.'.'''lololoc.   .'........',,,''lxl;::;,.                .,odOo,',::c;:c:::::cc' 
 ,'':occ:;;cd,'',oxxklo:...............',,,..,cl::;c.                .;cdOd,',;cl;codolc:;;. 
 ,;;cl:,,;;ol:,;:oxxkl'....''.........'',,''..'..'cc.               ..;ookkc;:;,,,llll:c;'c' 
 ,l:;;,,;;,cl;',cokkx,...'''.............'..'..'. .''           .....'.;okkd',;,'';:,c;;;:c' 
 .;,,:;,,:oolc,.:dkd,...','.''''''................  .      .   ......'..xkkx,',..';c,l:..::. 
 ..'...';cxxxxc,cdo'...,,'.'...'.,......... .....'         .........,.;;oxxd;,;;.'';:;,..';. 
 ;;',,;::lxxxlloxl'..';,'',' ....''......... .,'.'.       .........::...,llo:..;;,,',,...':. 
 ;;..;::c;;clllxl,'',;:,,:::;,'',,',',''';;;;;;:'.'.. ..  ........'lc....;cc::ccco:;,c'..,;. 
 ':;,;,.,:;::::c;;;;::,,:ccc:::;;,,,;;,;',;;;;;;:''lcdd,,..........cl....,cl,,llcc,..,;',..  
 ';:cc:'';cc;,:::::cl:,ccccccc:;;,,,,,,,'';::::::;''odxx;:.........lo....,cc'.:::;.  .'','.. 
 .:lc::;:;l;;cc:::clc;,cllc::::cc;,;;;;,,,;:cllccc;''ldx0d:.......,d:....,cc:....:'  ..,.... 
 '',','',:;:c::::ccc:,;::::::cccc:lo:c:;;;;:looolll;',c;;.      .,dc.....,cll,.  :c. ... ..  
 ...',,'...,,,;::cc:,,:::::clxkkxxdoool;,;c:looooooc.       .   .,l,.....,lldo. .'c'.......  
 .....,,..':lodxxddodooodooddxxdooololc:;;;;:::::::;;;;,;. ....,'.;c;....,lloo.....'''.....  
 '....,,.',;cdxkOOOOO000OOkxolc;,,,,,'.,,,:::looodddoool:,',,;::'.;c,';:;:oodxc....'.. .'::. 
 ...;''...',;cldxkkxkkkxxddoc;,'.......'''',,;:cclloooolll:;,,::,.;:,..cccllodc,:::.....':d. 
