 ;clllllllllllllllloooooooooooooooooooooooooooooooooooooooooooooolllllllccccccc::::::::::;;. 
 cxxxkxxxkkkkkkkkkkkkkkkkkkkkOOOOOOOOOOOOOOOOOOOkkOOOOOOOOOOOOOkkkkkkxxxxxddddddddoooooooll' 
 cdddddxxxxxxxxxxxxxxxxxkkkkkkkkkkkkkkkkkkkkkkd;.'cxkOOOOOOOOOkkkkkkxxxxxddddddddoooooooooo, 
 cddddddddddddddxxxxxxxxxxkkkkkkkkkkkkkkkkkx:'.....;dxxOOOOOOOOOOOkkkkxxxxxxddddddddddddddd, 
 cdddddxxxxxxxxxxxxxxxxxkkkkkkkkkkkkkkkkkkkc...''...'::dkOOOOOOOOOkkkkkkxxxxxxxxxxddddddddd; 
 cdxxxxxxxxxxxxxxxxxxxxkkkkkkkkkkkOOOOOOkkkx;''.......,:lkOOOOOOOOOkkkkxxxxxxxxxxdddddddddd, 
 cxxxxxxxxxxxxxxxxxxxxxkkkkkkkkkkkOOOOOOOOOOo'...',,'..',,;:clloxkkkkkxxxxxxxdddddddddddddd, 
 cdxxxxxxxxxxxxxxxxxxxxxkkkkkkkkkkkkOkkkkkkl,.,,,::;'...,,,'....':oxxxxxxdddddddddooooooooo, 
 cdxxxxxxxdddddxxxxxxxxxxxxxxxxxxxxc:oxxxxl..',::cl:'....','......',lddddoooooooollllllllll, 
 ;lllllllllllllllllllllllloooooooo;'.'cooo;....,;;;,......''........'lllllccccccccccccccc::. 
 ,::cccccccccccccccccllllllllllllccl.,dllo:......''...........    ...::::::::::cc::::::::::. 
 ,ccccccccccccccccccclllllllllllll:l':lllc.      ..........       ..,:;;;;;,;;,,,,;;,;;:::;. 
 ,cccc::::;;;;;;;;;;;::::::::::::;,''.cc:.     ...........   ..   .':;;:;,,',,,'',',,'',','. 
 ';;:::;:;;;,,,,,,;,;:::;:;;:::::,'''.:l;    .......  ...     .. ..,,,,,,'''''''''..'''''''. 
 .,,;::::;;,,,,''''''',,,,,,;cccc;....ol.........               ...'.,,,,''''''''''......... 
 .,;,:;,;,';;::,,',,''',,,;,,''.......l;.......                   ...:;,c;',,',,,,'',''''''. 
 .'',,:,''';:c:,;;'..'...'','''.......::.......   .                ..:c.:;''''''''.':;;;;,;. 
 ',,''''';,'','...'',,'..,;.............''';,....,;..               .::'cl;;;:;;::,,::::;;;. 
 ';;.'''..',',',',,col:'.,.  ..........',,;oOd;;;;l,.               .'c;cl:;;llcll;:oddddoo, 
 .','',;c:'.'.'''coloco:..  .'........',,,',cdl;;:;,.                .:loko,',::c;:c:::::cc' 
 ,'':occ:;;:d,'''oxxklo:..............',,,,..,::;:;:.                .:coOd,',;:c;cddolc:;;. 
 ,;;cl:,,;;ol:,;;oxxxl'....''.........'',,''..'..':c.              ..',ookxc;:;;,,llllcc;'c' 
 ,l:;;,,;,,cl;',:okkx,....''............''..'..'. .'.           .....'.;lkkd,,;,'';;,c:;;:c' 
 .;,;:;,;:locc,.:dkd,...'''..'''''................  .          .....'...dkkx,',..';c,l:..::. 
 ..'.'.';cxxxx:,cdo'...,,'.'...'.,'........ ......         .........,.;;oxxx;,;,.'';:;,..';. 
 ;;',,;::lxxxlloxl'..';,'','. ...,'......... .;'.'.       .........:;...,clo:..;,,,',,...';. 
 ;;..;::c;;clllxl,'',;;,,:::;,''','''''',;;;;;;:'.'.. ..  ........'lc....;cc::cccl:;;c'..,;. 
 ':;,;,.,:;;:::c;;;;::,,:ccc:::;;,,,,;,,',;;;;;;:''clod;,..........cc....,cl,,clcc,..,;',..  
 '::cc;'';cc;,:::;:cl;,:cccccc:;;,,,,,,,'';::::::;''ldxx;:.........lo....,cc'.:::;.  .',,'.. 
 .:lc::;;;l;;cc:::clc;,cllc::::c:;,;;;;,,,;:cccccc;''ldx0d:.......,d:....,cc:....:'  .',''.. 
 .,,','.,c;:c::::ccc:,;::::::::ccclc:c;;;;::lloolll;.,:,;.      .'oc.....,cll,.  ;c. ... ..  
 ...',''..',,,;::cc;,,::::::ldxxxxoollc;,;c:looooooc..      .   .,c,.....,cldo. .'c'.......  
 .....,,..':loddxddodooodooddxxdoollolc;;;;;:c:::::;,,,,,.....','.;:;....,lldo....''''.....  
 '....,,.',;cdxkOOOOO000Okkxolc;,,,,,'.,,;:::oooddddoool:;';,;:;'.;:,';:;:oodxc....'.. .,::  
 ...;''...',;cldxkkxkkkxxddoc:,'.......'''',,;::clloooolll:,,,;:'.,:,..cc:lcodc,:::.....':o. 
