 ;clllllllllllllllloooooooooooooooooooooooooooooooooooooooooooooollllllllcccccc:::::::::::;. 
 cxxxkxxxkkkkkkkkkkkkkkkkkkOOOOOOOOOOOOOOOOOOOOOOOOOOOOOOOOkkOOkkkkkkkxxxxddddddddoooooooll' 
 cddddxxxxxxxxxxxxxxxxkkkkkkkkkkkkkkkkkkkkkkkOOOOOOOOOOOxl;',lxkkkkkkxxxxddddddddoooooooooo, 
 cddddddddddddxxxxxxxxxxkkkkkkkkkkkkkkkkkkkkkkOOOOOOOkOo'.....',lkkkkkkxxxxxddddddddddddddd, 
 cdddddxxxxxxxxxxxxxxxkkkkkkkkkkkkkkkkkkkkkkOOOOOOOOOkl'........;kkkkkkkkxxxxxxxxxxxddddddd; 
 cdxxxxxxxxxxxxxxxxxkkkkkkkkkkkkkkOOOOOOOOOOOOOOOOOOOk;.........oOOkkkkkkxxxxxxxxxxdddddddd, 
 cxxxxxxxxxxxxxxxxxxxkkkkkkkkkkkkkOOOOOOOOOOOOOOOxloxd..........okOkkkkxxxxxxxddddddddddddd, 
 cdxxxxxxxxxxxxxxxxxxxkkkkkkkkkkkkkkOOkkkkOOOOOxc,'..'............;ldxxxxxdddddddddoooooooo, 
 cdxxxxxxxdddxxxxxxxxxxxxxxxxxxxxxxc:ldkkkkkkkx;;,'.......'.....    .,oddddoooooollllllllll, 
 ;lllllllllllllllllllllloooooooooo;,.'loooooo:'....'',;;;;;,.....     .,cccccccccclcccccc::. 
 ,:::cccccccccccccccllllllllolllllcl.,dllllc.    ...';:::::,......      .::::::::::::::::::. 
 ,cccccccccccccccccclllllloollllllcc'cllccc.        .,::;;,........     .,,,,,,,,,;;,,;:::;. 
 ,cccc:::;;;;;;;;;;;;::::::::::::;,''.:ccc.          ..'...........     .''',,''''',,'','''. 
 ';;:::;:;;;,,,,,,;;;:c:::;;:::::,'''.:ol; ...........  ....  .....   ..'''''''''...'''''''. 
 .',;:;;:;;,,,'''''''',,,,,,;:lcc;....odo'........         .       ..',,;,''.'','''......... 
 .';,:;,,'';;cc,,,,,'''',,;,'''.......lc::......                   ...;,c;',,',,,,'',''''''. 
 .'',,:,''';:c:,;;''.,...'','''...... ;:,c,...... .                ...:.:;'''','''.';;;;;,;. 
 ,,''''.',,'',''...',,'..;;.  ...........':kx:,'',;,.                .c,ll;;;:;:::,,::::::;. 
 .;;..''..',';',',,col:'.'.  ...........,,;oOd;;,;l'.                .:ccl:;;lccll;:oooddoo, 
 .','',;cc'.'.'''loldcoc.  ..'........',,,''ldl;:c;,.                .,loko,',::c;:::::::cc' 
 ,'':occ:;;:d,'''oxxxlo:...............',,,..'cl::::.                .,loOd,',;:c;cddolc:;;. 
 ,;;cl:,,;;ol:,;:oxxxl'....''.........''',''..'..':c.               ..,ookkc;:;,,'llll:c;'c' 
 ;l:;;,,;;,cl;'':okkx,....''.............'..'..'. .''           .....'.;okkx',;,'',:'c:;;:c' 
 .;,;:;,,:oolc,.:dkx,...','..''','................  .      .   .........dkkx,',..';c,c:..::. 
 ..'...';cxxxx:,cdo'...,,'.'...'.''........ ......         .........,.;;oxxx;,;;.'';:;,..';. 
 ,;',,;::lxxxlloxl'..';;'',,. ...''......... .,'.'.       .........::...,cloc..;;,,',,...';. 
 ;;..,::c;;clllxl,'',;:,':::;,'',,,'''''';;;;;;:,.'.. ..  ........'lc....;cc::ccco:;,c'..,;. 
 ':;,;,.,:;::::c;;;;::,,:ccc:::;;,,,,;,;',;;;;;;:''lcdd;;..........cl....,cl,,llcc;..,:',..  
 ';:cc;'';cc;,:::::cl:,ccccccc:;;,,,,,,,'';::::::;''odxx;:.........lo....,cc'.c::;.  .'','.. 
 .:lc::;:;l,;cc:::clc;,:llc::::cc;,;;;;,,,;:cllccc;''ldx0x:.......,dc....,cc:....:,  ..,.... 
 .',','',:;:c::::ccc:,;:::::::ccc:lo:c:;;;;:loollll;''c;;.      .'dc.....,cll,.  :c. ... ..  
 ...',,'...,,,;::cc:,,::::::lxkkdxdolol;,;c:looooooc.       .   .'l,.....,lldo. .'c'.......  
 '....,,..':lodxxddodooodooddxxdoollolc:;;;;::::::::,;,,,......,'.;c;....,lldo.....'''.....  
 '....,,.',;cdxkOOOOO000OOkxolc;,,,,,'.,,,:::looodddoool:,',,,:;'.;:,';:;:oodxl....'.. .,:c  
 ...;''...',;cldxkkxkkkxxddoc;,'.......'''',,;::clloodollc:,,,:c,.;:,..cccllool,cc:.....':d. 
