 ;cllllllllllllllllooooooooooooooooooooooooooooooooooool:,...:lllllllllccccc:::::::::::::;;. 
 cxxxkxxxkkkkkkkkkkkkkkkkkkkkOOOOOOOOOOOOOOOOOOOOOOkl:,.....';lxkkkkxxxxxdddddddooooooollll' 
 cdddddddxxxxxxxxxxxxxxxxkkkkkkkkkkkkkkkkkkkkkkxoc;'..........'';dxxxxxxddddddooooooooollll, 
 cdddddddddddddxxxxxxxxxxxkkkkkkkkkkkkkkkkkkkkl,,'...............'cxxxxxxxdddddddddddoooooo, 
 cdddddxxxxxxxxxxxxxxxxxkkkkkkkkkkkkkkkkkkkkko':;........''''....''cxkkxxxxxxxxxxdxxxdddddd; 
 cxxxxxxxxxxxxxxxxxxxxkkkkkkkkkkkkkOOOOOOkkkkx,;,.........,;:::::;:coxkxxxxxxxxxddddddddddd, 
 cxxxxxxxxxxxxxxxxxxxxxkkkkkkkkkkkkOOOOOOOOOOOx:'..........',;;;,'...'cxxxxxddddddddddddddd, 
 cdxxxxxxxxxxxxxxxxxxxxkkkkkkkkkkkkkkkkkkkkkkxoc,......................:ddddddddooooooooooo, 
 cdddddddddddddddxddxxxxxxxxxxxxxxdc;ldxxdoc,.........   .....        ..:ooooolllllllllllll' 
 ;llllllllccccllcclllllllllllooool;,.'c,..............    ...        ....:ccccccccccccc::::. 
 ,::::::cccc::ccccccclllllllollllccc.,c..........       ...        .....';;:::::::::::::::;. 
 ,:::ccccc:c::c:::ccccllllllllllll:c.:;.......          .   ..     ..'..',,,,,,,,,,,,,,;;;;. 
 ,::cc::;;;;;;;,,,,,;::::::::::::;,''.:c,.......',;;..  ......... ......','''''''''''''''''. 
 ';;:::;;;;;,,,,,,,,;;::;:;;:::::,'''.cdollllllllllll:......  ........ .,''''''......''''''. 
 .',,;;;:;,,,,'''.'''',,,,,,,:c:c,',,.odoooollclcccc::.         ....   .'''..'''............ 
 .',';,,,'',;::,,,,,'.'',,;,'''....'''olcloodoooodoooo;.          ..   .;;',',,,,,'','''''.. 
 .'',,:,''.,::;,;,'..'...'','''....'';o:,c,,;::llcllll:.             ..'c;.''''.'..';;;;,',. 
 ,,'''..',,'','....',,'..;;.   .........',lkx:,,,,::cco.              ..:c;,;:;:::,,:::;;;;. 
 .;,.......'',',.,,coc:'.'.  ..........',,,oOd,;,,ccccl..              .:l;,;lc:cl;;oooddol, 
 .'''',;cc'.'.''.lolococ.   .'........',,,''dOl;;:,,:co..              .:ko'',;::,::::;;:::. 
 ''':occ;;,co,'''oxxxco;. .............,,,,.'cdo::;::,;. ..     .     ..cOo'',;:c;codolc;;;. 
 ,,;cc;,,,;ol:,;:oxxxc.....'..........''''''..'',':c:;,.  .        ...'lokxc;;,,',llll:c,'c' 
 ,c;;;,,;,,:c;'':oxkx,....'.....................  .';,,.     ........'.,okkd'',''.;;'c;,;:c' 
 .,,,;,,,:ooll,.:dkd,...'''...''''...............   .','    ............xkkd,''..';c,l;..;;. 
 ......';cxxxx:,cdo....,'......'.'.........  .....   '..  ..........,.;;oxxd;';,.'',;,'..';. 
 ,,',,;::lxxxlloxl'..';,'',' ....''......... .,'...  .''..........ld:...,clo:.';,;,',,...';. 
 ,,..,;::,;:cclxl,'',;;',:::;,'',,''''''',;;,,,;'.. ...:;.........;dc....;cc::cccl:;,c'..,,. 
 ':;,;'.';;;::;c;;,;::,,::::::;;;,,,,,,,',;;;,;;;..:ldd,l;........'lc....;cl,,cccc,..,;.'..  
 ';:cc;'';:c,,:::;:cc;':ccccc::;,'',,,,''';::;;;:;..cllx;c,........lo....,cc'.::;;.  .,','.. 
 .:lc:;;;;c,;cc:::clc;,:ccc::::::;,;;;,,,,,:cccc::,.':cdOd;........o:....,cc;....:'  ..'.... 
 .''','.':,::::::ccc;,;:::::::ccc:cc:c;,,;;;cllllcc,..''..     ...c:.....,ccl,.  ;:. ...  .  
 ...','....',,;;:c:;',::::::lxkdxxoolol,,;:;loololl:.    .      .;c,.....,cldl.  'c........  
 .....',..';codxxxdodoodddodddddollllcc;,,;,;::;::;;;;;,, ....,,..;:;....,lldl.....'''.....  
 '....',..';coxkOOOO0000Okkdoc:;,,,,,'.,,,;;:loooodooolc:;:::::;'.;:,';:;:lldxc....'.. .,::  
 ...,''...'',:loxkkkkkkkxddlc;'...........''';:::looddoolc;,;,::'.,:,..cc:cloo:;c:;......:d. 
