 ;llllllllloooooooooooooooooooooooooooooooodo.............''...,'  .;llllcccccc:::::::::::;. 
 cxkkkkkkkkkkkkkkkkkkkkOOOOOOOOOOOOOOOOOOOOOc...........',;;'',;;'..lxxxxxxdddddddooooooool' 
 cdxxxxxxxxxxxxxxxxxxkkkkkkkkkkkkkkkkkkOOkx,.....,xko;;,;;,'.'',,::;lxxxxdddddddddooooooooo, 
 cddddxxxxxxxxxxxxxxxxxkkkkkkkkkkkkkkkkkkd'.....'dkOOOOOo,........;:cxkxxxxxddddddddddddddd, 
 cddxxxxxxxxxxxxxxxxxkkkkkkkkkkkkkkkkkkkkc.....'lkOOOOOOOc.........':xkkxxxxxxxxxxxxxxxdxxd; 
 cxxxxxxxxxxxxxxxxkkkkkkkkkkkkkkkkOOOOOkkd........:dOO00Ok,... .....'lxxxxxxxxxxxxxxddddddd, 
 cxxxxxxxxxxxxxxxxxxxkkkkkkkkkkkkkOOOOOOOkl.........'lxxOO;...     ...lxxxxxxxddddddddddddd, 
 cxxxxxxxxxxxxxxxxxxkkkkkkkkkkkkkkkkOOOOkkko,'''...  ....'....       .'cddddddddddddooooooo, 
 cddxxxxxxxxxxxxxxxxxxxxxxxxxxxxxkxc:cdxkkkkxc..............          .'looooooooolllllllll, 
 :lllllllllllllllllllllloooooooooo;,..;oooddddo;.........,'.        ....;cccccccccccccccc::. 
 ,cccccccccccccccccclllooolooollolcolocoooooooooo:............     .',..;::::::ccc:::::::::. 
 ,cccccccccccccccccclllllooollllllllodollllllooooo'.................',.';;;,;;;,,,,;,;;::;;. 
 ,cccc:::;;;;;;;;;;;::::c::::::::::::lxllllllccclll:.............';;,..c:,,'',''''',,'','''. 
 ';::::::;;;,,,,,,;;;:c:::;;:::cc;,;:cxdoooolollooooc.     .....',,....;,''''''''...'''''''. 
 .',;::;:;;;,,,''''''',;,,,,;clcc;';;:kxdoooolllllccc.         .......,:;,''.''''''......... 
 .';,:;,;,,;;cc,,,,,'''',,;,','....'':xlclddddddddddd..          ......;c;',,,,,,,'','','''. 
 .',,;:,''';::;,;;''',...',,'''....'';o:,c;,;:clllloo'            .....:c:''''''''.':;;;;,;. 
 ,,''''',,,,',''...,;,''.;;..  .........',lkk:,,,;::c'.               .'ll;;;:;:::,,::::::;. 
 .;;.'''..''',',';,col:'.'.. ..........',,;oOd;;,;lcc;                .'cl:;;llcll;;oodddoo, 
 .',',,:cc'.,.'''loodcoc.   .'........',,,''lxo;;:;,:;.               ..cOo,',::c;:c::::::c' 
 ,',:olc:;;cd,'',oxxklo:. .............,,,,'.'cd:::c:'  .             .'lOd,',;:l;cddolc:;:. 
 ,;;cl:,,;;dl:;;:oxkkl'....''...........''''..',,,:c:.            ....'lokkl;:;,,'llll:c;'c' 
 ,l:;;,,;,,cl;''cdkkx,...'''...................'. .':.          .....'';okkx,';,'',:'c:;;:c' 
 .;,,:;,;:ooll,.:dkd,...'''.''''''...............   ..        .......'..xOkx,',..';c;c:..::' 
 .''.'.':cxxxx:,cdo'...,,'.'...'.'.........  .....        ..........,.;:oxxx;,;,''',:,,..';. 
 ;;',,;::lxxxlloxl'..';,'','. ...''...........,'...       ........'oc...,lloc..;;;,',,...':. 
 ,,..;::c;;ccllxl,,,;;;',:::;,,'',''',''';;;;;;;'.... .'  ........,dc....;cl::ccco:;,c,..,;. 
 ,::,;,.,:::cc;c;;;;::,,cccc:::;;,,,,;,,',;;;;;;;''lcdx:,.........'oo'...,ll,,lccc;..,;',..  
 '::cc:'';cl;,:::::cl:,ccccccc:;;,',,,,''';::::;:;''codx:c........'dd'...,cc'.::;:.  .',,'.. 
 .:lc::;:;l;;cccc:llc;,cllc::::cc;,;;:;,,,;:cllccc;'.ldx0o'. .....cxc....,ll: ...:,  ..,.... 
 .',','',c;:c:cccccc;,;:::::::cclccoc::,,;::cooooll;.';,.       .:kl'....,lll;.  ;l.  .. ..  
 ...',,'..',,;;::cc;,,::::::lxkkxkxdool;,;c:looooooc.      . . ..:l;.....,lldd...'c'.......  
 .....,,..':lodxxxddddoddddddxddollllc::;,;;::::::::;;;;, ...,;c,.;c:'...,lldd.....'',.....  
 '....,,.',:ldxOOOOO0000OOkxdlc;,,,,,'.,,,;::ododddddool:,,;ccc:,.;c;';:::oodxo....'.. .,:c. 
 ...;',...',;:loxkkxkkkkxxooc:,'..........'',;cclloddddool:;;;:c,.,c;..clcllodl;cc:'....':d. 
