 ;lllllllllooooooooooooooooooooooooooooooooooooooooooooollloooolllllllllllllllllcccccccc::;. 
 cxxxxkkkkkkkkkkkkkkkkkkkOOOOOOOOOOOOOOOOOOOOkkOkkkkkkkkkkkkkkkkkkkkkkkkkxxxxxxxxxxxdddddoo, 
 cddddddxxxxxxxxxxxxxxxkkkkkkkkkkkkkkOOOkkkkkkkkkkkkkkkkkkkkkkkkkkkkkkkxxxxxxxxxxxxxxdddddo, 
 cdddddddddddddxxxxxxxxxxxkkkkkkkkkkkOOkkkkkkkkkkkkkkkkkkkkkkOOOOkkkkkkkkkkxxxxxxxxxxxxxxxx; 
 cddddddxxxxxxxxxxxxxxxkkkkkkkkkkkkkkOOOOOkkkkkkkkkkkkkkkkkkkOOOOOOkkkkkkkkkkkkkkkkkkkkkkxx; 
 cdxxxxxxxxxxxxxxxxxkkkkkkkkkkkkkkOOOOOOOOOOOOkkkkkkkkkkkOOOOOOOOOOOOOOkkkkkkkkkkkkxdoc::ox; 
 cxxxxxxxxxxxxxxxxxxxxkkkkkkkkkkkkOOOOOOOOOOOOOkxxxddddoddddddxkkkkkkOkkkkkkkkkxxo;..    ... 
 cdxxxxxxxxxxxxxxxxxxxkkkkkkkkkkkkkkdlcc::;;;,,'''...................';;codxxxdc..        .  
 cddxxxxxxxxxxxxxxxxxxxxxxxxxxxxko;.''...........................         ..:l,.    ....     
 ;llllllllllllllllllllllloooooool..';:............................    .             ..       
 ,:::::cccccccccccccclllolllllllc,;lldc;:cc:::::;;;;,,;;:;,'.....    ...               ..;:. 
 ,ccc:cccccccccccccclllllooollllllllodooolllllllllooooooooollllcc::'.....              .'c:. 
 ,:ccc:::;;;;;;;;;;;:::cc::::cccc::::cxolllcccc:ccllllllllclcclllcc;.....              ..,,. 
 ';;:::;;;;;,,,,,,;;;:c:::;::::cc;,::cxddoollllcllllllllcc:ccccc:::;.......             ..,. 
 .',;:;;:;,,,,'''''''',,,,,,;:lcc;';;:kxdooollcccc::::;:::;;;::::::..    ......          ... 
 .';,;;,,,';;cc,,',,'''',,;,'''....,,:xlcoooooooooooooooooooc:::::,.     .              .''. 
 .'',,:,''';:::,;;''.,...'','''....'';oc;c;,;::cccclllccclodddodx:.                     .,;. 
 ',,''''',,'','...',,;''.;;.............',lkk:''',;:::odl:lcclll:.                      ;::. 
 .;;......''';',';,col:'.,.  ..........',,;oOx;,',c:cco:;;:::lc:.                       ldo, 
 .',',,;cc'.'.'''loldcoc.  ..'........',;,''dOo;;;,,:coc'',;;:,.                        ;cc' 
 ,'':olc:;;cd,'',oxxxlo:..............',,,,''dOd;;;:;,;...,,..                         .;::. 
 ,;;cl;,,;;ol:;;:oxkkc'....''.........'',,''.'dOk:::::,,,,;'.    .                      .'l, 
 ,l:;;,,;,,cl;',:okkx,....''............''....'dOk:;:,;;ll,.                              :' 
 .;,;:;,,:oolc,.:dkx,...'''..''','.............,ldx:',;;:;.                                . 
 ..'...';cxxxx:,cdd'...,,'.....'.,........................                   ..,'.           
 ,;',,;::lxxxllodl'..';;'','.....''......... .,'...   ..;,                 .'.,::;,.         
 ,,..,::c;;ccclxo,'',;:,,:::;,'',,,,''',';;,,,,;'..     ,,     ..        .,llcllodc:;;.      
 ':;,;,.';;;:c;c;;;;::,,:ccc:::;;,,,;;,,',;;;,,,,..     .c.   ....     ..:oo:;oool:.':c''.   
 ';:cc;'';:c;':::::cl:,:cccccc:;;,,,,,,,'';;:;;;,.  .''  ;,.  ....    ...:oo,.lcc:'  .;;;,.  
 .:lc::;;;l,,cc:::clc;,cllc::::cc;;;c:;,,,;:ccc:;.   ,:c;''.  ...... ....;ooc.'.'c,  .,;'''. 
 .',','.':;:c::::ccc:,;:::::::ccc:cc:c:,,;;;clll:.   ...'       . .......;ooo;...cl. ......  
 ...','....',,;;:cc;,,::::::lxkkxkxdlol;,;c;clll:.               .;,..'..:ooxd...,l,.......  
 .....',..';lodxxddodooddooddxxxoollolc:;;;;::;;;.           .....:c:'''';ooxo.''.',,,...'.  
 '....',.'';loxkO00O0000OOkxolc;,,,,,'.,,,;;:llloo:''',;'..',;;;'.;c;':c:codxxl...',.'.',cc. 
 ...;''...'';cldxkkkkkkkxxdoc:,'..........''';:::clloolllc;,,,;:'.,c,.'lllooddl;lcc'''..'cd. 
