 ;lllllllllloooollooooooooooooooooooooooooooooooooooooooo'........:lllllccccc::::::::::::;,. 
 cxxxkkkkkkkkkkkkkkkkkkkOOOOOOOOOOOOOOOOOOOOOOOOOOOOkdolc;',,...,,okkkxxxxddddoooooollllllc' 
 cddddxxxxxxxxxxxxxxxxkkkkkkkkkkkkkkkkkkkkkkkkkkkkkl,,;:;,',,...,;;coxxxxddddooooooooolllll' 
 cddddddddddxxxxxxxxxxxxkkkkkkkkkkkkkkkkkkkkkkkkkd;'',;;,,,'.....',,,;dxxxddddddddddooooooo, 
 cddddxxxxxxxxxxxxxxxxkkkkkkkkkkkkkkOkkkkkkkkkkkd;,.....',;,'.........,oxxxxxxxxxxddddddddd, 
 cdxxxxxxxxxxxxxxxxxkkkkkkkkkkkkkOOOOOOOOOOOOkxd;................    ...cdddddddddddddddddd, 
 cxxxxxxxxxxxxxxxxxxxkkkkkkkkkkkkkOOOOOOOOOx:,''...............        ..lddddddddddddddddd, 
 cxxxxxxxxxxxxxxxxxxxkkkkkkkkkkkkkkOOOOkkkx,..','..............          :odddooooooooooooo, 
 cdddxxxxxxddddxxxxxxxxxxxxxxxxxxxxc:odxxxd..............                :llollllllllccclll' 
 ;lllllllllclllllllllllllllooooooo;,.'coooo;........           ..       'cccccccccccccc::::. 
 ,::::ccccccccccccccclllllllolllll:l.'dlllll:'.      ... ..... ...    .,::;;;::::::::::;;;;. 
 ,::ccccccccc:cccccccllllloollllllcc':cccccccl'     ........   ..'.  .;:;;,,,,,,,,,,,,,;;;;. 
 ,:ccc:::;;;;;;,;,;;;::::::::::::;;;,.:ccccccc:'.    ..        ......,::;,'''''''''''''''''. 
 ';;:::;:;;;,,,,,,;,;:::;:;;:::::,,;:':ollllllllc'   .     ........',;;,,'''''''.....''''''. 
 .',,;;;:;,,,,,''.'''',;,,,,,cccc;';;'odoooolccccc;.           .. ...,;,;,''.'''.''......... 
 .';';;,;,',;:c,,',,'''',,;,'''....'''lc:looooooddd;.              ...;,:;',,',,,''','''''.. 
 .'',,:,''.,:c:,;;''''...'','''....'',l:,c;',:cllclc.               ..;':;''''''''.';;;;,',. 
 ','''''',,'',''...',,'..,;..............'lkx:,,,;;;.                .::cl;,;:;;;:,,:::;;;;. 
 ';;..'....'',',',,:ol:'.'.  ...........'',oOd,;,,l:.                .,lcc:;;lcccl;;loooool, 
 .','',;cc'.'..''loloclc.  ..'........'',,''oOl,;:;,.                ..:oOd,',;::;;:::;;::c' 
 ,'':lcc;;,:d,'''oxkkll:. .............',,,..,co;:;:,.                .:oOx,',;:c;:ooolc:;;. 
 ,;;cc;,,;;oc:,,;oxkkl'....'............''''..',,,:c;               ..'cokkc;;,,,'clll::;.c' 
 ,l:;;,,;,'cl;'':okkx;....''..................... .,,            .....,;lkkx'',,'.,;'::,;:c' 
 .;,;:;,,:locc'.:dkd,...'''..'''''................  .       .   .....'..dkkx,''...;c,c:..;;. 
 ......';cxxxx:,cdo'...,''.....'.'.........  ....'         .........'.;;oxxx;,,,.'',:,'..',. 
 ,,'',,::lxxxlloxl'..';,'','.....''......... .,'...        ........';...'clo:..,,,,','....;. 
 ;,..,::c;;ccllxl,'',;;,':::;,'',,,'''''',;;,,,;'...       ........;c....;cc::c:cl:,,c'..,;. 
 ':;,;,.':;;::;c;;;;::,,cccc:::;;,,,,,,,',;;;;;;;'.c:c:..  ........;l....,cc,'cccc,..,;.,..  
 ';:cc;.';:c;'::::;cl:,:cccccc:;;,',,,,''',::;;;:;.'cdxd';.........co'...,cc'.::;;.  .''''.. 
 .:lc::;;;l,,ccc::clc;,cclc:::::c;,,;:;,,,,:cccccc,.'ldxOl,.  ....,dc....,cc:....:,  ..'.... 
 .',','.,:;;c::c:ccc:,;::::::::cc:ll:::,,;;;clllllc;.':,,.      .,xl'....'ccl,.  ;c.  ..  .  
 ...',''...,,,;;:cc;',::::::ldkxdxddlol,,;:;cooooool.    .. .  ..;l,.....,cldd. .'c'.......  
 .....',..':loddxddodooodooddxxdollllcc;,,;;;:::::::;;;;;. ....;,.;:;'...,lloo.....'''.....  
 '....',.'';coxkOOOOO000OOkxolc;,,,,,'.,,,;::loooddoooolc;',';:;,.;:;';:;:lldxl....'.. .';:. 
 ...;''...',;cldxkkxkkkkxxdlc;,'.........'''';::ccloodooll:;,,:c,.,:,..cc:llooc,::;......;d. 
