 ;clllllllllllllllloooooooooooooooooooooooooooooooolooooooooooooolllllllcccccc:::::::::::;;. 
 cxxxkxxxkkkkkkkkkkkkkkkkkkkkOOOOOOOOOOOOOOOOOOOOo;';dOOOOOOOOOkkkkkkxxxxxddddddddoooooooll' 
 cdddddxxxxxxxxxxxxxxxxxkkkkkkkkkkkkkkkkkkkkkko;'....,dkkkOOOOkkkkkkxxxxxdddddddooooooooooo, 
 cddddddddddddddxxxxxxxxxxkkkkkkkkkkkkkkkkkkkd'..'....,ocxOOOOOOOOkkkkxxxxxxddddddddddddddd, 
 cdddddxxxxxxxxxxxxxxxxxkkkkkkkkkkkkkkkkkkkkkk:,.......,cldkOOOOOOOkkkkkxxxxxxxxxxddddddddd; 
 cdxxxxxxxxxxxxxxxxxxxxkkkkkkkkkkkOOOOOOOOOOOx;..',;;'..';:dkkOOOOOOkkkxxxxxxxxxxdddddddddd, 
 cxxxxxxxxxxxxxxxxxxxxxkkkkkkkkkkkOOOOOOOOOOl'.,,,:c;'...,,;,;;;,;coxkxxxxxxxdddddddddddddd, 
 cdxxxxxxxxxxxxxxxxxxxxkkkkkkkkkkkkkOkkkkkko'..,:;cc;'....,,,'....'':dxxddddddddddooooooooo, 
 cdxxxxxxxdddddddxxxxxxxxxxxxxxxxxx::ldxxxxc....,,,,,.......'........;ooooooooollllllllllll' 
 ;lllllllllllllllllllllllllooooooo;,.'looooc.. ...'............    ...cccccccccccccccccc:::. 
 ,::ccccccccccccccccclllllllolllllcl.'dlll:.     .........           .;:::::::::::::::::::;. 
 ,ccccccccccccccccccclllllllllllllcc':lll;.   ............   .      .;;;;;,,,,,,,,,,,,;:;;;. 
 ,cccc:::;;;;;;,;;;;;:::::::::::::,''.cc,..........   ...     ..  ..,;;;;,''',''',',,''''''. 
 ';::::;:;;;,,,,,,;,;:::;:;;::::c,.''.c:.........              ....',,,,,'''''''....'''''''. 
 .',;::;:;;,,,,''''''',,,,,,;cccc,....oc......                  .....,,,,,''.''''''......... 
 .';,:;,,,';;:c,,,,,'''',,;,'''.......lc,........;.               ...;:,:;',,,,,,,'',''''''. 
 .',;,:,''',:c:,;;''.,...'','''.......::,c;'';:cllc..              ..,l.;:'','''''.';;;;;,,. 
 ',,''''';,'',''...',,'..;;.. ..........',lkk:,,,;::..               ,l.cl;,;:;:::,,::::::;. 
 .;;..''..''';,,',,col:'.'.  ..........',,;oOd;;,;l:..               .cccl:;;lcccl;;oooddoo, 
 .',',,;cc'.'.'''loldcoc.   .'........',,,'':ol;::;,..               .;lokd,',;:c;:c:::::cc' 
 ,',:ocl:;;:d,'''oxxklo:..............',,,,'.'::;:::'           .    .:coOd,',;:c;codolc:;;. 
 ,;;cl:,,;;ol:,;:oxxkc'....''.........'',,''..'...:c.             ...',lokkl;:;,,'clll:c;'c' 
 ,l:;;,,;,,cl;'':okkx,....''............''..'..'.  '.          ......'.,lkkx,';,'.,;,c:;;:c' 
 .;,;:;,,:oolc,.:dxd,...'''..''','................  .         ......'...dkkx,',...;c;cc..::' 
 ..'.'.';cxxxx:,cdo'...,''.'...'.,'........ ......        .........';.;;oxxx;,;;.'',:;,..';. 
 ,;',,;::lxxxlloxl'..';,'','. ...''......... .,,.'.       ........;o:...'cloc..,;,,',,...';. 
 ,;..;::c;;clllxl,'',;;,,:::;,'',,',,,,,';;;;;;:'.,'. ..  .......'cdc....,cc::cccl:;,c'..,;. 
 ':;,;,',;;::c;c;;;;::,,:ccc:::;;,,,;;;;',;;;;;;:''coxx:,.........;dl....,cl;'cccc;..,;','.  
 '::cc:'';cl;,:::;:cl;,:cccccc:;;,,,,;,''';::::::;''odxk::........;do....,cc,.::::'  .'','.. 
 .:lcc:;:;l;;cc:::clc;,cllc::::cc;,;:;;,,,;:cllccc;''ldx0x;.......cxc....,cc: ...:,  ..,''.. 
 .,,','.,c;:c::::ccc:,;:::::::cccclccc:;;;::clollll;',:,,.   .  .;dl'....,lll,.  ;c.  .. ..  
 ...',''..',,,;::cc;,,::::::ldkxxdooloc;,;c:looooooc..      . ...;l,.....,lldd. .'c'.......  
 .....,,..':lodxxddodooodooddxxdoollolc;;;;;:c:::::;;;;,,.....';'.;:;'...,lldo.....'',.....  
 '....,,.'';ldxkOOOOO000OOkxocc;,,,,;'.,,;:::looddddooolc;,;;::;'.;:,.;:::oodxl....'.. .,;:. 
 ...;''...',;cloxkkxkkkxxddoc:,'.......'''',,;::cllooddoll:;,,;:,.,:,..cc:llodl,:::'....':d. 
