 ;lllllllllooooooooooooooooooooooooooooooooooooooooooooollloooolllllllllllllllllcccccccc::;. 
 cxxxxkkkkkkkkkkkkkkkkkkkOOOOOOOOOOOOOOOOOOOOkkOkkkkkkkkkkkkkkkkkkkkkkkkkxxxxxxxxxxxdddddoo, 
 cddddddxxxxxxxxxxxxxxxkkkkkkkkkkkkkkOOOkkkkkkkkkkkkkkkkkkkkkkkkkkkkkkkxxxxxxxxxxxxxddooodo, 
 cdddddddddddddxxxxxxxxxxxkkkkkkkkkkkOOOkkkkkkkkkkkkkkkkkkkkkOOOOkkkkkkkkkxxxxxxxxxlc.. .cd, 
 cddddddxxxxxxxxxxxxxxxkkkkkkkkkkkkkkOOOOOkkkkkkkkkkkkkkkkkkkOOOOOOkkkkkkkkkkkkkxl...... .:, 
 cdxxxxxxxxxxxxxxxxxkkkkkkkkkkkkkkOOOOOOOOOOOOkkkkkkkkkkkOOOOOOOOOOOOOOkkkkkkkkc... .....    
 cxxxxxxxxxxxxxxxxxxxxkkkkkkkkkkkkOOOOOOOOOOOOOkkkkkkkkkkkkOOOOOOOOOOOkkkkkkkkl.....   ..... 
 cdxxxxxxxxxxxxxxxxxxxkkkkkkkkkkkkOkdollllllllc::::::::;,,,'''.....',;;:ldxxxo.... .. ...'o, 
 cddxxxxxxxxxxxxxxxxxxxxxxxxxxxxxo;.''..............................     ..,:,   .. ....'lo, 
 ;llllllllllllllllllllllloooooooc..';:............................   ....           . .;llc' 
 ,:::::cccccccccccccclllolllllll:.;ooo;',;''''...................    ....            ..'ccc. 
 ,cccccccccccccccccclllllooollllllclodoolllllllllllcclooolc:::;;;;'......               .;:. 
 ,:ccc:::;;;;;;;;;;;:::cc::::cc:c::::cxollcccc::ccclllllllllccllllc.  ..  .''..          .,. 
 ';;:::;;;;;,,,,,,;;;:::::;:::::c;,::cxddollllllllllllllcc:c:cc::::.      ..              '. 
 .',,;;;:;,,,,'''''''',,,,,,;:lcc;';;:kxdooollcccc::::;:::;:;::::::.                      .. 
 .';';;,,,';;cc,,,,,'''',,;,'''....,,:xlcoooooooooooooooooolc:::::.                          
 .'',,:,''',;c:,;;''',...'','''....'';oc;c;,;::cccclllccclodddodx:.                          
 ',,'''.',,'',''...,;;''.;;.............',lkk:''',;:::odl:lcclll:.                           
 .;,..'...''',',';,col:'.'.. ..........',,;oOx;,,,c::co:,;:::lc;.                            
 .',',,;cc'.'.'''loldcoc.   .'........',,;''oOo;,;,,;cdc'',;;;'.                   .'        
 ,'':lcc;;,:d,'''oxxxlo:..............',,,,''dOx;;;;;,;'..,,..                    .ld:       
 ,;;cc:,,;,ol:,;;oxkxl'....''.........'',,''.'dkk::::;,,,,;'.                    .:ooo:;'.'. 
 ,l:;;,,;,'cl;'':oxkx,....''............''....'dkk:;:,,;ll'.                     '::,lc:ccl' 
 .;,;:;,,:oolc,.:dxd,...'''.''''''............ .:ld:',,;;;.                 .....,:l;lc''cc' 
 ..'...';cxxxx:,:do'...,''.....'.'.........  .      ......             .......,;,,,;c;;..,:. 
 ,;',,,::lxxxlloxl'..';,'','. ...''......... .'.....  ..;,             .....;.':::;,;;'..,c. 
 ;,..,::c;;clclxl,'',;;,,:::;,''',,'''''';;,,,,;'....   ,,     ..   .. ...:olcllodc:;l,..;;. 
 ';;,;,.';;;::;c;;;;::,,:ccc:::;;,,,,;,,',;;;,,,,.....  .c.   .... ......:oo;;ooll;..;:,;'.. 
 ';:cc;'';:c;':::;:cl;,:cccccc:;;,',,,,''',;:;;;;,..'c,  ,,.  ...........;oo,.ll::'  .,;;,'. 
 .:lc::;;;l,;cc:::clc;,cclc:::::c;,;c:;,,,,:ccc:::,..col;''.   ..........;ooc.'..c;  .';'''. 
 .''','.':;;c::::ccc:,;::::::::cc:cc:c:,,;;;clllcc:'..'''.         ......;ooo;...:l. ......  
 ...'''....',,;;:cc;,,::::::lxkkxkxdlol;,;c:cllloll:.            .;,.....;ooxd...,l,.......  
 .....',..';lodxxddodooodooddxxdoolllcc:;;;;;:;;;;;;,,,,.  .......;c:'''';ooxd.''.',,,...'.  
 '....',.'';coxkO00O0000OOkxolc;,,,,,'.,,,;;:loloooollc:;''',;;;'.;c;';c:cddxko...',.'.';:c. 
 ...;''...'',:loxkkkkkkkxxdoc;,'..........''';:::cllooolcc;,,,;:'.,:;.'lllooddl:lcc'''..'cx. 
