 ;cllllllllloooollloooooooooooooooooooooooooooooooooooooooooollllllllllcccccc::::::::::::;;. 
 cxxxxkkkkkkkkkkkkkkkkkkkOOOOOOOOOOOOOOOOOOOOOOOOOOOOOOOOkkkkkkkkkkxxxxxxdddddooooooooolllc, 
 cddddddxxxxxxxxxxxxxxxkkkkkkkkkkkkkkOOOOOOOOOOOOkkkkkkkkkkkkkkkkkxxxxxxdddddooooooooooolll, 
 cdddddddddddddxxxxxxxxxxxkkkkkkkkkkkOOOOOOOOOOkkkkkkkOOOOOOOOOkkkkkkxxxxxdddddddddddoooooo, 
 cddddddxxxxxxxxxxxxxxxxkkkkkkkkkkkOOOOOOOOOOOOOOOOOOOOOOOOOOOOkkkkkkkkkxxxxxxxxxxxdddddddd; 
 cdxxxxxxxxxxxxxxxxxxxkkkkkkkkkkkOOOOOOOOOOOOOOOOOOOOOOOOOOOOOOOOkkkkkkkxxxxxxxxddddddddddd; 
 cxxxxxxxxxxxxxxxxxxxxxkkkkkkkkkkOOOOOOOOOOOOOOOOOOOOOOOOOOOOOOOkkkkkkxxxxxxddddddddddddddd, 
 cdxxxxxxxxxxxxxxxxxxxxkkkkkkkkkkOOOOOOOkddddxkkkOOOOOOOOOOOOkkkkkkkxxxxxddddddddoooooooooo, 
 cdxxxxxxxxxxxxxxxxxxxxxxxxxxxxkdoolodl,...''.....''''',;ldkkkkxxxxxxxdddoooooollllllllllll' 
 ;lllllllllllllllllcllllllooool'....''......................;cooooooollllccccccccccccccc:::. 
 ,:::cccccccccccccccccllllllll,........................     ..':ccc::::::::::::::::::::::::. 
 ,::::cccc:cccccccccclllllllll:.................  ......      ..,::::::;;,,,,,,,,,,,,,;;;;;. 
 ,cccc:::;;;;;;;;,;;;::::::::::::;,''..........  .....         ..,;:;;;;;,'''''''''''''''''. 
 ';;:::;;;;;,,,,,,,,;:::::,;;::::,''.........    ...............',;;,,,,,'''''''.....''''''. 
 .',;:;;:;,,,,'''.'''',,,,,,;cccl;....:..        ...............''.;;,,,,''..'''..'......... 
 .';';;,,'';,:;,,','.'',,,;,','.'.....o,.               ... ........,;;,c;','',,,'''''''''.. 
 .'',,:,''.;:c;,;;''.'...'','''.......c:;'.  .....   ......         .:c.:;.''''''..,:;;;,,;. 
 ',''''.',,'','...'',,'..,;.......    ....:kx:,,........           ..,,.cc,;;;;;;;',::;;;;;. 
 .;,..''..''';''.,,coc:'.,.    ....       .cOd;;'......   .       .....;cc;,;lccll;:oodddoo, 
 .','',;c:..'.''.llloco:.  .........       .okl;,'..   ....        ...'cokl,',:::,::;::::cc' 
 ''':lcc;;,co''',oxxxco:. ..........    ... .okd;,'.........         ..:oOo'',;:c,cdoolc;;;. 
 ,,;cl;,,,;ol;,,:oxxkc'.............     .'. .dOx:;''.......          .lokx:;;,,',llol:c''c' 
 ,c;;;,,;,'cc;'':okkx,..............      ... .'cx,.........        ...;lxkl'',''';;'c;;;:c' 
 .;,;:;,,:locc'.:dxd,...'.............     ..    ..........     .. .....xkko'''..':c,l;.'::' 
 ......';cxxxx:,cdo'...,'...........        ..     .  ......    ...''.;;dxxd;';'..',:;'..,;. 
 ,,'',,::lxxxlloxl'..';,..,. .........     . ..      .......   ...lo,...,clo;.';,,''',...';. 
 ;,..;::c;;ccllxl,'',;;',:::,'..''.....      .;.  ..........    .:dd;....;cc;::ccl;;;c...,;. 
 ':;,;'',;;;:c:c;;,;::,,::::::;;,'.....       .;. ..........   ..:dd:....;cc';cccc,..;;',..  
 ';:cc;.';:c;'::;;;cc;,:ccccc::;,''....        ,:'..........    ..;dl....;cc..:::;.  .,''... 
 .:lc::;;;c;,cc:::clc;,:ccc:::::c,;,:c,'.      .cc'.........    ...,;....,cc;....:.  .''.'.. 
 .,,','.,c;:c::::ccc;,;::::::::cc:clc:c;.       ,lc;,...        .........,ccl'. .::. ...  .  
 ..'','....,,,;;:c:;,,::::::ldxxxkxoool;'. .     :l,..           .,'.....,ccdc.  ,c........  
 .....,,..':coodddooollodooodxxxoolooll:;;,,,'..  ....   ..   ....;:,....,lldc......'......  
 '....',.'';coxkO0OO0000Okkxoc:;,,,,;'.,;;::loo,   ........',;;;..;:'',;,:lldd:....'.. '':;  
 ...;''....';codxkkxkkkkxddlc;,'.......''',,;;,.     .  .''''';:..,;'.'cc:ccoo:,;:;......:o  
