 ;clllllllllllllllloooooooooooooooooooooooooooooooooooooooooooooolllllllccccccc::::::::::;;. 
 cxxxkxxxkkkkkkkkkkkkkkkkkkkkOOOOOOOOOOOOOOOOOOOOOOOOOOOOOOOOOOkkkkkkxxxxxddddddddoooooooll' 
 cddddxxxxxxxxxxxxxxxxxkkkkkkkkkkkkkkkkkkkkkkOOOOOOkddxxkOOOOOkkkkkkxxxxxddddddddoooooooooo, 
 cdddddddddddddxxxxxxxxxxkkkkkkkkkkkkkkkkkkkkkkkkkd;...';dxOOOOOOOkkkkxxxxxxddddddddddddddd, 
 cdddddxxxxxxxxxxxxxxxxkkkkkkkkkkkkkkkkkkkkkkOkko;.......,cxkOOOOOkkkkkkxxxxxxxxxxddddddddd; 
 cdxxxxxxxxxxxxxxxxxxxkkkkkkkkkkkkOOOOOOOOOOOOOOo,........;okOOOOOOkkkkkxxxxxxxxxxddddddddd, 
 cxxxxxxxxxxxxxxxxxxxxkkkkkkkkkkkkOOOOOOOOOOOOOOO:'.......,lclxOOOkkkkxxxxxxxxddddddddddddd, 
 cdxxxxxxxxxxxxxxxxxxxkkkkkkkkkkkkkkOOkkkkkOOko:;,.........;....;cdkkxxxxxddddddddooooooooo, 
 cdxxxxxxxdddddxxxxxxxxxxxxxxxxxxxxc:ldkkkkkx:,'.............    ..,oxddddooooooollllllllll, 
 ;lllllllllllllllllllllllooooooooo;,.'looodo:,,'''''',,,.....       .,llllcccccccclcccccc::. 
 ,:::cccccccccccccccclllolllolllllcl.'dllll,....',;;;;,,'.......      '::::::::cc::::::::::. 
 ,ccccccccccccccccccclllllolllllll:c':llcc'    ...;:::;'....''...    ..;;;;;;,,,,,,;,,;:;;;. 
 ,cccc::::;;;;;;;;;;;::::::::::::;,''.ccc,        .,:;'..........    .';;,,',,''''',,'','''. 
 ';;:::;:;;;,,,,,,;;;:c:::;;:::::,'''.:oc.       ........  ..........,,,,''''''''.'.'''''''. 
 .',;:;;:;;,,,'''''''',,,,,,;cccc;....lo' ..........   ....     . .';,,,;''''''''''......... 
 .';,:;,,,';;::,,',,'''',,;,'''.......cc.........                ....;;,c;,,,,,,,,'',''''''. 
 .'',,:,''';:c:,;;'..,...'','''.......;:........                   ..;l.:;''''''''.';;;;;,;. 
 ,,''''.',,'',''...';,'..;;. ..............'...  ...                 ;c.cl;;;:;:::,,:::::;;. 
 .;;..''..',';',',,col:'.'.  ...........,,,lkd,,,;l..               .'c;cl:;;lccll;;oooddoo, 
 .','',;cc'.'.'''loldcoc.  ..'........',,,'':oo;::;'.                .ccoko,',::c;:::::::cc' 
 ,'':occ:;;:d,'''oxxxlo:...............',,,'.';:;:::.                .:loOd,',;:c;cddolc:;;. 
 ,;;cl:,;;;ol:;;;oxxxl'....''.........''''''..'...:c.              ..''ookkl;:;,,'llll:c;'c' 
 ;l:;;,,;,,cl;'':oxkx;....''.............'..'..'.  '.           .....'.,lkkx,,;,'',:'c:;;:c' 
 .;,;:;,,:oolc,.:dkx,...'''..''','................             .....'...dkkx,',..';c,c:..::. 
 ..'...';cxxxx:,cdo'...,,'.'...'.''........ ......        ... .....',.;;oxxx;,;;.'',:;,..';. 
 ,;',,;::lxxxlloxl'..';;'','. ...''......... .,,...       .........l:...'cloc..;;,,',,...':. 
 ;;..,::c;;clllxl,'',;:,,:::;,'',,,'''''';;;;;;:'.'.. ... ........'oc....;cc::cccl:;,c'..,;. 
 ':;,;,.,:;::::c;;;;::,,:ccc:::;;,,,,;,;',;;;;;;:''cldk;,..........ll....,cl;'llcc,..,:',..  
 ';:cc;'';cc;,:::::cl:,ccccccc:;;,,,,,,,'';::::::;''lddx;:'........oo....,cc,.c:;;.  .'','.. 
 .;lc::;:;l;;cc:::clc;,:llc::::cc;,,;;;,,,;:cllccc;''ldx0xc.......;d:....,cc: ...:,  .',.... 
 .',',''':;:c::::ccc:,;:::::::ccccll:c:;;;;:loollll;''c:;.      .,dc.....,cll,.  ;c. ... ..  
 ...',''...,,,;::cc:,,::::::lxkkdxdolol;,;c:looooool..          .'l,.....,lldo. .'c'.......  
 '....,,..':lodxxxdodooodooddxxdoollolc:;;;;::::::::,;;,,......,'.;:;....,lloo.....'''.....  
 '....,,.',;cdxkOOOOO000OOkxolc;,,,,,'.,,,:::looddddoool:,',,,::,.;:,';:;:oodxl....'.. .,:c. 
 ...;''...',;cldxkkkkkkxxddoc:,'.......'''',,;:::cloooollc:,,,::'.,:,..cc:llool,:c:.....';d. 
