 ;clllllllllllllllloooooooooooooooooooooooooooooooooooooooooooooolllllllcccccc:::::::::::;;. 
 cxxxkxxxkkkkkkkkkkkkkkkkkkkkOOOOOOOOOOOOOOOOOOOOd;,cxOOOOOOOOOkkkkkkxxxxxddddddddoooooooll' 
 cdddddxxxxxxxxxxxxxxxxxkkkkkkkkkkkkkkkkkkkkkko:'....:xkOOkOOOkkkkkkxxxxxdddddddooooooooooo, 
 cddddddddddddddxxxxxxxxxxkkkkkkkkkkkkkkkkkkko'.......:olkOOOOOOOOkkkkxxxxxxddddddddddddddd, 
 cdddddxxxxxxxxxxxxxxxxxkkkkkkkkkkkkkkkkkkkkkx,'.......;clxOOOOOOOOkkkkkxxxxxxxxxxddddddddd; 
 cdxxxxxxxxxxxxxxxxxxxxkkkkkkkkkkkOOOOOOOOOkOk:...',,'..,:cxkOOOOOOkkkkxxxxxxxxxxdddddddddd, 
 cxxxxxxxxxxxxxxxxxxxxxkkkkkkkkkkkOOOOOOOOOOo'.,',:c;'..',;;;::c:coxkkxxxxxxxdddddddddddddd, 
 cdxxxxxxxxxxxxxxxxxxxxxkkkkkkkkkkkkOOkkkkko...,;:cl;'...',,,.....,:lxxxddddddddddooooooooo, 
 cdxxxxxxxdddddxxxxxxxxxxxxxxxxxxxxc:odxxxx:...';;;;,.....'''.......'cdddooooooolllllllllll' 
 ;lllllllllllllllllllllllllooooooo;,.'looooc......''...........    ..'clcccccccccccccccc:::. 
 ,::ccccccccccccccccclllllllollllccl.,dlloc..    ..........         ..::::::::::::::::::::;. 
 ,ccccccccccccccccccclllllllllllllcc':lll:.   ............   .      .;;;;;,,,,,,,,,;,,;::;;. 
 ,cccc::::;;;;;,;;;;::::::::::::::,''.cc;........... ....     ..  ..,:;;;,'',,''',',,'','''. 
 ';::::;:;;;,,,,,,;;;:::;:;;:::::,'''.cc.........              ....',,,,,'''''''....'''''''. 
 .,,;::::;;,,,,''''''',,,,,,;:lcc;....o:......                  ...'.',,,''''''''''......... 
 .,;,:;,,,';;:c,,',,'''',,;,'''.......lc'.....  .'.               ...;:,:;',,,,,,,'',''''''. 
 .',;,:,''';:c:,;;'..,...'','''.......::;:,'',,;clc..              ..,l.:;'','''''.,:;;;;,;. 
 ',,''''';,'','....',,'..;;.. ..........',lkx:,,,;:;..               ;c'cl;;;:;:::,,::::::;. 
 .;;.'''..''';,,',,col:'.'.  ..........',,;oOd;;;;l:..              ..c:cc:;;lccll;;oooddoo, 
 .','',;cc'.'.'''loloclc.   .'........',,,''col;::;;.                .;loko,',::c;:c:::::cc' 
 ,'':oll:;;cd,'''oxxklo:..............',,,,'.'::;::c'           .    .:coOd,',;:c;cddolc:;;. 
 ,;;cl:,;;;ol:,;:oxxxc'....''.........'',,''..'..':c.             ...',ookxc;:;,,'clll:c;'c' 
 ,l:;;,,;,,cl;'':okkx,....''.........'..''..'..'.  ''          ......'.;okkd',;,,',:'c:;;:c' 
 .;,;:;,,:lolc,.:dxd,...'''..''','................  .         ......'...dkkx,',..':c;l:..::' 
 ..'.'.';cxxxx:,cdo'...,''.'...'.,'........ ......        .........,,.;;oxxx;,;,.'',:;,..';. 
 ,;',,;::lxxxlloxl'..';,'','. ...''......... .,'.'.       ........,o:...,cloc.';,,,',,...';. 
 ;;..;::c;;clllxl,'',;;,,:::;,''','''''',;;;;;;:'.,.. .. ........'cdc....;cc::ccco:;,c'..,;. 
 ':;,;,.,;;;:c:c;;;;::,,:ccc:::;;,,,;;,,',;;;;;;:''cldx:,.........;dl....,cl,,llcc,..;:',..  
 '::cc;'';cc;,:::;:cl;,:cccccc:;;,,,,,,,'';::::::;''odxk::........;do'...,cc'.c::;.  .,,,'.. 
 .:lcc:;;;l;;cc:::clc;,cllc::::c:;;;;;;,,,;:cccccc;''ldx0x;.......cx:....,cc:....:'  .',''.. 
 .,,','.,c;:c::::ccc:,;::::::::ccclc:c;,;;::llollll;',:,,.   .  .;dc.....,cll,.  ;c. ... ..  
 ...,,''..',,,;::cc;',::::::ldxxxdooloc;,;c:looooooc..      .  ..;c,.....,cldo. .'c'.......  
 .....,,..':loddxddodooodooddxxdoollolc;;;;;:c:::::;,,,,,.....';'.;:;....,lldo....''''.....  
 '....,,.'';ldxkOOOOO000Okkxocc;,,,,,'.,,;:::ooodddooool:;,;,;:;'.;:,';;;:lodxc....'.. .,::  
 ...;''...',;cldxkkxkkkxxddoc:,'.......'''',,;::clloooooll:,,,::'.,:,.'cc:lcodc,::;.....':d. 
