 ;cllllllllllllllllooooooooooooooooooooooooooooooooooooooooooooollllllllcccccc:::::::::::;;. 
 cxxxkxxxkkkkkkkkkkkkkkkkkkkkOOOOOOOOOOOOOOOOOOOOd;,;dOOOOOOOOOkkkkkkxxxxxddddddooooooollll' 
 cdddddddxxxxxxxxxxxxxxxxkkkkkkkkkkkkkkkkkkkkkko;....,oxkkkOOOkkkkkkxxxxxddddddoooooooooooo, 
 cddddddddddddddxxxxxxxxxxkkkkkkkkkkkkkkkkkkkkl..'....';;cxOOOOOOOkkkkkxxxxddddddddddddoooo, 
 cddddddxxxxxxxxxxxxxxxxkkkkkkkkkkkkkkkkkkkkkOc'........,;;okOOOOOOkkkkkxxxxxxxxxdxxddddddd; 
 cdxxxxxxxxxxxxxxxxxxxxkkkkkkkkkkkkkOOOOOOOkkxc..';;,..',;;,cdxxdxkkkkkkxxxxxxxdddddddddddd, 
 cxxxxxxxxxxxxxxxxxxxxxkkkkkkkkkkkkkOOOOOOOOo'.'':l:,..',;;;;,''..,cxkxxxxxxddddddddddddddd, 
 cdxxxxxxxxxxxxxxxxxxxxkkkkkkkkkkkkkOkkkkkkk,.',;cl:'...',;,''......'oxddddddddddoooooooooo, 
 cddxxxxxdddddddxxxxxxxxxxxxxxxxxxxc:odxxxkx,..'';;'......',''.....  .ooooooooollllllllllll' 
 ;lllllllllccllllllclllllllloooooo;'.'loooooc....................     ;cccccccccccccccc::::. 
 ,::::::ccccccccccccccllllllllllllcl.,dllll,.   ..........            '::::;;:::::::::::::;. 
 ,::::ccc::c:::::cccclllllllllllllcc':lllc'  .............          .';;;,,,,,,,,,,,,,;;;;;. 
 ,::cc::;;;;;;;,,,,;;::::::::::::;,''.:c:........... ...       .    .';;,,'''''''''''''''''. 
 ';;:::;;;;;,,,',,,,;;::;:;;;::::,.''.cl.........               ....'.',,'''''''.....''''''. 
 .',,;;;;;,,,,'''.'''',,,,,,;:ccc;....oo.......   .              ......,,'''.'''.'.......... 
 .';';;,,'',,::,'',,'..'',;,'''.......ll;..... ..co,              .....,:;',,',,'''','''''.. 
 .'',,:,''.,::;,;;'..'...'','''.......::;c,'',;cllll,.                ',:;.''''''..';;;;,',. 
 ','''..','''''....',,...,;.   .........',lkx:,,,;:c;.                'ccc;,;:;;::,,::::;;;. 
 .;,.......'',''.,,:ol:'.'.  ..........',,;oOd;;,;cc;.                .'cc;,;lcccl;;oooddoo, 
 .','',;::'.'.''.lolocl:.   ..........',,,''oxl;;:;,;.                 'oko,',:::,:::::::::' 
 ''';lcc;;,:d,'''oxxxco:. ............',,,,..'cl;:;::.                .:oOd'',;:c;codolc:;;. 
 ,,;cc;,,,;oc:,,;oxxkc'....'..........''''''..'''':c;.              ...lokxc;;;,',llll:c;'c' 
 ,c;;;,,;,'cc;'':okkx,.....'...................'. .';.         ......'.;okkd'',,'.;;'c;;;:c' 
 .;,,:,,,:oocc,.:dkd,...'''...''''................  ..        ..........xkkx'''..';c,l:..::. 
 ......';cxxxx:,cdo'...,''.....'.'.........  .....         .........'.;:oxxx;';,.'';:,'..';. 
 ,,.',,:;lxxxlloxl'..',,'','. ...''......... .,'...   .   ........'l:...,llo:..;,,,',,...';. 
 ,,..,::c;;ccclxl,'',;;,':::;,'',,''''''';;;;,,;'.'.. .'  ........'o:....;cc::cccl:;,c'..,;. 
 ';;,;,.';;;::;c;;,;::,,:::::::;;,,,;;,;',;;;;;;;''cldx;;..........;c....;cl,,cccc,..;;''..  
 ';:cc;.';:c,':::;;cc;':cccccc:;;',,,,,''';::::;:;''ldox:c.........;o....,cc'.::;;.  .''''.. 
 .:lc::;;;l,,cc:::clc;,:ccc:::::c;,;;;;,,,;:cccccc;''lox0xc........::....,cc;....:'  ..,.... 
 .',','.':;;c:::::cc:';::::::::ccclccc:,,;;:clolllc;.':;:.      ..,:.....,lcl,.  :c. ...  .  
 ...'''....',,;;:c:;',::::::ldxdxdooloc;,;c:looooooc.      .    .'l,.....,cldo.  'c'.......  
 .....',..';codxdddodooodooddxddoollllc:;;;;:cc::::;;;;,,.....,,..::;....,lldl.....'''.....  
 '....',..';coxkOOOO0000Okkdoc:;,,,,;,.,,,:::loooddoool:;';,;::;'.;:,';:;:lodxl....'.. .,::. 
 ...;''...'';:loxkkxkkkkxddlc;,'.......'..',';:ccllooddoll;,,,;:'.,:,..cc:llooc,:::......:d. 
