 ;cllllllllloooollloooooooooooooooooooooooooooooooooooooooolooollllllllcccccc::::::::::::;;. 
 cxxxxkkkkkkkkkkkkkkkkkkkOOOOOOOOOOOOOOOOOOOOOOOOOOOOOOOOkkkkkkkkkkxxxxxxdddddooooooooolllc, 
 cddddddxxxxxxxxxxxxxxxkkkkkkkkkkkkkkOOOOOOOOOOOOOOkkkkkkkkkkkkkkkxxxxxxdddddooooooooooolll, 
 cdddddddddddddxxxxxxxxxxkkkkkkkkkkkkOOOOOOOOOOOkkkkkkOOOOOOOOOkkkkkkxxxxxdddddddddddoooooo, 
 cddddddxxxxxxxxxxxxxxxxkkkkkkkkkkkOOOOOOOOOOOOOOOOOOOOOOOOOOOOkkkkkkkkkxxxxxxxxxxxdddddddd; 
 cdxxxxxxxxxxxxxxxxxxxkkkkkkkkkkkOOOOOOOOOOOOOOOOOOOOOOOOOOOOOOOkkkkkkkkxxxxxxxxddddddddddd; 
 cxxxxxxxxxxxxxxxxxxxxxkkkkkkkkkkOOOOOOOOOOOOOOOOOOOOOOOOOOOOOOOkkkkkkxxxxxxddddddddddddddd, 
 cdxxxxxxxxxxxxxxxxxxxxkkkkkkkkkkkOOOOOOkddddxkOkkOOOOOOOOOOOkkkkkkkxxxxxddddddddoooooooooo, 
 cdddxxxxxxxxxxxxxxxxxxxxxxxxxxkdlllodc,...''..........';ldkkkkxxxxxxxdddoooooollllllllllll' 
 ;llllllllllllllllllllllllooool'....''......................,cooooooollllccccccccccccccc:::. 
 ,::::ccccccccccccccccllllllll,........................     ..':ccc::::::::::::::::::::::::. 
 ,::::ccccccccccccccclllllllll:.... ...........  .......      ..,::::::;;,,,,,,,,,,,,,;;;;;. 
 ,cccc:::;;;;;;;;,;;;::::::::::::;,''..........  .....         ..,;:;;;;;,'''''''''''''''''. 
 ';;:::;;;;;,,,,,,,,;:::;:;;;::::,''.........    ...............';;;,,,,''''''''.....''''''. 
 .',;;;;:;,,,,'''.'''',,,,,,;cccl;....:.         ....   ........',.;;,,,,''..'''.''......... 
 .';':;,,'';,::,,','..'',,;,','.'.....o'.       ..    ..... ........,;;,c;','',,,'''''''''.. 
 .'',,:,''.;;c;,;;...'...'','''.......cc,..  ......  ......         .:c.:;.''''''..,;;;;,,;. 
 ',''''.',,'','....',,'..,;. .....    .  .:kx:,,.........           .,,.cc,,;:;;;;',:::;;;;. 
 .;,..''..''',''',,coc:'.,.    ....       .cOd;;'....     .       ....';cc;,;lccll;:oodddoo, 
 .','',;c:..'.'''llloco:.  .........       .okl;;...    ...        ...'cokl,',:::;:::::::cc' 
 ''':lcc;;,co''',oxxxco:. ..........    ... .okd;'..........         ..:oOo'',;:c,cdoolc;;;. 
 ,,;cc;,,,;ol:,,:oxxkc'.............    .''...dOk;'.........          .lokx:;;,,',llll:c,'c' 
 ,c:;;,,;,'cc;''cokkx,.............. .   .''. ..:x,......  .       ....;oxko'',''';;,c;,;:c' 
 .;,,:;,,:locc'.:dxd,...'.............    ...    .......        .. .....xkkd'''..'::,l;.'::. 
 .''...';cxxxx:,cdo'...,'........'..        ..        .......   ...,'.;;ddxo;';''.',;,'..,;. 
 ,;',,,::lxxdlloxl'..';,.',. .........     . '.   .........'.  ...lo,...,clo;.';,,'',,...,;. 
 ;,..;::c;;ccllxl,'',;;',:::,'..''.....     .;;.  ......'.'.    .cdd;....;cc;::ccl;;;c...,;. 
 ':;,;'.,:;;::;c;;,;::,,:::::;;,,'.....      .;;. ........'.   ..:dd:....;cc';cccc,..,;',... 
 ';:cc;'';cc,'::;;;cc;'cccccc:;,,'.....      .;;:'...........   ..;ol....;cc..:::;.  .,''... 
 .:lc::;;;l;,cc:::clc;,:ccc:::;:c,,,:c;'.     :ccc,'.........  ....,,....,cc;....:.  .''.... 
 .,,','.,c;:c::::ccc;,;::::::::cc:clc:c;.     .lll;'..          .........,ccl'. .::  ...  .  
 ..'','....',,;;:c:;',::::::ldxxxkxdooo;.. .   :oo...            .,'.....,ccdc.  ,c........  
 .....,,..':loddxddodooodooddxxdoollolc:;,,,'.  ........... . ....;:,....;cldc.....''......  
 '....',.'';ldxkOOOO0000Okkxoc:;,,,,;'.,;;::'    .......'..,;,;;..;:'.;;;:lldd:....... '':;  
 ...,''...'';cldxkkxkkkkxddlc:,'.......'''''.       ...'cc,'',;:..,;'.':c:ccoo:,::;......:o  
