 ;lllllllllooooooooooooooooooooooooooooooooooooooooooooollloooolllllllllllllllllcccccc::::;. 
 cxxxxkkkkkkkkkkkkkkkkkkkOOOOOOOOOOOOOOOOOOOOkkOkkkkkkkkkkkkkkkkkkkkkkkkkxxxxxxxxxxddddoooo, 
 cddddddxxxxxxxxxxxxxxxkkkkkkkkkkkkkkOOOkkkkkkkkkkkkkkkkkkkkkkkkkkkkkkkkkxxxxxxxxxxddddoooo, 
 cdddddddddddddxxxxxxxxxxxkkkkkkkkkkkkkOkkkkkkkkkkkkkkkkkkkkkOOOOkkkkkkkkkkkkxxxxxxxxxddddd; 
 cddddddxxxxxxxxxxxxxxxxkkkkkkkkkkkkkkOOOOkkkkkkkkkkkkkkkkkkkOOOOOOkkkkkkkkkkkkkkkkxxxxxxxx; 
 cdxxxxxxxxxxxxxxxxxkkkkkkkkkkkkkkOOOOOOOOOOOOkkkkkOOOkkkOOOOOOOOOOOOOOOkkkxddxxxkxxxxxxxxx; 
 cxxxxxxxxxxxxxxxxxxxxkkkkkkkkkkkkOOOOOOOOOOOOkkxddollllllooddoodxkkOOkko,.....'';oxxdddddd; 
 cdxxxxxxxxxxxxxxxxxxxkkkkkkkkkkkkkxdoolllc:;,'''......''...........';;...........cdddddood, 
 cddxxxxxxxxxxxxxxxxxxxxxxxxxxxxxl'.''...........................................'llllllllo, 
 ;lllllllllllllllllllllllooooooo;..'....................................    .....:llllccccc' 
 ,:::::cccccccccccccllllolllolll..;c...,,',,,;;;;;;;:cc:;,'.............     ....,ccccc::::. 
 ,cccccccccccccccccclllllloollllc;:c'clollllllllllooooooooolll:.......        . ..,;;;:::::. 
 ,:ccc:::;;;;;;;;;;;;:::c:::::ccc:;,''cllllcccc:ccllllllllllcl:...                .,,'',,,,. 
 ';;:::;;;;;,,,,,,;;;:c:::;::::cc;'''.cdooollllcllllllllcc:ccc:......             ..'',,'',. 
 .',;;;;:;,,,,'''''''',,,,,,;cccc;....oxdooollcccc::::::::;:;:,.......          ............ 
 .';';;,,,';;c:,,',,''',,,;,','.......llcoooooooooooooooooooc:'.......           ..',''''''. 
 .'',,:,''';:c:,;;''',...'','''.......::;c;,;::lcclllllcclodol. ....           ....,:;:;;,;. 
 ',,''.'',,'',''..',;;''.;;............. .;kk:,'',;::codlclcc:.              . ..,,,:::::::. 
 .;;..''..''',',';,col:'.,. ...........   .:kd,;',cccco:,;:::,                 ..l::ooddddo, 
 .',',,;cc'.'.'''lolococ.  ..'.........    .lko;;;,,:coc,',;;.                 .;;:c:::::cc' 
 ,'':occ:;;cd,'',dxxxlo:................    .lkd;:;::,;'..,,...     .     ... .,l;lddolc:::. 
 ,,;cl;,;;;ol:;;:oxkxl'....''...........     .okk:cc::,,,,;.        ..      ..';;;llol:l;'l, 
 ,l:;;,,;,,cl;',cokkx,....''.........'...     .okk:;:;;;ll.          ..     ..;;,';:,c:;::c' 
 .;,;:;,,:oolc,.:dkd,...'''.'''','........     .;ld:',;;:;           .       .,..,:l,l:.'::' 
 ..'.'.';cxxxx:,cdo'...,,'.....'.,........          ......                  ..:,'',;:;'..,:. 
 ,;'',,::lxxxlloxl'..';,'','.....'''.......           ..;'          .      ...'::;;',,...':. 
 ,,..;::c;;clllxl,'',;:,,:::;,'',,,,',',';;.           ';,..        .   ....,clllo::;c'..,;. 
 ':;,;,.,:;::c:c;;;;::,,ccccc::;;,,,;;,;',;'           .;:...      .    ...,;;llll;..;:',..  
 '::cc;.';:c,,:::::cl:,:cccccc:;;,,,,,,''';,.       .,. .;.....  ...   ...'l,.lc::.  .,,,'.. 
 .:lc:;;;;l;,cc:::clc;,cllc:c::cc;;;c:;,,,;:'        ';:,',. ......     ..:o:.''.c,  .',''.. 
 .',','.':;:c::::ccc:,;:::::::ccc:cc:cc,,;;;:.       ...'.     ..  ..   .,ooo,...:l. ......  
 ...',''...,,,;;:cc;,,::::::lxkkxkxdool;;;c;:.                   .,..  ..:ooxo...,l'.......  
 .....',..':lodxxddodooodooddxxxdoooolc:;;;;;,'..      .  . ......,.... .:odxo.''.'',,...'.  
 '....,,.'';ldxkO0OO0000OOkdolc;,,,,;'.,,,;;;;'.     .;:'..';;;;'.''''..;codxkl...',.. ',cc. 
 ...;''...',;codxkkkkkkkxddoc:,'.......''''..       'colc:,',,;:'..'...'lcooxdl;clc'.'..'cd. 
