 ;llllllllloooooooooooooooooooooooooooooooodo'.....;c;;,.......... .;llllcccccc::::::::::;;. 
 cxkkkkkkkkkkkkkkkkkkkkOOOOOOOOOOOOOOOOOOOOOl.....;dkxdo''',,''',,..lxxxxxddddddddoooooooll' 
 cdxxxxxxxxxxxxxxxxxxkkkkkkkkkkkkkkkkkkkkkkc......okkkkkc:;,''',;;,,:dxxxdddddddddooooooooo, 
 cddddxxxxxxxxxxxxxxxxxkkkkkkkkkkkkkkkkkkkl......ckkkkOOd:,...',,',;;oxxxxxxddddddddddddddd, 
 cddxxxxxxxxxxxxxxxxxxkkkkkkkkkkkkkkkkkkkx;.....,dOOOOOOOl.........';dkkxxxxxxxxxxxxxxxdxxd; 
 cxxxxxxxxxxxxxxxxkkkkkkkkkkkkkkkkOOOOOkkkc.......,lkOOO0O:...    ...cxxxxxxxxxxxxxdddddddd, 
 cxxxxxxxxxxxxxxxxxxxkkkkkkkkkkkkkOOOOOOOOx;.........:dxkOo...      ..cxxxxxxxddddddddddddd, 
 cxxxxxxxxxxxxxxxxxxkkkkkkkkkkkkkkkOOOOkkkkx:'''.........'....       ..:ddddddddddddooooooo, 
 cddxxxxxxxxxxxxxxxxxxxxxxxxxxxxxkxc:cdxxxkkko;..............         ..:oooooooollllllllll, 
 :lllllllllllllllllllllllooooooooo;,..;oooooddo:'........''.         ...'ccccccccccccccc:::. 
 ,:::cccccccccccccccllllollloollolcoc;:llllooooooc.............    ..'..'::::::::c:::::::::. 
 ,cccccccccccccccccccllllloolllllllloollcclllloooo:.... .............,..;;,,,,,,,,,;,;;::;;. 
 ,cccc:::;;;;;;;;;;;;::::::::::::;:::lxlcccccccccllc.............',:,..;:,,'',''''',,'','''. 
 ';;:::::;:;,,,,,,;;;:::;:;;:::cc,,;:cxdoolllllloolll..     .....,,....;,''''''''...'''''''. 
 .',;::;:;;,,,,''''''',;;,,,;:lcc;';;:kxdooollllllccc'.        .......';;,''.''''''......... 
 .';,:;,;,,;;cc,,,,,'''',,;,'''....'':xlclooddddddddd,.          ......,c;',,,,,,,'','','''. 
 .'',;:,''';::;,;;''',...'',,''....'';o:,c;,;:clllloo,.            ....;c:''''''''.':;;;;,;. 
 ,,'''''',;,',''...,;,''.;;..  .........',lkk:,,,;::c;..              ..ll;;;:;:::,,::::::;. 
 .;;.'''..''',,,';,col:'.'.. ..........',,;oOd;;,;lcc:.               .'cl:;;lcccl;;oodddoo, 
 .',',;:cc'.,.'''loodcoc.   .'........',,,''lko;;:;,::.                .cOo,',::c;:c::::::c' 
 ,',:olc;;;cd,'''oxkxlo:. .............,,,,'.,cd;::::,  .             .'cOd,',;:l;cddolc:;:. 
 ,;;cl:,,;;dl:;;:oxkkl'....''...........''''..',,,:c:'            ....'cokkc;;,,,'llll:c;'c' 
 ;l:;;,,;,,cl;''cdkkx,...'''...................'. .':.          .....'',okkx,';,'',:,c:;;:c' 
 .;,,:;,;:ooll,.:dkd,...'''.''''''...............   ..        .......'..dOkx,',..';c,c:..::' 
 .''.'.':cxxxx:,cdo'...,,'.'...'.'.........  .....        ..........,.;:oxxx;,;,.'',:,,..';. 
 ;;',,;::lxxxlloxl'..';,'','.....''...........,'...       ........'oc...,lloc..;,;,',,...':. 
 ;,..;::c;;ccllxl,,,,;;',:::;,''',''''''';;;,,,;'.... .'  ........,dc....;cc::ccco:;,c'..,;. 
 ,:;,;,.,:::c:;c;;;;::,,cccc:::;;,,,,;,,',;;;;;;;''l:od;,.........'ol....,cl,'cccc,..,;',..  
 '::cc;'';cl,,:::::cl:,:cccccc:;;'',,,,''';::;;;:;.'codx::........'do'...,cc'.::;;.  .',,'.. 
 .:lc::;:;l;;cccc:llc;,cclc::::cc;,;;:;,,,,:cccccc;''lox0l'. .....cxc....,cc: ...:,  ..,.... 
 .',','.,c;:c:::cccc:,;:::::::cccccoc::,,;;:cllllll;..;'.       .cxl'....,lll,.  ;c.  .. ..  
 ...',,'..',,;;::cc;,,::::::lxkxxkdoool,,;:;loooooo:.  .   . . ..:l,.....,lldd.  'c'.......  
 .....,,..':lodxxxdddoodddoddxddollllc::;,;;::::::::;;;;'....,;c,.;c:'...,lldo.....'',.....  
 '....',.',:ldxOOOOO0000OOkxdlc;,,,,,'.,,;;::oooddddoool:,,;c:c:,.;c;';:::oodxl....'.. .,:c. 
 ...;',...',;:loxkkxkkkkxxooc;,'..........''';:ccloddddoll:;;;:c,.,c,..clcllodc;cc:......:d. 
