 ;cllllllllllllllllllllooooooooooooooooooooooooooollllllllllllllllllllllllllllcccc:::::::;;. 
 cxxxxxxxxkkkkkkkkkkkkkkkkkkkkOOOOOOOOOOOOOkkkkkkkkkkkkkkkkkkkkkkkkkkkxddxxxxxxddddoooolllc' 
 cdddddddddddddxxxxxxxxxxxkkkkkkkkkkkkkkkkkkkkkkkkkkkkkkkkkkkkkkkkkkkx'.......,;oooooolllll, 
 cddddddddddddddddddxxxxxxxxkkkkkkkkkkkkkkkkkkkkkkkkkkkkkkkkkkkkkkkko'.    ...'.cddddoooooo, 
 cddddddddddddddxxxxxxxxxxkkkkkkkkkkkkkkkkkkkkkkkkkkkkkkkkkkkkkkkkko.....  ....':dddddddddd, 
 cddddxxxxxxxxxxxxxxxxxxxkkkkkkkkkkkkkOOOOOOOkkkkkkkkkkkkkkkkkkkkk:.............:dddddddddd, 
 cdxxxxxxxxxxxxxxxxxxxxxxkkkkkkkkkkkOOOOOOOOOkkkkkkkkkkkkkkkkkkkkd...... ......'odddddddddd, 
 cdddxxxxxxxxxxxxxxxxxxxkkkkkkkkkkkkkOOkOkkkkkkkkkkkkkkkxdlc;;,'.......  .......,oooooooooo, 
 cdddddddddddddddddddxxxxxxxxxxxxxxc:llllocccc:::;,;,,,,......   .         . ....'lllllllll' 
 ;cllllccccccccccccccllllccllllll,....... ..          .......   .                 ;cccc::::. 
 ,:::::::::c::::cccccccllllllllc..'c:;.               ........  .                ..;:::::;;. 
 ,::::::::::::::::cccccllllllllc,..cl:'''........     .................          ...,,;;;;;. 
 ,::::::;;;;;;;,;,,;;;:::::::::::;::;cdlllccc::::::ccccccccc:cc:.......           ..'''''''. 
 ';;;;:;;;;,,',',',,;;::;:,;;;;::;,;;;odooolllcclccclllcc::::::,.  ..             ...''''''. 
 .',,;;;;;,,,''''''''',,,,,,,:ccc:'''.lxdooollcccc:::;;;;;;;;;;'.  ..              ......... 
 .',';;,,'',,::'''''...',,;,','.......llcodoooolloolllllllll:;;.                    ..'''... 
 .'',,;'''',;c:,;,'..'....','''.'.....;:;c;,;:cllccllcccclloodo.                     ',;,,,. 
 ','''..',,'','....',,'..,;...............,dx;'''',;::ooc;',:c'.                     .;;;,,. 
 .;,......''',''.,,:ol;'.'.  ...........  .:kd,,',c:::l:.....'..                     ;ooool' 
 .'''',,::'.'..'.clcocl:.   ............   .cxl,,;,,;co:.                      ......;;;::c' 
 ''';lcc;;,:d,'''lxxxllc. ..........        .cxd;;,;;,;.....                  ....,loolc;;;. 
 ,,;cc;',,,ol;,,;oxxxl'.............         .cxx;::;;,'',;'.                  .,,loll:c;.c' 
 ,c;;,,,;,'cc;'':oxxx;..............          .cxk;;;,,,lc,.                . .,,';:,c:;;;c' 
 .;',;;',;loc:'.;oxx,...'.............         .cox:'',,;;'            .......'..':l;lc..;:. 
 ......';cxxxx:,:do,...''......'.'......... ...... ........          .....;d:;:;',,;:;,..';. 
 ,,.',,;;cdxxlcldl'...,,'.''. ...''......... .'...    ..;,.        .   ..ldxl.':;;;',,...';. 
 ,,..,::c;;cccldl,'',;;,';;;;'''','''''',,;,,,,,...    ';;. .     .  ....:oolclclo:;;c'..,;. 
 ';;',,.';;;::;c;,,,::,'::::::;;;,,,,;,;',;;;,,,,...   .:c. .............:oo;;llll;..;:',..  
 ';;:c;.';:c,';;;;;:c;';c:c::::;,''',,,,'';;;;;,;'..';,..;,. ............;lo,.lc::'  .,''... 
 .;cc:;;;;c,,:c:::clc;,:ccc::::::;,,,,,,,,,::::::;'..ccll,;.  ...........;loc.'..:'  .',.'.. 
 .''','.':;;c:::::cc;,,;;::::::cc:clcc;,,;;;cllccc:'.'lclc.     .........;loo,. .:l. ...  .  
 ...'''....',,,;;c:;',;;;;;;coddxdoo:ll;,;:;cllllll:' .          ..,.....;loxd...,l'.......  
 .....',..';clodddooolloooloodoooccllcc:,;;;:::;;;;;,'''.... .....;c;'.'';ooxo.''.''''.....  
 '....''..';codkOOOOO00OOkkdoc:;,',,,'.,,,;;:cllllollccc,.. .',,'.;:,';:::ooxxl....,.. .';:  
 ...,''....';:loxkxxkkkxxdooc;,'..........'',;;;;:cclll::.'.'',;'.,:,..clcllddl,:::......;o. 
