 ;cllllllllllllllllllllooooooooooooooooooooooooooollllllllllllllllllllllllllllcccc:::::::;;. 
 cxxxxxxxxkkkkkkkkkkkkkkkkkkkkOOOOOOOOOOOOOkkkkkkkkkkkkkkkkkkkkkkkkkkkkd::lddxxddddoooolllc' 
 cdddddddddddddxxxxxxxxxxkkkkkkkkkkkkkkkkkkkkkkkkkkkkkkkkkkkkkkkkkkkkkd'......',:oooooollll, 
 cdddddddddddddddddxxxxxxxxkkkkkkkkkkkkkkkkkkkkkkkkkkkkkkkkkkkkkkkkkx,...   ...''lddddooooo, 
 cddddddddddddddxxxxxxxxxxkkkkkkkkkkkkkkkkkkkkkkkkkkkkkkkkkkkkkkkkkl'.....  ...''oddddddddd, 
 cddddxxxxxxxxxxxxxxxxxxkkkkkkkkkkkkkkOOOOOOOkkkkkkkkkkkkkkkkkkkkkl.............'oddddddddd, 
 cdxxxxxxxxxxxxxxxxxxxxxxkkkkkkkkkkOOOOOOOOOOkkkkkkkkkkkkkkkkkkkkkc.............:dddddddddd, 
 cddxxxxxxxxxxxxxxxxxxxxxkkkkkkkkkkkkOOOOOkkkkkkkkkkkkkkxdoc:;;,''.....  .......,oooooooooo, 
 cddddddddddddddddddxxxxxxxxxxxxxkxl:llloolcccc:::;;;;;,......   .       ... ....,lllllllll' 
 ;lllllllllcccccccclllllllllllllc,..........          ........  .                .,cccc::::. 
 ,::::::::cc:::ccccccccllllllllc'.'ccl'   .           ......... .                ..;::::::;. 
 ,::::::c:::::::::cccccclllllllc,..cl:'.........       ................          ...,,;;;;;. 
 ,:::::::;;;;;;,;,;;;;:::::::::::;:::cdlllcccc::::::ccccccccccl:....'.            ..'''''''. 
 ';;;;:;;;;,,,,',';,;;::;:,;;;::c;,:;,ldooolllcclccclllccc:::::,.  ..              ..''''''. 
 .',,;;;;;,,,''''''''',,,,,,;cccc:.'..lxdooollccccc:::;;;;,;;;;'.  ..               ........ 
 .',';;,,'',,::','''..',,,;,'''''.....llcoddoooollolllll::'';,..                    ...'''.. 
 .'',,;'''',;c:,;;'..'....','''.'.....:c;l;,;::llccllcc:'...''..                     ',;,,;. 
 ',''''.',,'','....',,'..,;............. .,dx;''',,;::ol'                       ..   ';;;;,. 
 .;,......''',',.,,:ol;'.'.  ..........   .:kd,,',c:::o:,'...                    .. .looool' 
 .''.',;::'.'.''.colocl:..  ........       .cxl,,;,,;coc'','''.                  ..,;::::cc' 
 ''';lcc;;,:o,'''oxxxll:. ..........        .cxd;;,;;,;...',''.                ..,cooolc:;;. 
 ,,;cc:',,,ol;,,;oxxxl'.............         .lkx;::;;,'',;'.                  .,,lool:c,'c' 
 ,c;,,,,;,'cc:'':oxxx;...............         .lkk;;;,,,lc,.                . .,,';:,c:;;;c' 
 .;,;;;,,;llc:,.;oxx,...''.....'''.............'ldx:',,;::,             ......'..':l;lc.';;. 
 ......';cxxxx:,:do,...'''.....'.'................ ........          .....;o:;:;',,;:;,..';. 
 ,,.',,;;cxxxlcldl'..',,'.''. ...''......... .'...    ..;,.        .   ..ldxl.';;;,',,...';. 
 ,,..,::c;;cccldl,'',;;'';;;,'''','''''',,;,,,,;...    ,;;. .        ....:oolclclo:;,c'..,;. 
 ';;',,.';;;::;c;,,,::,,:::::;;;;,,,,;,;',;;;,,,,...   .:c. .............:oo:;loll;..;:',..  
 ';;::;..;:c,';:;;;:c:':c::c:::;,''',,,,'';;;;;,;,..',,..;,..............;lo,.ccc:'  .'''... 
 .;cc::;;;c,,:::::ccc;':ccc::::::;,,,,,,,,,:cc:::;'..cclc,;.  ...........;loc.''.:'  .',.'.. 
 .,,','.':;;c:::::cc;,,;;::::::cc:clc::,,;;:cllccc:,.,olll.     .........;ooo,...:l. ...  .  
 ...'''....',,;;:c:;,,;;;;;;coddxddo:lc;,;:;cllllll:' ..         ..,.....;loxd...,l'.......  
 .....''..';clodddolooloolloodooollllcl:,;;;:::::;;;,'''.... .....;c:'.'';oodd.''.''',.....  
 '....''..';coxkOOOOO00OOkkdoc:;,',,,'.,,,;;:lllllollcc:,.. .',;'.;c;';::cooxxl....,.. .';:  
 ...,''....';cldxkxxkkkxxdooc;,'.......'.'',,;;;;:cccll::.'.'',;'.,:,.'llcllddo,:::'....';o. 
