 ;cllllllllllllllllllllooooooooooooooooooooooooooolllllllllllllllllllllll.  ,cccc::::::::;;. 
 cxxxxxxxxxkkkkkkkkkkkkkkkkkkkkOOOOOOOOOOOkkkkkkkkkkkkkkkkkkkkkkkkkkoc;.... ..:odooooollllc' 
 cdddddddddddddxxxxxxxxxxkkkkkkkkkkkkkkkkkkkkkkkkkxxkkkkkkkkkkkkxxxc.......  ...;looooollll, 
 cddddddddddddddddddxxxxxxxkkkkkkkkkkkkkkkkkkkkkkkkkkkkkkkkkkkkkkko.............',ooooooooo, 
 cdddddddddddddddxxxxxxxxxkkkkkkkkkkkkkkkkkkkkkkkkkkkkkkkkkkkkkkkko.............''odddddddd, 
 cddddxxxxxxxxxxxxxxxxxxxkkkkkkkkkkkkkkkkkkkkkkkkkkkkkkkkkkkkkkkkkkd'............:ddddddddd, 
 cdxxxxxxxxxxxxxxxxxxxxxxkkkkkkkkkkOOOOOOOOOkkkkkkkkkkkkkkxlclkkkkkkd'..........'lddddddddd, 
 cddxxxxxxxxxxxxxxxxxxxxxkkkkkkkkkkkkkkkkkkkkkkkkkkkkkkkxl...',''.....       ...;oooooooooo, 
 cddddddddddddddddddxxxxxxxxxxxxxkxcldoloocccc::::;;,,;'.........            ....:lccccllll' 
 ;llllccccccccccccccllllllllooool,..,;......          ....','....                .:ccc:::::. 
 ,::::::::::::::::::cccllllllllc..,cco.   .            ....,......                .;:::;:;;. 
 ,:::::::::::::::::ccccllllllllc,..cl:''........           ........             ...',,;;;;,. 
 ,:::::;;;;,;;,,,,,;;;:::::::::::;:;;:llccccc:::;;;::ccccc:c::,..         .      ...'''''''. 
 ';;;::;;;;,,,,',',,;;::;:,;;;;::,',,.:ooollllcclccclllcc::::::...        ..     .....'''.'. 
 .',,;;;;;,,,,'''.''.'',,,',,:ccc;....ldooollcccc::::;;;;;;;;;;....        .     .'......... 
 .';';,,,'',,::'''''...',,,,'''...... lc:looolllllollllllllc:;'                 ..'''''''... 
 .'',,;''..,;:;,;,'..'....','''...... ::,c,,,;:clccllccccllooo:                 ...';;;,,',. 
 '''.'...,'''''....',,'..,;.. ....    .   ,dd;'.'',;::loc:c::c;                 .,',:;;;;;,. 
 .;,.......'.,''.,,:oc;'.'.    ...         ;ko,,',::::l:,;;;;c:                ..c;;ooooool' 
 .''.'',::..'....clcocl:.      .....       .okl,,;,,;cd:'',,,;.                .',;:::;:::c' 
 ''';lcc;;,:o,'''oxxxll:. ................'.'dkd;;,;;,;...',..                 .;;:oooc:;;;. 
 ,,;:c;',,,ol;,,;oxxxc'................'''''.'dkx;:::;,'',,..                  .,,llll:c,'c' 
 ,c;;,',,,'cc;'':oxxx,.....'..................'dkk:,;,,,lc'.                 ..,,';;':;;;;c' 
 .;,,;,',;loc:'.;oxd,...'''....'''.............'cod:'',;;;.             .. ..',..';c,c:..;;. 
 ......';cxxxx:':do'...''......'.'......... ...... .......              ..lx:;:;''';:;,..',. 
 ,,'',,;;cdxxlcldl'..',,'.''. ...''......... .'...    ..;,             .,odxl.';;,,',,...';. 
 ,,..,;::;;ccccdl''',;;'';;;;'''',''''''',,,,,,,...    ,;,. .       .....:oocclclo:;,c'..';. 
 ';;,;'.';;;::;c;,,,::,,::::::;;;,,,,,,,',;;;,,,,...   .:c. ........'....;oo;;llll;..,;.,..  
 ';;:c;.';:c,':;;;;cc;':ccccc::;;'',,,,''',;;;;,;,..,;,..;,..............;lo,.cc::'  .'''... 
 .;cc:;;;;c,,:::::ccc;,:ccc::::::;,,,,,,',,;:::::;'..ccol;,.  ...........;ll:..'.:'  ..,.... 
 .',','.':;;c:::::cc;,;;:::::::cl:cllc:,,;;;cllccc:'.,lclc.     .........;ool,. .:c. ...  .  
 ...'''....',,,;;c:;',;::;;:coddxdodccl,,;:;cllllll:.            ..,.....;loxo...'c'.......  
 .....',...;clodddolooloooooodooolcllcc:,;;,;::;;;;;,'''.... .....;:;....;oodo.''..'''.....  
 '....''..';codkOOOkO000Okkdoc:;,',,,'.',,;;:llllllllcc:,.. .',,'.;:,';:;:ooxxc....'.. .';:  
 ...,''...'',:loxxxxkkxxxdol:;,'..........''',;;;::clllc:.'.'',;'.,:,.'llcllddl,::;......;o. 
