 ;lllllllllllollllllooooooooooooooooooooooooooooooooooooooollllllllllllcccccc::::::::::::;;. 
 cxxxkkkkkkkkkkkkkkkkkkkkkOOOOOOOOOOOOOOOOOOkOOOOOOOOkkkkkkkkkkkkkkxxxxxdddddoooooolllllllc' 
 cddddddddxxxxxxxxxxxxxxkkkkkkkkkkkkkkkkkkkkkkkkkkkkkl::lddxxxkkkkxxxxxddddddooooooolllllll, 
 cdddddddddddddddxxxxxxxxxkkkkkkkkkkkkkkkkkkkkkkkxl:;'''''',;:coxkkkkxxxxddddddoooooooooooo, 
 cddddddddxxxxxxxxxxxxxxxxkkkkkkkkkkkkkkkkkkkkkkkc.............,:cdxkkkxxxxxxdddddddddddddd, 
 cdxxxxxxxxxxxxxxxxxxxxkkkkkkkkkkkOOOkkkkkkkkkkxc.................,:oxkxxxxxxdddddddddddddd, 
 cxxxxxxxxxxxxxxxxxxxxxkkkkkkkkkkkOOOOOOOkkkkkdlc,..','..............;oxxxdddddddddddoooddd, 
 cdxxxxxxxxxxxxxxxxxxxxxkkkkkkkkkkOOOOOkkkkkkkdlll:;,..............  .,lddddddooooooooooooo, 
 cddxxxxxxxxxxxxxxxxxxxxxxxxxxxxkkxlcdxkkxxxxxkxdlccc;,..  .....      .,looooollllllcllllll' 
 ;lllllllllllllllllllllllooooooo:;'...loooooooolllc;..   ......        .,:ccccccccccc::::::. 
 ,:::::cccccccccccccccllllllllc......'olllll:'.....     .......     .....,::::::::::::::::;. 
 ,::::cccc:c:::::cccclllllllll;.............           ......... .......',,,,,,,,,,,,,,;;;;. 
 ,:cc::::;;;;;;;;;;;;::::::::::'..,'..      .          ........    .....,;,''''''''''''''''. 
 ';;:::;;;;;,,,,,,;,;:::;:,;;;:::,''..    ...          ....        .....';;'''''.....''''''. 
 .',;:;;;;,,,,'''''''',,,,,,;:ccl;.....:;'.'..                       ....,,'...'............ 
 .';';;,,'',,:;','''''',,,;,'''.'.... ;c::,...       .',.            ... .,,''','''.'.'''... 
 .'',,:,'..;:c:,;;'..'...'','''.......::,:,....  ..,cclc,               ...''.'''..';;,,,,,. 
 ',''''.',''','....',,'..,,..............':do,..'';:ccooc.             ....,,;,,,;'';;;;;,,. 
 ';,...'..',';',.,':oc;'.'.  ...........'';oko,;,;cccco:;,.           ......,lccll;;ooooool' 
 .','',;::....''.llcoco:..  ..........'',,''dkc;;:;,:ldc,'.               .'',;;:,;:;;;::cc' 
 ''':lcc:;,:d,'''oxxxcl:. .............',,'.,dko;:;::;:''.'.              ...';;c,:oolc:;;;. 
 ,,;cl;,,,;ol:,,;oxxxc'.................'''..'dkx:cc::,,,,'.              ,;;;,,''clll:c,'c' 
 ,c;;;',;,'cl:',:okkx,........................,dkk:::,;;lc...       .  .,oxo'',''.,;':;;;;:' 
 .;,;:;',:llc:'.:dkx,...'''....'''...............:o;,,;;::..............xkkd'''..';:,l:..;;. 
 ......,;cxxxx:,:do,...''......'.'.........  ...    .'.............. .;;dxxd,,;'..',;,'..',. 
 ,,'',,;;lxxxlcldl'..',,'.,.. ...''......... .'..    .,';...........'...;clo:..,,,'.''...';. 
 ;,..,::c;;clclxl,'',;;,'::;,'''''''''''',,,,,,,..    .;;... ... .:d:....;cc:::::l;;,:...,;. 
 ,:;,;,.,;;;:c:c;,,,::,,::::::;;;,,,,,,,',;;,,,,,..    .:.........cdc....,cc,,cc::,..,;.'.   
 ';;::;.';:c;'::;;;cc;':ccccc::;,'',,,,''';;;;;;;,..';. .,.........co....,cc'.::;;.  .'''... 
 .:lc::;;,l;,:c:::clc;,cccc::::::;,,c,,,',,::cc:::,.'::,'.'.........;....,cc;....;'  ..'''.. 
 .,,','.,c;;c:::::cc:,;::::::::cc;:ccc:,,;;;clllccc,..'''.   ............,ccc'.  ;:   ..  .  
 ...'''....,,,;;:cc:,,::::::cdxxxxdoclc,,;c;clloool:.   ..      ..''.....,ccdl.  ':...... .  
 .....',..':clodddolollooolodxxdoolllcc;;;;;::::::;;',,'.... .....;:,....,llol.....'''.....  
 '....',.'';coxOOOOO0000Okkxoc:;,',,,'.,,,;;:llooodooolc,',;,;;;'.;:,.,;,;lldd:. ..'.. .';;  
 ...,''...',;codxkkxkkkxxddlc;,'.......'''',,;;;:cclllllcc,',';:'.,:,.'cc:ccodl';;;.....';l. 
