 ;lllllllllllollllllooooooooooooooooooooooooooooooooooooooooooolc..   ....'cccc::::::::::;;. 
 cxxxxxxxkkkkkkkkkkkkkkkkkOOOOOOOOOOOOOOOOOOkkkkkkkkkkkkkkkkkkko;...........,:ooooooolllllc' 
 cdddddddxxdxxxxxxxxxxxxkkkkkkkkkkkkkkkkkkkkkkkkkkkkkkkkkkkxddd,...............;loooooollll, 
 cddddddddddddddddxxxxxxxxxkkkkkkkkkkkkkkkkkkkkkkkkkkkkkxo,...'..   ............coddddooooo, 
 cdddddddddddxxxxxxxxxxxxxkkkkkkkkkkkkkkkkkkkkkkkkkkkkkkc..    .       ........,odddddddddd, 
 cddxxxxxxxxxxxxxxxxxxxxkkkkkkkkkkOOOOOOOOOkkkkkkkkkkkkk,.........       ....',:ddddddddddd, 
 cxxxxxxxxxxxxxxxxxxxxxxkkkkkkkkkkOOOOOOOOOOkkkkkkkkkkkk'..........      ....';oddddddddddd, 
 cdxxxxxxxxxxxxxxxxxxxxxkkkkkkkkkkOOOOOOkkkkkkkkkkkkkkxl'','...'....         .coooooooooooo, 
 cdddxxxxxxdddddddxxxxxxxxxxxxxxkkxllddolccc:;;;,,'..................         .clllllllllll' 
 ;lllllllllcccccccccllllllllooool,..,;.              ........ .. ...           ,ccccccc::::. 
 ,::::::ccccccccccccccllllllllcc..':..                    .                    .:::::::::;;. 
 ,::::ccc::c::::::ccccllllllllc:...;............   ........''.              ....',,,,,;;;;;. 
 ,:cc::::;;;;;,,;,;;;::::::::::::;,''.,ccccc::::::ccclllllcc;.             .....'''''''''''. 
 ';;:::;;;;;,,,,,,,,;:::;:;;;;::c;'''.cooollllcllcllllllc:::;.....         ....'.....''''''. 
 .',;;;;;;,,,''''.'''',,,,,,;:ccc;....oddoolllccccc::::::;;;'. ..........  ....''........... 
 .';,;;,,'',,::,,'''...',,;,'''.......lccloooooooooooooolllc;.     .....  .....,,''','''''.. 
 .'',,:,'.',;:;,;,'..'...'','''.......::;c;,;::lccclllcclllol.               ..''..';;;;,',. 
 ',''''.',''','...'',,'..;;.  ..........',lkx;''',;:::odl:l:;.              ...;;;',:::;;;;. 
 .;,......''',''.,,coc:'.'.  ...........,,;oOd,,',c::co:,;:;:,              ...:cl;;ooooool, 
 .','',;::'.'.''.lllocl:.  ..'........',,,''dkl,,;,,;cd:,',;;,.              ..,:,:::;;::::. 
 ''';lcc;;,:d,'''oxxxlo:. ............'',,,.'dkd;;;:;,;...,,'..              .,:c;cooocc;;;. 
 ,,;cc;,,,;ol;,,;oxxxc'....'..........''''''.'dkk;:::;,,',;'...             ..,,',llll:c,'c' 
 ,c;;,',;,'cl;'':oxkx,....''.........'........,dkk;;:,;;ol,'..        .......';,'';;'c;;;:c' 
 .;,,;,,,:llc:'.:dxd,...'''...''''.............,odx:',,;::,'..        ...,ld,,'..':c,l;.';;. 
 ......';cxxxx:,:do'...,''.....'.'.........  ........'........  ...    .cxkx;,:,.'',:,'..,;. 
 ,,.',,;;lxxxlcldl'..',,'','  ...''......... .'...   .,';;'...  .     ..;lod:.';;,,',,...';. 
 ,,..,::c;;cccldl,'',;;,'::;;,'',,''''''',;,,,,,...   .;:;....... .',....:llcccccl:;,c...,,. 
 ';;,;'.';;;::;c;;;,::,,::::::;;;,,,;,,,',;;,,,,,...   .:c.........;c....;lo,;llcc,..,;''..  
 ';::c;.';:c,'::;;:cc;,:cccccc:;,,,,,,,''';;;;;;;,..... .;,.........c....;ll'.c::;.  .''''.. 
 .:cc:;;;;c,,cc:::clc;,:ccc:::::c;,;:;;,,',::cc:::'..c:'..,..............;ll:....:'  ..'.... 
 .,,','.':;;::::::cc:,;::::::::cc:clllc,,;;;clllcc:'.....     ...........;llo,. .:c. ...  .  
 ...','....',,;;:c:;',:::;::lxxxkkxdoll,,;:;cllllll;.    .      ..',.....;loxo.  ,c........  
 .....',..';codddddodooooooddxxddolllcc;;;;;:::;;;;,,,,'' .. .....:c;....;lodl.....'''.....  
 '....',.'';coxkOOOOO000Okkdoc:;,',,,'.,,,;;:lllllollllc'.',,,;;'.;:,';:::ooxxc....'.. .'::  
 ...,.'...'';cloxkkxkkkxxdol:;,'..........''',;;::clloolc:,',';:'.;:,.'clcllodc;c::......:d. 
