 ;lllllllllllollllllooooooooooooooooooooooooooooooooooooooolllllllllllccccccc::::::::::::;;. 
 cxxxkkkkkkkkkkkkkkkkkkkkOOOOOOOOOOOOOOOOOOOOOOOOOOOOOOOkkkkkkkkkkxxxxxdddddddooooooooolllc, 
 cdddddxxxxxxxxxxxxxxxxkkkkkkkkkkkkkkOOOOOOOOOOOOOOkkkkkkkkkkkkkkxxxxxdddddddooooooooooolll, 
 cddddddddddddddxxxxxxxxxxkkkkkkkkkkkOOOOOOOOOOOOkkkkkkOkOOOOkkkkkkkxxxxxddddddddddddoooooo, 
 cddddddxxxxxxxxxxxxxxxxkkkkkkkkkkkkOOOOOOOOOOOOOOOOOOOOOOOOOkkkkkkkkkxxxxxxxxxxxxxdddddddd, 
 cdxxxxxxxxxxxxxxxxxxxkkkkkkkkkkkOOOOOOOOOOOOOOOOOOOOOOOOOOOOOOkkkkkkkxxxxxxxxxxddddddddddd, 
 cxxxxxxxxxxxxxxxxxxxxxkkkkkkkkkkOOOOOOOOOOOOOOOOOOOOOOOOOOOOOkkkkkkkxxxxxxdddddddddddddddd, 
 cdxxxxxxxxxxxxxxxxxxxxkkkkkkkkkkkOOOOOOxddddxkkxkkkkkkOOOOOOkkkkkkxxxxxddddddddddooooooooo, 
 cdddxddxddddddddxxxxxxxxxxxxxxxdllcodl,.'.'............,coxkkxxxxxxxddddoooooollllllllllll' 
 ;llllllllcccccccccclllllllolol'....''......................,coooooollllcccccccccccccccc:::. 
 ,:::::cccccccccccccccllllllll,.......................      ..':ccc:::::::::::::::::::::::;. 
 ,c:::cccc:cccccccccclllllllll:................ .. ....       ..,:::::;;;,,,,,,,,,,,,,;;;;;. 
 ,:ccc:::;;;;;;,;,;;;::::::::::::;,'.........    .....         ..,;:;;;;;,'''''''''''''''''. 
 ';;:::;;;;;,,,,,,;,;:::::,;:::::,'.. ....       ...   ... .....',;;,,',''''''''.....''''''. 
 .',;;;;:;,,,,'''.'''',,,,,,;:ccc;......                  .........;;,,,,''..'''............ 
 .';,;;,,'',,::,,',,..'',,;,'''.......:.        .             ......,;;,c;','',,,,'',''''''. 
 .'',,:,''.,::;,;,'..'...'',''........c:......'..                   .;c.:;'''''''..,;;;;,',. 
 ',''''.',''','....',,...,;.  ....       .:kk:,,.                   .,'.cc,,;:;;::',:::;;:;. 
 .;,..'...''',''.,,coc:'.'.    ...        .ckd;,                  ....';cc;;;lcccl;;oodddoo, 
 .'''',;c:'.'.''.llloco:.   .. .....       .okl'                   ...'cokl'',:::,:::::::::' 
 ''':lcc;;,:d,'''oxxxco:. ..........  .''.. .okd.        .           ..:oOo'',;:c,cooocc;;;. 
 ,,;cl;,,,;ol:,,:oxxxc'.............  .',,'. .ok:        ..           .llkxc;;,,',llll:c,'c' 
 ,c;;;,,;,'cc;'':okkx,.............. ...''''. ..         ..        ....;oxko'',''';;'c;,;:c' 
 .;,,:;,,:locc,.:dkd,...'....................      .......      .. .....xkkd'''..';c,l;.'::. 
 ......';cxxxx:,cdo'...,'........'......... .      ................,'.;;odxd;';'..',;,'..';. 
 ,,'',,::lxxdllodl'..';,.',.  ...'..........           ...........lo;...,cll;.';,;,',,...';. 
 ,,..,;::;;ccllxl,'',;;'':::,'..'''',,,,,;'           ...........:dd:....;:c;::ccl;;,c...,;. 
 ';;,;'.';;;::;c;,;,::,,:::::;;,''',;;;;'.         ... ..........:odc....,cc',ccc:,..,;''... 
 ';::c;'';:c,'::;;;cc;':ccc:::;,,',,,,'. .      .. .,:,.......  ..,ol....,:c..:;;;.  .,','.. 
 .:lc:;;;;l;,cc:::cl:,.;ccc;:::::,,,'.....   .,:cc' .,::'....  ....,;....,cc;....:.  .',.... 
 .',','.':;;c::::cc:'.';:::::::cc,,,.   .. .:loollc,..,,;.      .........,ccl,. .:c. ...  .. 
 ...',''...',,;;:c;'.'::::::ldxxd:,..     .,looodool.            .,'.....,ccdl   ,c........  
 .....',..':cloddolclllodoooddddoc...    .;;:cc::::;,,,,... . ....;:,....,clol.....'''.....  
 '....',.'';coxOOOOO0000Okkdoc;,'''.....';::cooooodolll:'..,;;;;..;:'.,;;:lldxc....'.. ''::  
 ...,''...'';:ldxkkxkkkxxddlc;'........'''',,;:::cclooolcc,',';:..,;'..:c:ccoo:,::;......:o. 
