 ;lllllllllllollllllooooooooooooooooooooooooooooooooooooooc....lolllllllccccc::::::::::::;;. 
 cxxxkkkkkkkkkkkkkkkkkkkkOOOOOOOOOOOOOOOOOOOkkkkkOOkkkdl;''...';ldxkkxxxxddddddooooooollllc, 
 cddddddddxxxxxxxxxxxxxxkkkkkkkkkkkkkkkkkkkkkkkkkkkkd'............,cdxxxxddddooooooooolllll, 
 cdddddddddddddddxxxxxxxxxxkkkkkkkkkkkkkkkkkkkkkkkkko''.....''''....,dxxxxdddddddddddoooooo, 
 cdddddddddxxxxxxxxxxxxxxxkkkkkkkkkkkkkkkkkkkkkkkkkkx:'',,''''.......:xxxxxxxxxdddddddddddd; 
 cdxxxxxxxxxxxxxxxxxxxxkkkkkkkkkkkOOOkkkkkkkkkkkkkkkkko;'............,dkxxxxxdddddddddddddd, 
 cxxxxxxxxxxxxxxxxxxxxxxkkkkkkkkkkOOOOOOOkkkkkkkkkkxoloooc,............:dxxdddddddddddddddd, 
 cdxxxxxxxxxxxxxxxxxxxxkkkkkkkkkkkOOOOOkkkkkkkkko:'.................. ..:ddddddoooooooooooo, 
 cdddxxxxxxdxxxxxxxxxxxxxxxxxxxxkkxlodxkkxxxkd;.   .      ....... ..    .coooooolllllllllll' 
 ;lllllllllllllllllllllllooooooo;,'...cllcc:,.       ...  ...'........  .'cclllcccccccc::::. 
 ,::::::ccccccccccccccllllllllc..... .      ........       ..''...........;:::::::::::::::;. 
 ,::::ccc::ccc:::cccclllllllll;...         .''.....       ............''',:;,,,,,,,,,,;;;;;. 
 ,:cc::::;;;;;;;;;;;;::::::::::'..,'..    .,,'.......        ....  .....';c,,''''''''''''''. 
 ';;:::;:;;;,,,,,,;,;:::;:;;;;:::,'''..clc,''.........          .........,c;,'''.....''''''. 
 .',;;;;:;,,,,'''.'''',,,,,,;:lcl;....oddoo:,........'','      ...........;:''''............ 
 .';,;;,;'',,::,,'''''',,,;,'''.'.....olclooooloooooooolc     ..... ......':'',,,''''.''''.. 
 .'',,:,'.';;c:,;;'..'....','''.'.....::;c;,;:clllloollll,      ..     ....,'''''..';;;;,,,. 
 '''''''',''','....',,'..,;.............',lxd;''',;:ccodl:.           .....;;;,;;;',::;;;;,. 
 ';,...'..',',',.,,col:'.,.  ...........',;oOo,,',c:cco:;:.          .......'lccll;;ooooool' 
 .',''';::..'.''.llloco:.   .'.........,,,''dkc,,;,,:cdc,';.           .....';;::;::;::::cc' 
 ''';lcc;;,:d,'''oxxxlo:. .............',,'.,dOo;;;:;;;''.;'              ..'';:c;coooc:;;;. 
 ,,;cl;,,,;ol:,,:oxxxc'....''...........'''..'dkx;cc::,,',;....           .;;;;,,,llll:c,'c' 
 ,l;;;',;,,cl:'':okkx;.....'..................,dkx;;:,;;ol'...      ....,oko'',,'.;;'c;;;:c' 
 .;,;:;,,:llcc'.:dkd,...'''....'''...............:l;',;;c:..............xOkd'''..';c,l;.';;. 
 ......';cxxxx:,:do'...''......'.'.........  ....   .'.............. .;:dxkx;';'.'',:;,..';. 
 ,,'',,;;lxxxlcldl'..',,'','  ...''......... .'..    .,':'..........'...;llo:..,,,'','...';. 
 ,,..,:cc;;clclxl,'',;;,':::;'''',''''''',,,,,,,..    .;:....... .:dc....;cc::::cl;,,:...,;. 
 ';;';'.,;;;:c;c;;;,::,,::::::;;;,,,,,,,',;;,,,,,..    .c;........;dc....;cc,,ccc:,..;;.'.   
 ';;::;.';:c;'::;;;cc:':cccccc:;,'',,,,''';;;;;;;,..,:. .:.........co....,cc'.::;;.  .'''... 
 .;ll::;;;l;,cc:::clc;,clcc::::::;,,l;,,',,::cc:::'.'c:,'',..'.....,;....,cc;....;.  ..'.... 
 .,,','.,c;;c:::::cc:,;::::::::cc;ccc::,,;;;clllcc:'......    ...........,clc'.  ;c. ...  .  
 ...'''....',,;;:cc:,,::::::cdkxxxdollc,,;c;cllloll;    ..      ..;'.....,cldl   ,c........  
 .....',..':cloddddloooooooddxxxooolocc;,;;;:::;:;;,',,'. .. .....;c;....;llol.....'''.....  
 '....',.'';coxkOOOOO000OOkxol:;,',,,'.,,,;;:llllooolllc,.;;;::;'.;:,';;;:lodd:....'.. .'::  
 ...,''...',;codxkkxkkkxxdooc:,'........''''';;;;:cllollcc;',,;:'.;:,.'ccclcodl,;:;......:o. 
