 ;lllllllllllollllllooooooooooooooooooooooooooooooooooooooolllllllllllccccccc::::::::::::;;. 
 cxxxkkkkkkkkkkkkkkkkkkkkOOOOOOOOOOOOOOOOOOOOOOOOOOOOOOOkkkkkkkkkkxxxxxdddddddooooooooolllc, 
 cdddddxxxxxxxxxxxxxxxxkkkkkkkkkkkkkkOOOOOOOOOOOOOOkkkkkkkkkkkkkkxxxxxdddddddooooooooooolll, 
 cddddddddddddddxxxxxxxxxxkkkkkkkkkkkOOOOOOOOOOOOkkkkkOOkOOOkkkkkkkkxxxxxddddddddddddoooooo, 
 cddddddxxxxxxxxxxxxxxxxkkkkkkkkkkkkOOOOOOOOOOOOOOOOOOOOOOOkkkkkkkkkkkxxxxxxxxxxxxxdddddddd, 
 cdxxxxxxxxxxxxxxxxxxxkkkkkkkkkkkOOOOOOOOOOOOOOOOOOOOOOOOOOOOOOkkkkkkkxxxxxxxxxdddddddddddd, 
 cxxxxxxxxxxxxxxxxxxxxxkkkkkkkkkkOOOOOOOOOOOOOOOOOOOOOOOOOOOOOkkkkkkkxxxxxxdddddddddddddddd, 
 cdxxxxxxxxxxxxxxxxxxxxkkkkkkkkkkOOOOOOOOkxxxxkkkxkkkkkOOOOOOkkkkkkxxxxxdddddddddoooooooooo, 
 cdddxddxddddddddxxxxxxxxxxxxxxkkkxloxdc,'.'............,:oxkkxxxxxxxdddooooooollllllllllll' 
 ;llllllllcccccclllcllllllloooo:....','.....................,coooooollllcccccccccccccccc:::. 
 ,:::::cccccccccccccccllllllll;........................      .':ccc:::::::::::::::::::::::;. 
 ,::::cccc:ccc:cccccclllllllll:.... ........... ......        ..,:::::;;;,,,,,,,,,,,,,;;;;;. 
 ,:ccc:::;;;;;;,,,;;;:::::::::::;,,.........     . ...         ..,;:;;;;,,''''''''','''''''. 
 ';;:::;;;;;,,,,,,,,;:::::,;:::cc,'..  ...            .... .....',;;,,,,''''''''.....''''''. 
 .',,;;;:;,,,,'''.'''',,,,,,;cccc;....                   .......'..;;,,,,''..''''........... 
 .';';;,,'',,::,,',,'..',,;,'''.......:.                .     ......,;;,c,','',,,,'','''''.. 
 .'',,:,''.;;c;,;;...'...'','''.......c:.    ..                     .:c.:;.''''''..';;;;,,,. 
 ',''''.',''','....',,'..,;. .....    .   ;xx,                      .,'.cc,,;:;;;;',:::;;;;. 
 .;,...'..''',''.,,coc:'.'.    ....       .ck'                    .....;cc;;;lcccl;;oododoo' 
 .'''',;c:..'.''.llloco:.   ........ ..    .c                      ...'cokl'',:::,::::;::::' 
 ''';lcc;;,:d,'''oxxxco:. ............'''..                          ..:oOo'',;:c,cooocc;;;. 
 ,,;cc;,,,;ol:,,:oxxxc'..............''','.    .........              .lokx:;;,,',llll:c,'c' 
 ,c;;;,,;,'cl;'':okkx,...........'........      ......;' ..        ....;lxko'',''';;'c,,;:c' 
 .;,,:;,,:loc:,.:dxd,...'.....'','...              ..,;...      .. .....xkko'''..'::,l;.'::. 
 ......';cxxxx:,cdo'...,'..'.......                  ...       ....,'.;;ddxo;';'.'',:,'..';. 
 ,,',,,::lxxdllodl'..';,.....                ..       .        ...lo;...,cll;..;,,''',...';. 
 ;,..,::c;;ccllxl,'',;;'...          ....',,;;;.      .         .:dd:....;:c;::ccl;;,c...,;. 
 ';;,;'.';;;::;c;,,,::,.....     ..,;;;;';::;;;;.   ..         ..:od:....,cc',ccc:,..,;.'..  
 ';:cc;'';:c,'::;;;cl;'::,....',,,,,,;;,',;::::::' .,:'      .  ..;ol....,:c..::;,.  .'''... 
 .:lc::;;;l,,cc:::clc;,cclc:ccccc;;;cl:,,;;cclllcc' .,::....   ....,,....,cc;....:.  .',.... 
 .,,','.':;;c::::ccc;,;:::cccccll:ccccc;;:::looollc,..,,;.      .........,ccl'. .::. ...  .  
 ...',''...',,,;:c:;',:::::clxkxxxxdool,;:c:looodooc.            .,'.....,ccdc   ,c........  
 .....',..':coddddoooooodoodxxxdooooolc:;;:;ccc::::;,,,,... ......;:,....,cldc.....''......  
 '....',.'';coxOOOOO0000Okkdol:;,,,;;'.,;;::cooooodooll:'..,;;;;..;:'.,;;:lldx:....'.. ''c;  
 ...;''...'';cldxkkxkkkxxdooc:,'.......'''',,;:::cllooolcc;'',;:..,;'.'cc:cclo:,::;......co  
