 ;cllllllllllllllllllllooooooooooooooooooooooooooolllllllllllllllllllllll'..:cccc::::::::;;. 
 cxxxxxxxxxkkkkkkkkkkkkkkkkkkkkOOOOOOOOOOOkkkkkkkkkkkkkkkkkkkkkkkkkkkkd:,.. .:loddoooollllc' 
 cdddddddddddddxxxxxxxxxxkkkkkkkkkkkkkkkkkkkkkkkkkxxkkkkkkkkkkkkkxxxc'.....  ...;looooollll, 
 cddddddddddddddddddxxxxxxxkkkkkkkkkkkkkkkkkkkkkkkkkkkkkkkkkkkkkkkx,............''ooooooooo, 
 cdddddddddddddddxxxxxxxxxkkkkkkkkkkkkkkkkkkkkkkkkkkkkkkkkkkkkkkkkl..............,ddddddddd, 
 cddddxxxxxxxxxxxxxxxxxxxkkkkkkkkkkkkkkkOOOkkkkkkkkkkkkkkkkkkkkkkkkc.............cddddddddd, 
 cdxxxxxxxxxxxxxxxxxxxxxxkkkkkkkkkkOOOOOOOOOkkkkkkkkkkkkkkkkkkkkkkkkl..........''oddddddddd, 
 cddxxxxxxxxxxxxxxxxxxxxxkkkkkkkkkkkkkkkkkkkkkkkkkkkkkkkxol::;,''......  .. ....;oooooooooo, 
 cddddddddddddddddddxxxxxxxxxxxxxkxcldolllcccc::::;;;;;'......  .        .   ....clllllllll' 
 ;lllllcccccccccccccllllllllooool,..;;......          ........  .                .:ccc:::::. 
 ,::::::::::::::::::cccllllllllc..,cco.   .            ..........                 .;:::;:;;. 
 ,:::::::::::::::::ccclllllllllc,.'cl:''........        ...........              ..',,;;;;,. 
 ,:::::;;;;;;;,,,,,;;;:::::::::::::;;collcccc::::;;:ccccc:,'..   ..              ...'''''''. 
 ';;;;:;;;;,,,,',',,;:::;:,;;;:::,,;,'ldoollllcccccccllcc:::,,..                 .....'''.'. 
 .',,;;;;,,,,''''.'''',,,,,,,:ccc;....odooollcccc::::;;;:;;;;;;..          ..    .'......... 
 .';';,,,'',,::'''''...',,;,'''.......llclooollllollollllllc:;'             ..    '',''''... 
 .'',,;''..,;:;,;,'..'....','''...... ::;c;';;:cccclllccccloooc.                  .';;;,,',. 
 '''.'..','''''....',,...,,.. ....    .   ,dx;'''',;::ool:l::l:                  ',,::;;;;,. 
 .;,.......'.,''.,,:oc;'.'.    ...        .;xo,,',::::o:,;;;;c:                 .c;;ooooool' 
 .''.',,::'.'....clloco:.      .....       .cxl,,;,,;cd:'',,,;.                .';;::;;;:::' 
 ''';lcc;;,:d,'''oxxxll:. ..........        .lkd;;,;;,;...',.. .               .;;coool:;;;. 
 ,,;:c;',,,ol;,,;oxxxc'...............    ....dkx;::;;,'',,'.                 .',,llll:c,.c' 
 ,c;;,',,,'cc;'':oxxx,.....'..................'dkk;,;,,,lc,.                 ..,,';:'c;;;;c' 
 .;,,;,',:loc:'.;oxd,...'''....'''.............,cod:',,,;;.             .. ..',..';c,l:..;;. 
 ......';cxxxx:,:do'...,'......'.'......... ...... .......             . .cx:;:;''';:,,..',. 
 ,,'',,;;cxxxlcldl'..',,'','. ...''......... .'...    ..;,             .'odxl.';;;,',,...';. 
 ,,..,;::;;cccldl,'',;;''::;;,''',''''''',,,,,,,...    ,;,. .       .....coolclclo:;,c'..,;. 
 ';;';'.';;;::;c;,,,::,,::::::;;;,,,,,,,',;;;,,,,...   .:c. ........'....:oo;;lllc;..;:.,..  
 ';;::;.';:c,'::;;;cc;':cccccc:;,'',,,,''';;;;;,;'..,;,..;,.........'....;lo,.ccc:.  .,',... 
 .;cc:;;;,c,,:::::ccc;,:ccc::::::;,,,,,,',,::c:::;'.'lcol,;.  ...........;lo:.''.:'  .',.... 
 .',','.':;;c:::::cc:';;:::::::cl:clcc;,,;;;cllccc:'.,oclc.     .........;ooo,. .:c. ...  .  
 ...'''....',,;;:c:;',;::;::loddxdddcll;,;:;clllllc:. ..         .',.....;ooxo...,l'.......  
 .....',...;clodddooooloooododdoollllcl:;;;;:::;:;;;,'''.... .....;c;'...;oodo.''.''''.....  
 '....''..';coxkOOOOO000Okkdoc:;,',,,'.,,,;;:clllllllcc:,.. .',;'.;:,';::codxkl....,.. .';:  
 ...,''...'';:loxxxxkkxxxdolc;,'..........''',;;::cllllc:.'.'',;'.;:,.,llcllddl;cc:......:d. 
