 ;cllllllllllllllllllloooooooooooooooooooooooooooolllllllllllllllllllllllllllccccc:::::::;;. 
 cxxxxxxxxkkkkkkkkkkkkkkkkkkkkkkkOOOOOOOOOkkkkkkkkkkkkkkkkkkkkkkkkkkkkkkkxxxdxdddddoooolllc' 
 cddddddddddddddxxxxxxxxxxxkkkkkkkkkkkkkkkkkkkkkkkkkkkkxxxkkkkkkkkkdool;'..',cddooooooollll, 
 codddddddddddddddddxxxxxxxxkkkkkkkkkkkkkkkkkkkkkkkkkkkkkkkkkkkkkkk'........''cddddddoooooo, 
 cddddddddddddddddxxxxxxxxxkkkkkkkkkkkkkkkkkkkkkkkkkkkkkkkkkkkkkkkc.  .......';ddxxxddddddd, 
 cdddddxxxxxxxxxxxxxxxxxxkkkkkkkkkkkkkOOOOOOOkkkkkkkkkkkkkkkkkkkkl....   .....,dddddddddddd, 
 cdxxxxxxxxxxxxxxxxxxxxxxkkkkkkkkkkkOOOOOOOOOkkkkkkkkkkkkkkkkkkkd..............cddddddddddd, 
 cdddxxxxxxxxxxxxxxxxxxxxkkkkkkkkkkkkOkkkkkkkkkkkkkkkxxdl:;,'.........   .......;oooooooooo, 
 cddddddddddddddddxxxxxxxxxxxxxxxkxc:l::cc;;;,'''............    ....   .    ....:lllllllll' 
 ;lllllllccccccccccllllllllllllll'.........           ....      .                .:ccc:::::. 
 ,::::::::::::::::cccccllllllllc..,:..                ....   .  .                 .;:::::;;. 
 ,:::::::::::::::::ccclclllllllc'..:'.',,''''''.......''....'''.....             ..',,,;;;,. 
 ,:::::;;;;;;;;,,,,,;;:::::::::::::;;cdllllccc::ccclclcccccc::c;.......          ...'''''''. 
 ';;;;:;;;;,,',',',,;;::;:,;;;;::,,;;:odooollllclcccclcc:::::::'  ....           ....''''''. 
 .'',;;;;,,,,,'''..'.'',,,,,,:c:c;','.oddooollcccc:::;;;;;;;;;;.. ...             .......... 
 .',';,,,'',,::''','...'',;,'''.......llcoddooooooollllllllc:;,.                   .'.''''.. 
 .'',,;''..,;:;,;,...'....','''.......::;c;,;::lcccllcccccloool.                   .;,,,,',. 
 '''''..',''''.....',,'..,;...............,xx;'''';;::loc;l::cc.                    .;;;;;;. 
 .;,.......'',''.,,:oc:'.'.  ...........'..:kd,,',c:::l:,;;;;cc.                    .looool' 
 .'''',,::....''.lllo:o:.   .'........',,. .lxl,,;,,;coc'',,,;'.                     ,;;:::' 
 ''';lcc;;,:o''''oxxxco:. ............'',,. .lxd;;,;;,;...',...                     'lc:;;;. 
 ,,;:c;,,,,oc;,,:oxxxc'....''.........'',,.  .lxx;::;;,''','.                     .'ll:c,.c' 
 ,c;;,',,,':c;'':oxkx,....''...............   .lxk;;;,,,lc'.                     .':,c;,;:c' 
 .;,,;,,,:llc:'.:oxd,...'''....'''........     .;lx;'',,;;'                    ..':c,l:..;;. 
 ......';cxxxx;,:do'...''......'.'.......          ........                  .,;',';:;,..';. 
 ,,.',,;;lxxdlcldl'..',,'',.  ...''......             ..;,.           ....'cc.';;;,',,...';. 
 ,,..,;::,;ccclxl''',;;'';:;,'''','''''.               ,;,. .    ...   ..coocclclo:;,c'..,;. 
 ';,';'.';;;::;c;,,;::,,:::::;;;,,'''..         ....   .;c. ..       ....:oo;;llll;..;;.'.   
 ';;::;.';:c,':;;;::c;,:cccc:::;,'''...       .','..,,,..;,. ............;lo,.cc::'  .'''... 
 .;cc:;;;;c,,cc:::cc:;,:cc:::::::,,,,,,..     .;;;'.'cclc,,.  ...........;lo:.''.:'  ..,.... 
 .',','.':;;:::::::c:';;:::::::cc:cll:;,''.';:clcc:'.,oclc.     .........;loo,...:c. ...  .  
 ...'''....',,;;;::;',;::;;:coddxddoclc,,;c:lolllll:. .          ..'.....;loxo...,l'.......  
 .....''..';cloddoololloooooodooolcllll:;;;;ccc::;;;,'''.... .....;:;.'..;oodo..'.''''.....  
 '....''..';coxkOOOOO00OOkkdoc:;,',,,'.,,,;;:lllllollcc:,.. .',,'.;:,';::cooxxl....'.. .';:  
 ...,''...',;cloxkxxkkkxxdol:;,'.......''',,,;;:::cllllc:.'.'',;'.,:,.'lllloddo,:::......:d. 
