 ;lllllllllllollllllooooooooooooooooooooooooooooooooooooooolllllllllllccccccc::::::::::::;;. 
 cxxxkkkkkkkkkkkkkkkkkkkkOOOOOOOOOOOOOOOOOOOOOOOOOOOOOOOkkkkkkkkkkxxxxxdddddddooooooooolllc, 
 cdddddxxxxxxxxxxxxxxxxkkkkkkkkkkkkkkOOOOOOOOOOOOOOkkkkkkkkkkkkkkxxxxxdddddddooooooooooolll, 
 cddddddddddddddxxxxxxxxxxkkkkkkkkkkkOOOOOOOOOOOOkkkkkkOkOOOOkkkkkkkxxxxxddddddddddddoooooo, 
 cddddddxxxxxxxxxxxxxxxxkkkkkkkkkkkkOOOOOOOOOOOOOOOOOOOOOOOOkkkkkkkkkkxxxxxxxxxxxxxdddddddd, 
 cdxxxxxxxxxxxxxxxxxxxkkkkkkkkkkkOOOOOOOOOOOOOOOOOOOOOOOOOOOOOOkkkkkkkxxxxxxxxxxddddddddddd, 
 cxxxxxxxxxxxxxxxxxxxxxkkkkkkkkkkOOOOOOOOOOOOOOOOOOOOOOOOOOOOOkkkkkkkxxxxxxdddddddddddddddd, 
 cdxxxxxxxxxxxxxxxxxxxxkkkkkkkkkkOOOOOOOOOkkkOOOkkOkkkkOOOOOOkkkkkkxxxxxddddddddddooooooooo, 
 cdddxddxddddddddxxxxxxxxxxxxxxkdooloxoc;,''.'''.......',cdkkkxxxxxxxddddoooooollllllllllll' 
 ;llllllllcccccccccclllllllolol'....','.....................;coooooollllcccccccccccccccc:::. 
 ,:::::cccccccccccccccllllllll,........................     ..':ccc:::::::::::::::::::::::;. 
 ,c:::cccc:cccccccccclllllllll:.... ........... . .....       ..,:::::;;;,,,,,,,,,,,,,;;;;;. 
 ,:ccc:::;;;;;;,,,;;;::::::::::::;,'.........   .. ...         ..,:;;;;;;,'''''''''''''''''. 
 ';;:::;;;;;,,,,,,;,;:::::,;:::::,'.. ....       ..   .... .....,,;;,,',''''''''.....''''''. 
 .',,;;;:;,,,,'''.'''',,,,,,;:ccc;......                  ......'..;;,,,,''..'''............ 
 .';';;,,'',,::,,',,'..',,;,'''.......;.                      ......,;;,c,','',,,,'','''''.. 
 .'',,:,''',;c;,;;'..'...'',''........c:.    ...                    .:c.:;.''''''..';;;;,,,. 
 ',''''.',''','....',,...;;.  ....    .   ;xx:,                   . .,'.cc,,;:;;;:',:::;;;;. 
 .;,..'...''',''.,,coc:'.'.    ...        .ckd'                   .....;cc;;;lccll;;oododoo' 
 .'''',;c:..'.''.llloco:.   ........  .    .ok;                    ...'cokl'',:::,:::::::::' 
 ''':lcc;;,:d''''oxxxco:. .......... ..''.. .l;                      ..:oOo'',;:c,cdoocc;;;. 
 ,,;cl;,,,;ol:,,:oxxxc'............. .'',,'....                       .lokxc;;,,',clll:c,'c' 
 ,c;;;,,;,'cc;'':okkx,...............'..''''.      .     ..        ....;oxko'',''',;'c;,;:c' 
 .;,;:;,,:locc,.:dxd,...'............'.......    .........      .. .....xkkd'''..';c,l;.'::. 
 ......';cxxxx:,cdo'...,'........''.......           ..............,'.;;odxd;';'..',;,'..';. 
 ,,'',,::lxxdllodl'..';,.',.  ...,''...               ............ld,...,cll:..;,,,',,...';. 
 ,,..,::c;;ccllxl,'',;;'':::,''',,'...                ...........:dd:....;:c;::ccl;;,c...,;. 
 ':;,;'.';;;::;c;,;,::,':::::::;'..         ..',.   .. ...   . ..:odc....,cc',ccc:,..,;.'..  
 ';::c;'';:c;'::;;;cc;':cccc:;,..        ..;:::::' .,:,..    .  ..,ol....,:c..::;;.  .''''.. 
 .:lc:;;;;l,,cc:::clc,,:ccc:;'..      .',,;cclllc:'  ,::'.     ....,;....,cc;....:.  ..,.... 
 .',','.':;;c::::ccc;,;:::::;.....  .,c;;:::looollc,..,,;.      .........,ccl,. .:c. ...  .  
 ...',''...',,,;:c:;',::::::loo,';:lool,;:c:looodool.            .,'.....,ccdl   ,c........  
 .....',..':coddddoloooodooodxxddoooolc:;;:;ccc::::;,,,,... . ....;:,....,clol.....'''.....  
 '....',.'';coxOOOOO0000Okkdol::,,,;;'.,;;::cooooodolllc'..,;;;;..;:'.,;;:lldxc....'.. ''::  
 ...,''...'';:ldxkkxkkkxxdooc:,'.......'''',,;;::cclooolcc;',';:..,;'..:c:ccoo:,::;......:o. 
