 ;cllllllllllllllllllllooooooooooooooooooooooooooolllllllllllllllllllllllllllccccc:::::::;;. 
 cxxxxxxxxkkkkxxxkkkkkkkkkkkkkkkkkOOOOOOOOkkkkkkkkkkkkkkkkkkkkkkkkkkkkkkxdddxddddddoooolllc' 
 cddddddddddddddxxxxxxxxxxxxkkkkkkkkkkkkkkkkkkkkkkkkkxxxxxkkkkkkkkxxxl;'.',;cddddoooooollll, 
 codddddddddddddddddxxxxxxxxkkkkkkkkkkkkkkkkkkkkkkkkkkkkkkkkkkkkkl'.......','cddddddddooooo, 
 cddddddddddddddddxxxxxxxxxxkkkkkkkkkkkkkkkkkkkkkkkkkkkkkkkkkkkkk:.........'',dxxxxdddddddd, 
 cdddddxxxxxxxxxxxxxxxxxxxkkkkkkkkkkkkOOOOOOOkkkkkkkkkkkkkkkkkkkc....  ......,oxxxddddddddd, 
 cdxxxxxxxxxxxxxxxxxxxxxxkkkkkkkkkkkkOOOOOOOOkkkkkkkkkkkkkkkkkkx'..............oddddddddddd, 
 cddddxxxxxxxxxxxxxxxxxxxxkkkkkkkkkkkkOkkkkkkkkkkkkkxxddl:;'.......... ..... ...coooooooooo, 
 cddddddddddddddddddddxxxxxxxxxxxkxc:c::::;,,,''............    .....   .    ....clllllllll' 
 ;llllcccccccccccccccclllllllllll'.........           .... .    .                .:ccc:::::. 
 ,::::::::::::::::::cccllllllllc..,:..                ....   .  .                 .::::::;;. 
 ,:::::::::::::::::cccccllllllcc'..:..',,'''''........'''''.'',.....             ..',,,;;;,. 
 ,::::::;;;;;;,,,,,,;;:::::::::::;:;;cdlccccc:::ccccclcccccc::c,.......         ...''''''''. 
 ';;;;;;;;;,,',',',,;;::;:,;;;;::,,;;:odooollllcccccllcc:::::::.. ....           .....'''''. 
 .'',;;;;,,,,'''''''.'',,,,,,:ccc;','.odoooollcccc:::;;;;;;;;;;.. ...             .......... 
 .',';,,,'',,:;'''''...''';,'''.......lcclooooooooollllllllc:;,                   ..''''.'.. 
 .'',,;''..,;:;,;,...'....','''.......::,c,,;::ccccllcccccloooc.                   ';,;,,',. 
 ',''''.',''',.....',,'..,;.. ............,xx;''',;;::loc:c::cc.                   .;;;;;;;. 
 .;,.......'',''.,,:lc;'.'.  ...........'..:kd,,',c:::o:,,;;;cc.                   .cloooll' 
 .'''',,::'...'..clco:l:.   .'........',,,..cxl,,;,';co:'',,,;'                     .;;;;::. 
 ''';lcc;;,:o''''oxxxcl:. ............'',,'..lxd;;,;;,;...',..                      ;lc:;,;. 
 ,,;:c;,,,,oc;,,;oxxxc'....'............''''..lxx;::;;,'',,'.                    . .cl::,.c' 
 ,c;;,',,,':c;'':okkx,.....'................. .lxk:,;,,,lc'.                      .,'c;,;;:' 
 .,',;,',;llc:'.;oxd,...''.....'''............ .;ld:'',,;;'                       ,c,c:..;;. 
 ......';cxxxx;,:oo'...''......'.'.........  .      .......                      .';:,'..';. 
 ,,'',,;;cxxdlcldl'..',,'.'.  ...''......... ..       ..;,.             ..      ';,',,...';. 
 ,,..,;::,;cccldl''',;;'';:;,'''',''''''',,,,''.       ,;,. .        ....     .;lo:;,c'..',. 
 ';;';'.';;;::;c;,,,;;,,:::::;;;,,',,,,,',;,,,,'.      .;:. ...    .'...     'lllc;..,;.'..  
 ';;:c;.';:c,';;;;;:c;':c::::::;,'''',,'.',;;;,,.   .,,..;,. ..........     ..cc:;.  .'',... 
 .;cc:;;;;c,,::::;ccc;,:cc:::::::,,,,,,''',;::::.    ;:ll,,.  ..........  .;:.''.:'  ..'.... 
 .',','.':;;:;::::::;,;;;;::::::c:cll:;,,,;;ccc;.    .;:c:.     ..     ...loo;...:c.  ..  .  
 ...'''....',,,;;::;',;:;;;:coddxdod:lc,,,:;clllc:.              ..'.....;ooxo...,c'.......  
 .....''..';clodddolooooolloodoollclccc;,,;,;::;;''''''.  .. .....;:;''..:ooxo.'..''''.....  
 '....''..';:odkOOOkO00OOkxdoc:;'',,,'.,,,;;;cllooollcc:,.. .',,..;:,';::codxkl....'.. .';:  
 ...,''....',:loxxxxkkkxxdol:;''..........''',;;::cllllc;.'.'',;..,:,.'clcllddl;:c:......;d. 
