 ;cllllllllllllllllllllooooooooooooooooooooooooooolllllllllllllllllllllllllllccccc:::::::;;. 
 cxxxxxxxxkkkkxxxkkkkkkkkkkkkkkkkkOOOOOOOOkkkkkkkkkkkkkkkkkkkkkkkkkkkkkkkkkxxxdddddoooolllc' 
 cddddddddddddddxxxxxxxxxxxxkkkkkkkkkkkkkkkkkkkkkkkkkxxxxxkkkkkkkkkkkkdlclodxdddddooooollll, 
 codddddddddddddddddxxxxxxxxxkkkkkkkkkkkkkkkkkkkkkkkkkkkkkkkkkkkkkkxc'..',,,lxxdddddddooooo, 
 cddddddddddddddddxxxxxxxxxxkkkkkkkkkkkkkkkkkkkkkkkkkkkkkkkkkkkko;,.......'''cxxxxxdddddddd, 
 cdddddxxxxxxxxxxxxxxxxxxxkkkkkkkkkkkkOOOOOOOkkkkkkkkkkkkkkkkkkkl...........',oxxxddddddddd, 
 cdxxxxxxxxxxxxxxxxxxxxxxkkkkkkkkkkkkOOOOOOOOkkkkkkkkkkkkkkkkkkk,..  ..........oddddddddddd, 
 cddddxxxxxxxxxxxxxxxxxxxxkkkkkkkkkkkkkOkkkkkkkkkkxdddool:;,'...................;odoooooooo, 
 cdddddddddddddddddddxxxxxxxxxxxxxxcc::;;;;'''.....    ......  ......   ...   ...;lllllllll' 
 ;llllccccccllcccccccllllllllllol,......  .            .....    .....   .    ... .;cccc::::. 
 ,::::::::::::::::::cccllllllllc'.':.                  ....  .  ..                .;::::;;;. 
 ,:::::::::::::::::cccccllllllcc,..;..',;'''''''''...',,,,''',,,.  .               .,,,;;;;. 
 ,::::::;;;;;;,,;,,,;;:::::::::::;,''.:lcccc:::::cclcllccccl:ccc......           ...'''''''. 
 ';;;;;;;,;,,',',',,;;::;:,;;;;::,,,;:odoollllccccccclcc::::::::........       .....'.'''''. 
 .'',;;;;,,,,'''''''.'',,,',,:ccc;.,,,ddooollcccc:::::;;;;;;;;;,.  ..        ............... 
 .',';;,,'',,;;'''''...'',,,'''.......cl:loolllllllllllllllc:;;.   ...            .''..''... 
 .'',,;''..,;:;,;,...'....'''''.......;:,c;,;:cllccllcccclloooo,                   .;,;,,',. 
 '''.''.',''''.....',''..,;.  ............,dx;'''',;::ooc:c::cc,                   .;;;;;,,. 
 .;,.......'.,''.,,:lc;'.'.  ...........''.:kd,,',c:::l:,;;;;cc,                   .:ooooll' 
 .''.',,::.......clcocl:..  .'........',,,..lxl,,;,,;coc'',,;;,.                    .,;;:::' 
 ''';lcc;;,;o,'''lxxxcl:. ............'',,,..lxd;;,;;,;...',.'.                      ,c:;,;. 
 ,,,:c;,,,,oc;',;oxxxc'....'............'''...oxx;::;;,''','.                      ..;::,.c' 
 ,c;;,',,,'cc;'':oxxx,.....'..................'lxk;;;,,,lc'.                      ...:;,;;:' 
 .;,;;,',;llc:'.;oxd,...'''....'''.............'cox:'',,;;,.                        .c:..;;. 
 ......';cxxxd:,:oo'...'''.....'.'.........  ....  ........               .:..     .:,,..',. 
 ,,'',,;;cxxdlcldl'..',,'.'.. ...'.......... .'..     ..,,.             .:od..     .,,...';. 
 ,,..,:::;;ccccdl''',;;,';;;,'''',''''''',,,,',,..     ';,.            ..:l:      ';,c...',. 
 ';,';'.';;;;:;c;,,,;:,':::::;;;,,',,,,,',;;,,,,,..     ;c. ...      ....;o.     ,;..,;.'.   
 ';;::;.';:c,';;;;;:c;,;c::::::;,'''',,'.',;;,,,,'...''..,,. ...     ....;c.    ;:.  .'''... 
 .;cc:;,;,c,,::::;ccc,,:cc::;::::,,,,,,''',;::::;;'..::lc',.  ..    .....'.    ..:'  ..'.... 
 .,,','.':;;::::::::;,,;;;::::::c;ccc:;,,;;;ccccc::'.'::lc.         .......     .:c.  ..  .  
 ...'''....',,,;;::;,,;;;;;:coddddod:cc,,;:;clllllc:.             .'.....,:.    .,l'.......  
 .....''...;clodddolooloolloodooolclc:c:,,;;;::;;;,,'''.. .       ;c;...... .c.''.''''.....  
 '....',..';codkOOOkO00OOkxdoc:;''',,'.,,,;;;cllloollcc:,.   .,,'.;:,';;;,,cxkl....'.. .';:  
 ...,''....',cloxxxxkkkxxdol:;''..........''',;;;::clllc:     ';'.,:,.'llcoodxl;:c:......;d. 
