 ;lllllllllllollllllooooooooooooooooooooooooooooooooooooooollllllllllllcccccccc::::::::::;;. 
 cxxxkkkkkkkkkkkkkkkkkkkkOOOOOOOOOOOOOOOOOOOOOOOOOOOOOOOkkkkkkkkkkkxxxxxddddddddooooooollll' 
 cdddddxxxxxxxxxxxxxxxxkkkkkkkkkkkkkkOOOOOOOOOOkkOOOkkkkkkkkkkkkkkxxxxxxddddddoooooooooooll, 
 cddddddddddddddxxxxxxxxxxkkkkkkkkkkkOOOOOOOOOOOOkkkkkOOOOOOOOOkkkkkxxxxxdddddddddddddooooo, 
 cddddddxxxxxxxxxxxxxxxxkkkkkkkkkkOOOOOOOOOOOOOOkxddddxkOOOOOOOkkkkkkkkxxxxxxxxxxxddddddddd, 
 cdxxxxxxxxxxxxxxxxxxxkkkkkkkkkkOOOOOOOOOOkxddl;'.......;coxOOOOOkkkkkkxxxxxxxxxddddddddddd, 
 cxxxxxxxxxxxxxxxxxxxxxkkkkkkkkkkOOOOOOOOk:'.................,cxkkkkkxxxxxxxddddddddddddddd, 
 cdxxxxxxxxxxxxxxxxxxxxkkkkkkkkkkOOOOOOOkkl.....................;dkkxxxxxdddddddddooooooooo, 
 cddxxxxxxxxxxdxxxxxxxxxxxxxxxxkkkklcdxkxx,..................   ..cdxdddddooooollllllllllll' 
 ;llllllllllllcclllllllllooooooo:;'..'cool........   ......       .,cllllcccccccccccccc::::. 
 ,:::ccccccccccccccccclllllllll'.....'dol:.....                    ..;::::::::::::::::::::;. 
 ,c:::cccccccc::ccccclllllllll:......,..,;:,'..                 .....,;;;,,,,,,,,,,,,,;;;;;. 
 ,:ccc::::;;;;;;;;;;;::::::::::,..,''.'.   ..'.               .......,:;;,'''''''''''''''''. 
 ';::::;;;;;,,,,,,;,;:::::,;::::c,'''.                 ..... . .......,,,'''''''.....''''''. 
 .',;:;;:;;,,,'''''''',,,,,,;cccl;......              ......      .....,,''..'''..'......... 
 .,;,:;,;'';,::,,',''.'',,;,'''''.......  .         .......        ..  .:;','',,'''','''''.. 
 .'',,:,''.;;c:,;;''.'...',,'''.'....     .....    .......             .,;.'''''''.';;;;,,;. 
 ','''''',,'','....',,'..;;.......        .'.    .......             ...';,,,:,;;;,,:::;;;;. 
 ';,..''..''',',',,:oc:'.,.    ....  .....',.     ......             ....',,,lccll;:oooodol, 
 .','',;c:'.'.'''loloco:..  .  .......','..',.      .,o:.              ...:'',:::,:::::::cc' 
 ,'';ocl:;,:d,'',oxxxlo:. ............',,,'.'... ..';;;'..              .'l''';:c,cooolc:;;. 
 ,,;cl;,,;;ol:,,:oxxkc'..............''',,''.'cod:ccc:;,,.             ..dxc;;,,',llll:c,'c' 
 ,l;;;,,;,,cl:',:okkx;...............'''''''...;lk::c;;;l..        . ..'lxkd'',,'';;'c;;;:c' 
 .;,;:;,;:locc,.:dkx,...''.....'''...''.....'..  .:'';;:;...............xkkd'',..';c,l:.';;. 
 ..'...';cxxxx:,cdd'...,'..'...'.,'............      ''...............;;oxxd;,;,.'';:;'..';. 
 ,;',,;::lxxxllodo'..';;'','.....,''........ .,'.    .,'..... .....:;...,clo:..;,,,',,...';. 
 ;;..,:cc;;clllxl,'',;:,':::;,'',,,,,,,,,;;;;;;;.     .;.........,odc....;cc::cccl:;,c'..,;. 
 ':;,;,',;;;:c:c;;;;::,,:cccc::;;,,,;;;;,;::;;;;:.   . ..........'oxl....,cc,,cccc,..;:.,..  
 ';:cc;'';:c;':::;:cl:,:cccccc::;,,,,;;,',;::::::;..;:' ..........'oo....,cc'.::;;.  .'''... 
 .:llc:;;;l;;cc:::clc;,cllc:c::cc;;:c:;;,,;cclllcc;..;c:;,.........;;....,cc;....:'  .',.... 
 .,,','.,c;;c::::ccc:,;:::ccccccc:cccc:;;:::loooool,..,''.   ......'.....,ccl,.  :c. ...  .  
 ...','....',,;;:cc:,,:::::clxkxxxxolll;;:c:looodooc.   ..      ..;'.....,ccdo.  'c'.......  
 .....',..':coodddoooooodoodxxxxdollolc:;;:;:cc:c::;,,;,'... .....;:,....,llol.....'''.....  
 '....',.'';coxkOOOO0000OOkxdlc:,,,,;'.;,;::cooodddooooc,.,;;;;;'.;:,.,;;:llddc....'.. .'::  
 ...;''...',;codxkkxkkkxxxolc;,,.......''',,,:::ccloooollc;',,;:'.,:'.'cc:ccooc,:::......:d. 
