 ;cllllllllllllllllllllooooooooooooooooooooooooooolllllllllllllllllllllll. .;cccc::::::::;;. 
 cxxxxxxxxxkkkkkkkkkkkkkkkkkkkkOOOOOOOOOOOkkkkkkkkkkkkkkkkkkkkkkkkkkkxl;'.  .,coodoooollllc' 
 cdddddddddddddxxxxxxxxxxkkkkkkkkkkkkkkkkkkkkkkkkkxxkkkkkkkkkkkkxxxd,......  ...,looooollll, 
 cddddddddddddddddddxxxxxxxkkkkkkkkkkkkkkkkkkkkkkkkkkkkkkkkkkkkkkkd.............',ooooooooo, 
 cdddddddddddddddxxxxxxxxxkkkkkkkkkkkkkkkkkkkkkkkkkkkkkkkkkkkkkkkkl............'',ddddddddd, 
 cddddxxxxxxxxxxxxxxxxxxxkkkkkkkkkkkkkkkkkkkkkkkkkkkkkkkkkkkkkkkkkkl.............:ddddddddd, 
 cdxxxxxxxxxxxxxxxxxxxxxxkkkkkkkkkkOOOOOOOOOkkkkkkkkkkkkkkkkkkkkkkkkl'..........'lddddddddd, 
 cddxxxxxxxxxxxxxxxxxxxxxkkkkkkkkkkkkkkkkkkkkkkkkkkkkkkkxol::;,''.....       ...;oooooooooo, 
 cddddddddddddddddddxxxxxxxxxxxxxkxcldolllcccc::::;;;;;'......  .            ....:llcccllll' 
 ;llllcccccccccccccclllllllloolll,..;;......          ...........                .:ccc:::::. 
 ,::::::::::::::::::cclllllllllc..,cco.   .            ..........                 .;:::;:;;. 
 ,:::::::::::::::::ccclllllllllc,.'cl:''........       ...........               ..',,;;;;,. 
 ,:::::;;;;;;;,,,,,;;;:::::::::::;:;;collcccc:::::;:cccccc::,..                  ...'''''''. 
 ';;;;:;;;;,,,'',',,;;::;:,;;;;::,,,,'cdoollllcccccccllcc:::::,.           .     .....'''.'. 
 .',,;;;;,,,,''''.''.'',,,,,,:ccc;....odooollcccc::::;;;:;;;;;;..          ...   ........... 
 .';';,,,'',,::'''''...',,,,'''.......llclooollllollollllllc:;'             ..   ..',''''... 
 .'',,;''..,;:;,;;'..'....','''...... ::,c;';;:cccclllccccloooc.                 ..';;;,,',. 
 '''.'..','''''....',,...,;.   ...        ,dx;'''',;::ool:l::l:              . ..,,,::;;;;;. 
 .;,.......'',''.,,:oc;'.'.    ...        .;xo,,',::::o:,;;;;c:                ..c;;loooool, 
 .''.',,::'......cllocl:.      .....       .ckl,,;,,;cd:'',,,;.                .';;:::;;:::. 
 ''';lcc;;,:d,'''oxxxcl:. ..........        .okd;;,;;,;...',..                 .;;cooolc;;;. 
 ,,;:c;',,,ol;,,;oxxxc'......................'dkx;::;;,'',,..                 .',,llll:c,'c' 
 ,c;;,',,,'cc;'':oxxx,.....'..................'dkk;,;,,,lc'.                 ..,,';;'c;;;;c' 
 .;,,;,',;loc:'.;oxd,...'''....'''.............,cod:'',,;;.             .. ..',..';c,c:..;;. 
 ......';cxxxx:,:do'...''......'.'......... ...... .......              ..lx:;:;''';:,,..',. 
 ,,'',,;;cxxxlcldl'..',,'','. ...''......... .'...    ..;,             .,odxl.';;;,',,...';. 
 ,,..,;::;;cccldl,'',;;''::;;,''',''''''',,,,,,,...    ,;,. .       .....:oolclcco:;,c'..',. 
 ';;';'.';;;::;c;,,,::,,::::::;;;,,,,,,,',;;;,,,,...   .;c. ........'....;oo;;lllc;..,;.'..  
 ';;::;.';:c,'::;;;cc;':ccccc::;;'',,,,''',;;;;,;,..,;,..;,..............;lo,.cc::.  .'''... 
 .;cc:;;;;c,,:::::ccc;,:ccc::::::;,,,,,,',,;:::::;'..ccol;;.  ...........;llc.'..:'  ..,.... 
 .',','.':;;::::::cc:';;:::::::cl:cllc;,,;;;cllccc:'.,lclc.     .........;ooo;. .:c. ...  .  
 ...'''....',,;;:c:;',;::;::coddxdddcll,,;:;cllllll:.            .',.....;loxo. .'l'.......  
 .....',...;clodddoooooooooooddoollllcc:,;;,:::;;;;;,,,'.... .....;c;'...;oodo.''..'''.....  
 '....''..';coxkOOOOO000Okkdol:;,',,,'.',,;;:cllllollcc:,.. .',;'.;:,';::cooxxl....'.. .';:  
 ...,''...'';:loxkxxkkxxxdol:;,'..........''',;;;:cllllc:.'.'',;'.,:,.'llclldxl;cc:......;d. 
