 ;cllllllllllllllllllloooooooooooooooooooooooooooolllllllllllllllllllllllllllccccc:::::::;;. 
 cxxxxxxxxkkkkkkkkkkkkkkkkkkkkkkkOOOOOOOOOOkkkkkkkkkkkkkkkkkkkkkkkkkkkkkkxxddddddddoooolllc' 
 cddddddddddddddxxxxxxxxxxxkkkkkkkkkkkkkkkkkkkkkkkkkxxxxxkkkkkkkkkkxlcl;'..',;ooooooooollll, 
 codddddddddddddddddxxxxxxxxkkkkkkkkkkkkkkkkkkkkkkkkkkkkkkkkkkkkkkkc........'';ddddddoooooo, 
 cddddddddddddddddxxxxxxxxxkkkkkkkkkkkkkkkkkkkkkkkkkkkkkkkkkkkkkkkc.    .....',odxxxddddddd, 
 cdddddxxxxxxxxxxxxxxxxxxkkkkkkkkkkkkkOOOOOOOkkkkkkkkkkkkkkkkkkkkd.....  .....'oddddddddddd, 
 cdxxxxxxxxxxxxxxxxxxxxxxkkkkkkkkkkkOOOOOOOOOkkkkkkkkkkkkkkkkkkkx'.............;ddddddddddd, 
 cdddxxxxxxxxxxxxxxxxxxxxkkkkkkkkkkkkOOOOkkkkkkkkkkkkkkxoc:;,'.........  ... ...,oooooooooo, 
 cddddddddddddddddddxxdxxxxxxxxxxkxc:ccccc:;;;,,,'...........    ..     .    ....;lllllllll' 
 ;cclllllcccccccccccclllllllllllc,.........           .... .    .                .:ccc:::::. 
 ,::::::::::::::::::cccllllllllc..':.                 ....   .  .                 .;:::;:;;. 
 ,::::::::::::::::::ccllllllllcc,..:,''''''...................'......            ..',,,;;;;. 
 ,:::::;;;;;;;;,,,,,;;:::::::::::;:;:cdllllcc::::cclllcccccc::c;.......          ...'''''''. 
 ';;;;:;;;;,,',',',,;;::;:;;;;;::;,;;:odooolllcclcccllcc:::::::'.  ..             ...''''''. 
 .',,;;;;,,,,''''.''.'',,,,,,:c:c;','.lxdooollcccc:::;;;;;;;;;;.. ...             .......... 
 .',';,,,'',,::','''...',,;,'''.......llcoddooooooollllllllc:;;.                   .'.'''... 
 .'',,;''..,;c;,;,'..'....','''.......;:;c;,;:cclccllcccclloool.                    ',,,,',. 
 ','.'..',''''.....',,...,;.. ............,xx:'''',;::loc:c::cc.                     ;;;;;;. 
 .;,.......'',''.,,:oc;'.'.  ............ .:kd,,',c:::l:,;;;;cc.                     :ooool' 
 .'''',,::'....'.cllocl:.   ..........',,. .cxl,,;,,;coc'',,,;'.                  .  ,;;:::' 
 ''';lcc;;,:o,'''lxxxcl:. ............'',.  .cxd;;,;;,,...',...                .....:ol:;;;. 
 ,,;cc;',,,oc:,,;oxxxl'....'..........'..    .lxx;::;;,'',,'.                   ..,cll:c,.c' 
 ,c;,,,,,,':c;'':oxxx,.....'............      .cxk;,;,,,lc'.                   ..';:,c;;;;c' 
 .;,,;;,,:llcc'.;oxx,...'''....'''.....        .;ld:'',,;;'                 ..'..':c,l:..;;. 
 ......';cxxxx:':oo'...''......'.'....              .......           .. .;d:;:;',';:;,..';. 
 ,,.',,;;cxxxlcldl'..',,..'.  .......            .    ..;,.            .'ldxl.':;;,',,...';. 
 ,,..,:::;;:cccdl''',;;'';;;,'...'.....      ..'...    ';,. .        ....:oocclcloc;,c'..',. 
 ';;,;'.';;;::;c;,,,::,,:::::;;,''.....   .',,,,,...   .;:. ........'....:oo;,llll;..,;.'..  
 ';;:c;.';:c,':;;;;:c;':ccc:::;,''.....   .;;;;;;,..';'..;,. ............;lo,.cc::.  .'''... 
 .;cc:;,;;c,,::::;ccc,';cc:;;;;::,,,,,,'',;:cccc:;'..ccll,;.  ...........;lo:.''.:,  ..'.... 
 .',','.':;;:::::::c;,,;:::::::cc:lolc:,,;;;clllcc:,.'lcc:.     .........;llo;...:c. ...  .  
 ...'''....',,,;;::;'';::;;:coddddoo:ll;,;:;cllllll:.            ..,.....;loxd...'c'.......  
 .....',..';clodddooooooooooodoolccllcc:;;;;:c::;;;;,,,'..........;:;'...;oodo.'...'''.....  
 '....',..';coxkOOOOO000Okkdoc:;'',,,'.,,,;::lllllollcc:,.. .',,'.;:,';::cooxxl....'.. .';:  
 ...,''....';:loxkxxkkkxxdolc;,'..........''',;;::cllllc;.'.'',;'.,:,..clcloddl,cc:......:d. 
