 ;cllllllllllllllllllloooooooooooooooooooooooooooolllllllllllllllllllllllllllccccc:::::::;;. 
 cxxxxxxxxkkkkxxxkkkkkkkkkkkkkkkkkOOOOOOOOkkkkkkkkkkkkkkkkkkkkkkkkkkkkkkkkxxxxdddddoooolllc' 
 cddddddddddddddxxxxxxxxxxxxkkkkkkkkkkkkkkkkkkkkkkkkkxxxxxkkkkkkkkkkkkxdxxxxxxdddddoooollll, 
 codddddddddddddddddxxxxxxxxxkkkkkkkkkkkkkkkkkkkkkkkkkkkkkkkkkkkkkkdc,,,,:ldxxxxddddddooooo, 
 cddddddddddddddddxxxxxxxxxxkkkkkkkkkkkkkkkkkkkkkkkkkkkkkkkkkkkkkx;...''''',dxxxxxxxxdddddd, 
 cddddddxxxxxxxxxxxxxxxxxxkkkkkkkkkkkkOOOOOOOkkkkkkkkkkkkkkkkkd:,...........,oxxxxxdddddddd, 
 cdxxxxxxxxxxxxxxxxxxxxxxkkkkkkkkkkkkOOOOOOOOkkkkkkkkkkkkkkkkxc............''.;dxdddddddddd, 
 cdddddxxxxxxdxxxxxxxxxxxxkkkkkkkkkkkkkkkkkxxxdooolcc:::;,'.....................cdooooooooo, 
 cdddddddddddddddddddxxxxxxxxxxxxxo:;''........        ......  ............   . .clllllllll' 
 ;llllllcccccccccccccclllllllllll'....                 .....  .....   ...     .. .:cccc::::. 
 ,:::::::::::::::cc:cccllllllllc'.':..  .              ....    ...                .;:::::;;. 
 ,:::::::::::::::::cccccllllllcc:,':'':cc:;:::::;;;,;:ccc:::;;::...                .,,,;;;;. 
 ,::::::;;;;;;,,;,,,;;;::::::::::;;''.;lccccc::::cclllllcccc:ccc'.....           ...'''''''. 
 ';;:;:;;;;;,',',',,;;::;:,;;;;::;'''.:doollllcclcccclcc::::::::........         ...'.'''.'. 
 .',,;;;;;,,,''''..'.'',,,',,:ccc:',,,oddoollcccc:::::;;;;;;;;;;.  ...          ............ 
 .';';;,,'',,::','''...''';,'''.......ccclooooooooololllllll::;'......           ..',''''... 
 .'',,;,'..,;::,;;'..'....''''........;:,c;,,;:cccccllccclloodo;                 ..';;;;,',. 
 ',''''.',,'','....',,'..,;..  ...........,xk:''',;;::ool:cc:cc;               ....,:::;;;;. 
 .;,.......'',''.,,:ol:'.'.  ..........'''.;xx,,''c:::o:,;;;;cc;           ........;loooool, 
 .'''',,::'.'....:ococlc.   ..........',,,..:xo,,;,';:oc'',,,;;.         ..........;::;;;::. 
 ''';lcc;;,:d,'''lxxxll:. .............',,'..cxx;;,;;,;...',.'.            .....   ;oll:;;;. 
 ,;,:c:',,,ol:,,;lxxxl'....''...........''''..cxk:::;;,'',,'.                     .'ll::;.c' 
 ,l;;;,',,':c:'';oxxx;.....'...................lxk:,:,,,lc'.                   ... .'::,;;:. 
 .;',;;,,;locc,.;oxx,....''....'''.............'clxc'',,;;,.                  .   .;,c:..;;. 
 ......';cxxxxc':oo,...'''.....'.'.......... ...   ........                       .,:,,...,. 
 ,;.',,;;cdxxlcldl'..',,'.,'. ...''......... .'..     ..,,.             .,,.     .,.,'....;. 
 ,;..,;;c;;:cccdl,'',;;,';;;;'''''''''''',,,,,,,...    .;,.            ..;;.    .,:;,c'..';. 
 ';;,,,.';;;;:;c;,,,;;,':::::;;;,,',,,,,',;;,,,,,...    ;c. ...      ....',.    .:;..,;.,..  
 ';;::;'.;:c;';:;;;:c:';ccccc::;,,''',,''',;;;;,,,...,'. ,,. ....    ....'.    .,:'  .''''.. 
 .;cc:;;;;c,,:::::ccc;,:ccc::::::,,,,,,,'',;::::;;,..cccc,,'  ...    ......   ...:,   .'.... 
 '''','.':;;c::::::::,,;:::::::cc;:ccc:,,;;;:ccccc:,.'lccc.          .....   ....;l.  ..  .  
 ...','....',,,;;::;'';::;;:coddxdodlcl;,;:;:lllllc:'             .'....... .'  .'c,.......  
 '....',...;coddddoooooodoooodoollccc:::;,;;;::;:;,;,,''. ..      ,c:.......',..'.''''.....  
 '....',..';codkOOOkO000Okkdoc:;,',,,'.,,,;;;cllllollcc:,..    ''.,c;.,'..';lxo....'.. .';:  
 ...,''....',:loxxxxxkkxxdolc;,'..........''',;;;:cclllc:.'..  .'.,:,..lc:codxo;::c......;d. 
